
T58B8 000:001 SEGGER J-Link V6.20b Log File (0000ms, 0001ms total)
T58B8 000:001 DLL Compiled: Sep 22 2017 17:57:26 (0000ms, 0001ms total)
T58B8 000:001 Logging started @ 2018-05-17 14:45 (0000ms, 0001ms total)
T58B8 000:001 JLINK_SetWarnOutHandler(...) (0000ms, 0001ms total)
T58B8 000:001 JLINK_OpenEx(...)
Firmware: J-Link OB-SAM3U128-V2-NordicSemi compiled Jul 24 2017 17:30:12
Hardware: V1.00
S/N: 683508989
TELNET listener socket opened on port 19021WEBSRV 
Webserver running on local port 19080  returns O.K. (0023ms, 0024ms total)
T58B8 000:024 JLINK_GetEmuCaps()  returns 0xB8EA5A33 (0000ms, 0024ms total)
T58B8 000:024 JLINK_TIF_GetAvailable(...) (0001ms, 0025ms total)
T58B8 000:025 JLINK_SetErrorOutHandler(...) (0000ms, 0025ms total)
T58B8 000:025 JLINK_ExecCommand("ProjectFile = "C:\Users\marcus\Documents\coded-production\nRF5_SDK_14.2.0_17b948a\nRF5_SDK_14.2.0_17b948a-MOD1\examples\ble_peripheral\ble_app_uart_old\pca10056\s140\arm5_no_packs\JLinkSettings.ini"", ...). C:\Program Files (x86)\SEGGER\JLink_V620b\JLinkDevices.xml evaluated successfully.  returns 0x00 (0150ms, 0175ms total)
T58B8 000:175 JLINK_ExecCommand("Device = nRF52840_xxAA", ...). Device "NRF52840_XXAA" selected.  returns 0x00 (0004ms, 0179ms total)
T58B8 000:179 JLINK_ExecCommand("DisableConnectionTimeout", ...).   returns 0x01 (0000ms, 0179ms total)
T58B8 000:179 JLINK_GetHardwareVersion()  returns 0x2710 (0000ms, 0179ms total)
T58B8 000:179 JLINK_GetDLLVersion()  returns 62002 (0000ms, 0179ms total)
T58B8 000:179 JLINK_GetFirmwareString(...) (0000ms, 0179ms total)
T58B8 000:179 JLINK_GetDLLVersion()  returns 62002 (0000ms, 0179ms total)
T58B8 000:179 JLINK_GetCompileDateTime() (0000ms, 0179ms total)
T58B8 000:179 JLINK_GetFirmwareString(...) (0000ms, 0179ms total)
T58B8 000:179 JLINK_GetHardwareVersion()  returns 0x2710 (0000ms, 0179ms total)
T58B8 000:179 JLINK_TIF_Select(JLINKARM_TIF_SWD)  returns 0x00 (0006ms, 0185ms total)
T58B8 000:185 JLINK_SetSpeed(5000) (0001ms, 0186ms total)
T58B8 000:186 JLINK_GetId() >0x10B TIF>Found SW-DP with ID 0x2BA01477 >0x0D TIF> >0x28 TIF> >0x0D TIF> >0x28 TIF> >0x10B TIF>Found SW-DP with ID 0x2BA01477 >0x0D TIF> >0x28 TIF> >0x0D TIF> >0x28 TIF> >0x0D TIF> >0x28 TIF> >0x0D TIF> >0x28 TIF> >0x35 TIF> >0x0D TIF> >0x28 TIF>Scanning AP map to find all available APs >0x0D TIF> >0x28 TIF> >0x35 TIF> >0x35 TIF> >0x0D TIF> >0x28 TIF> >0x35 TIF> >0x35 TIF> >0x0D TIF> >0x28 TIF> >0x35 TIF> >0x35 TIF>AP[2]: Stopped AP scan as end of AP map has been reached
AP[0]: AHB-AP (IDR: 0x24770011)AP[1]: JTAG-AP (IDR: 0x02880000)Iterating through AP map to find AHB-AP to use >0x42 TIF> >0x28 TIF> >0x35 TIF> >0x35 TIF> >0x42 TIF> >0x28 TIF> >0x0D TIF> >0x28 TIF> >0x0D TIF> >0x28 TIF> >0x35 TIF> >0x35 TIF>AP[0]: Core foundAP[0]: AHB-AP ROM base: 0xE00FF000 >0x0D TIF> >0x28 TIF> >0x0D TIF> >0x28 TIF> >0x0D TIF> >0x28 TIF> >0x35 TIF> >0x35 TIF>CPUID register: 0x410FC241. Implementer code: 0x41 (ARM)Found Cortex-M4 r0p1, Little endian. -- CPU_ReadMem(4 bytes @ 0xE000EDF0)
 -- CPU_ReadMem(4 bytes @ 0xE0002000)FPUnit: 6 code (BP) slots and 2 literal slots -- CPU_ReadMem(4 bytes @ 0xE000EDFC) -- CPU_ReadMem(4 bytes @ 0xE0001000) -- CPU_WriteMem(4 bytes @ 0xE0001000) -- CPU_ReadMem(4 bytes @ 0xE000ED88) -- CPU_WriteMem(4 bytes @ 0xE000ED88) -- CPU_ReadMem(4 bytes @ 0xE000ED88) -- CPU_WriteMem(4 bytes @ 0xE000ED88)CoreSight components:ROMTbl[0] @ E00FF000 -- CPU_ReadMem(16 bytes @ 0xE00FF000) -- CPU_ReadMem(16 bytes @ 0xE000EFF0) -- CPU_ReadMem(16 bytes @ 0xE000EFE0)
ROMTbl[0][0]: E000E000, CID: B105E00D, PID: 000BB00C SCS -- CPU_ReadMem(16 bytes @ 0xE0001FF0) -- CPU_ReadMem(16 bytes @ 0xE0001FE0)ROMTbl[0][1]: E0001000, CID: B105E00D, PID: 003BB002 DWT -- CPU_ReadMem(16 bytes @ 0xE0002FF0) -- CPU_ReadMem(16 bytes @ 0xE0002FE0)ROMTbl[0][2]: E0002000, CID: B105E00D, PID: 002BB003 FPB -- CPU_ReadMem(16 bytes @ 0xE0000FF0) -- CPU_ReadMem(16 bytes @ 0xE0000FE0)ROMTbl[0][3]: E0000000, CID: B105E00D, PID: 003BB001 ITM -- CPU_ReadMem(16 bytes @ 0xE00FF010)
 -- CPU_ReadMem(16 bytes @ 0xE0040FF0) -- CPU_ReadMem(16 bytes @ 0xE0040FE0)ROMTbl[0][4]: E0040000, CID: B105900D, PID: 000BB9A1 TPIU -- CPU_ReadMem(16 bytes @ 0xE0041FF0) -- CPU_ReadMem(16 bytes @ 0xE0041FE0)ROMTbl[0][5]: E0041000, CID: B105900D, PID: 000BB925 ETM >0x35 TIF>  returns 0x2BA01477 (0138ms, 0324ms total)
T58B8 000:324 JLINK_GetDLLVersion()  returns 62002 (0000ms, 0324ms total)
T58B8 000:324 JLINK_CORE_GetFound()  returns 0xE0000FF (0000ms, 0324ms total)
T58B8 000:324 JLINK_GetDebugInfo(0x100 = JLINKARM_ROM_TABLE_ADDR_INDEX) -- Value=0xE00FF000  returns 0x00 (0000ms, 0324ms total)
T58B8 000:324 JLINK_GetDebugInfo(0x100 = JLINKARM_ROM_TABLE_ADDR_INDEX) -- Value=0xE00FF000  returns 0x00 (0000ms, 0324ms total)
T58B8 000:324 JLINK_GetDebugInfo(0x101 = JLINKARM_DEBUG_INFO_ETM_ADDR_INDEX) -- Value=0xE0041000  returns 0x00 (0000ms, 0324ms total)
T58B8 000:324 JLINK_ReadMemEx(0xE0041FD0, 0x0020 Bytes, ..., Flags = 0x02000004) -- CPU_ReadMem(32 bytes @ 0xE0041FD0) - Data: 04 00 00 00 00 00 00 00 00 00 00 00 00 00 00 00 ...  returns 0x20 (0001ms, 0325ms total)
T58B8 000:325 JLINK_GetDebugInfo(0x102 = JLINKARM_DEBUG_INFO_MTB_ADDR_INDEX) -- Value=0x00000000  returns 0x00 (0000ms, 0325ms total)
T58B8 000:325 JLINK_GetDebugInfo(0x103 = JLINKARM_DEBUG_INFO_TPIU_ADDR_INDEX) -- Value=0xE0040000  returns 0x00 (0000ms, 0325ms total)
T58B8 000:325 JLINK_GetDebugInfo(0x104 = JLINKARM_DEBUG_INFO_ITM_ADDR_INDEX) -- Value=0xE0000000  returns 0x00 (0000ms, 0325ms total)
T58B8 000:325 JLINK_GetDebugInfo(0x105 = JLINKARM_DEBUG_INFO_DWT_ADDR_INDEX) -- Value=0xE0001000  returns 0x00 (0000ms, 0325ms total)
T58B8 000:325 JLINK_GetDebugInfo(0x106 = JLINKARM_DEBUG_INFO_FPB_ADDR_INDEX) -- Value=0xE0002000  returns 0x00 (0000ms, 0325ms total)
T58B8 000:326 JLINK_GetDebugInfo(0x107 = JLINKARM_DEBUG_INFO_NVIC_ADDR_INDEX) -- Value=0xE000E000  returns 0x00 (0000ms, 0326ms total)
T58B8 000:326 JLINK_GetDebugInfo(0x10C = JLINKARM_DEBUG_INFO_DBG_ADDR_INDEX) -- Value=0xE000EDF0  returns 0x00 (0000ms, 0326ms total)
T58B8 000:326 JLINK_ReadMemU32(0xE000EF40, 0x0001 Items, ...) -- CPU_ReadMem(4 bytes @ 0xE000EF40) - Data: 21 00 11 10  returns 0x01 (0001ms, 0327ms total)
T58B8 000:327 JLINK_ReadMemU32(0xE000EF44, 0x0001 Items, ...) -- CPU_ReadMem(4 bytes @ 0xE000EF44) - Data: 11 00 00 11  returns 0x01 (0002ms, 0329ms total)
T58B8 000:329 JLINK_ReadMemU32(0xE000ED00, 0x0001 Items, ...) -- CPU_ReadMem(4 bytes @ 0xE000ED00) - Data: 41 C2 0F 41  returns 0x01 (0001ms, 0330ms total)
T58B8 000:330 JLINK_GetDebugInfo(0x10F = JLINKARM_DEBUG_INFO_HAS_CORTEX_M_SECURITY_EXT_INDEX) -- Value=0x00000000  returns 0x00 (0000ms, 0330ms total)
T58B8 000:330 JLINK_SetResetType(JLINKARM_CM3_RESET_TYPE_NORMAL)  returns JLINKARM_CM3_RESET_TYPE_NORMAL (0000ms, 0330ms total)
T58B8 000:330 JLINK_Reset() -- CPU is running -- CPU_WriteMem(4 bytes @ 0xE000EDF0) -- CPU is running -- CPU_WriteMem(4 bytes @ 0xE000EDFC)Reset: Halt core after reset via DEMCR.VC_CORERESET. >0x35 TIF>Reset: Reset device via AIRCR.SYSRESETREQ. -- CPU is running -- CPU_WriteMem(4 bytes @ 0xE000ED0C) >0x0D TIF> >0x28 TIF> -- CPU_ReadMem(4 bytes @ 0xE000EDF0) -- CPU_ReadMem(4 bytes @ 0xE000EDF0) -- CPU is running -- CPU_WriteMem(4 bytes @ 0xE000EDF0) -- CPU is running -- CPU_WriteMem(4 bytes @ 0xE000EDFC)
 -- CPU_ReadMem(4 bytes @ 0xE000EDF0) -- CPU_WriteMem(4 bytes @ 0xE0002000) -- CPU_ReadMem(4 bytes @ 0xE000EDFC) -- CPU_ReadMem(4 bytes @ 0xE0001000) (0074ms, 0404ms total)
T58B8 000:404 JLINK_ReadReg(R15 (PC))  returns 0x000008E4 (0000ms, 0404ms total)
T58B8 000:404 JLINK_ReadReg(XPSR)  returns 0x01000000 (0000ms, 0404ms total)
T58B8 000:404 JLINK_Halt()  returns 0x00 (0000ms, 0404ms total)
T58B8 000:404 JLINK_ReadMemU32(0xE000EDF0, 0x0001 Items, ...) -- CPU_ReadMem(4 bytes @ 0xE000EDF0) - Data: 03 00 03 00  returns 0x01 (0054ms, 0458ms total)
T58B8 000:458 JLINK_WriteU32(0xE000EDF0, 0xA05F0003) -- CPU_WriteMem(4 bytes @ 0xE000EDF0)  returns 0x00 (0001ms, 0459ms total)
T58B8 000:459 JLINK_WriteU32(0xE000EDFC, 0x01000000) -- CPU_WriteMem(4 bytes @ 0xE000EDFC)  returns 0x00 (0000ms, 0459ms total)
T58B8 000:459 JLINK_GetHWStatus(...)  returns 0x00 (0000ms, 0459ms total)
T58B8 000:459 JLINK_GetNumBPUnits(Type = 0xFFFFFF00)  returns 0x06 (0001ms, 0460ms total)
T58B8 000:460 JLINK_GetNumBPUnits(Type = 0xF0)  returns 0x2000 (0000ms, 0460ms total)
T58B8 000:460 JLINK_GetNumWPUnits()  returns 0x04 (0000ms, 0460ms total)
T58B8 000:460 JLINK_GetSpeed()  returns 0x3E8 (0000ms, 0460ms total)
T58B8 000:460 JLINK_ReadMemU32(0xE000E004, 0x0001 Items, ...) -- CPU_ReadMem(4 bytes @ 0xE000E004) - Data: 01 00 00 00  returns 0x01 (0000ms, 0460ms total)
T58B8 000:460 JLINK_ReadMemU32(0xE000E004, 0x0001 Items, ...) -- CPU_ReadMem(4 bytes @ 0xE000E004) - Data: 01 00 00 00  returns 0x01 (0001ms, 0461ms total)
T58B8 000:461 JLINK_WriteMemEx(0xE0001000, 0x001C Bytes, ..., Flags = 0x02000004) - Data: 01 00 00 00 00 00 00 00 00 00 00 00 00 00 00 00 ... -- CPU_WriteMem(28 bytes @ 0xE0001000)  returns 0x1C (0001ms, 0462ms total)
T58B8 000:462 JLINK_ReadReg(R15 (PC))  returns 0x000008E4 (0000ms, 0462ms total)
T58B8 000:462 JLINK_ReadReg(XPSR)  returns 0x01000000 (0000ms, 0462ms total)
T58B8 000:567 JLINK_SetResetType(JLINKARM_CM3_RESET_TYPE_NORMAL)  returns JLINKARM_CM3_RESET_TYPE_NORMAL (0000ms, 0462ms total)
T58B8 000:567 JLINK_Reset() -- CPU_WriteMem(4 bytes @ 0xE000EDF0) -- CPU_WriteMem(4 bytes @ 0xE000EDFC)Reset: Halt core after reset via DEMCR.VC_CORERESET. >0x35 TIF>Reset: Reset device via AIRCR.SYSRESETREQ. -- CPU_WriteMem(4 bytes @ 0xE000ED0C) >0x0D TIF> >0x28 TIF> -- CPU_ReadMem(4 bytes @ 0xE000EDF0) -- CPU_ReadMem(4 bytes @ 0xE000EDF0) -- CPU_WriteMem(4 bytes @ 0xE000EDF0) -- CPU_WriteMem(4 bytes @ 0xE000EDFC) -- CPU_ReadMem(4 bytes @ 0xE000EDF0) -- CPU_WriteMem(4 bytes @ 0xE0002000)
 -- CPU_ReadMem(4 bytes @ 0xE000EDFC) -- CPU_ReadMem(4 bytes @ 0xE0001000) (0092ms, 0554ms total)
T58B8 000:659 JLINK_ReadReg(R15 (PC))  returns 0x000008E4 (0000ms, 0554ms total)
T58B8 000:659 JLINK_ReadReg(XPSR)  returns 0x01000000 (0000ms, 0554ms total)
T58B8 000:660 JLINK_ReadMemEx(0x000008E4, 0x003C Bytes, ..., Flags = 0x02000000) -- CPU_ReadMem(128 bytes @ 0x000008C0) -- Updating C cache (128 bytes @ 0x000008C0) -- Read from C cache (60 bytes @ 0x000008E4) - Data: 06 4B 18 47 06 4A 10 60 01 68 81 F3 08 88 40 68 ...  returns 0x3C (0058ms, 0612ms total)
T58B8 002:116 JLINK_ReadMemEx(0x00022BD8, 0x0028 Bytes, ..., Flags = 0x02000000) -- CPU_ReadMem(64 bytes @ 0x00022BC0) -- Updating C cache (64 bytes @ 0x00022BC0) -- Read from C cache (40 bytes @ 0x00022BD8) - Data: 69 46 00 20 00 F0 E8 FD 04 46 00 BF 26 46 26 B1 ...  returns 0x28 (0001ms, 0613ms total)
T58B8 002:117 JLINK_ReadMemEx(0x00022C00, 0x0014 Bytes, ..., Flags = 0x02000000) -- CPU_ReadMem(64 bytes @ 0x00022C00) -- Updating C cache (64 bytes @ 0x00022C00) -- Read from C cache (20 bytes @ 0x00022C00) - Data: 00 20 28 70 F8 BD 70 B5 00 20 06 F0 EB FC 04 46 ...  returns 0x14 (0002ms, 0615ms total)
T58B8 002:330 JLINK_ReadReg(R0)  returns 0x00000000 (0034ms, 0649ms total)
T58B8 002:364 JLINK_ReadReg(R1)  returns 0x00000000 (0000ms, 0649ms total)
T58B8 002:364 JLINK_ReadReg(R2)  returns 0x00000000 (0000ms, 0649ms total)
T58B8 002:364 JLINK_ReadReg(R3)  returns 0x00000000 (0000ms, 0649ms total)
T58B8 002:364 JLINK_ReadReg(R4)  returns 0x00000000 (0000ms, 0649ms total)
T58B8 002:364 JLINK_ReadReg(R5)  returns 0x00000000 (0000ms, 0649ms total)
T58B8 002:364 JLINK_ReadReg(R6)  returns 0x00000000 (0000ms, 0649ms total)
T58B8 002:364 JLINK_ReadReg(R7)  returns 0x00000000 (0001ms, 0650ms total)
T58B8 002:365 JLINK_ReadReg(R8)  returns 0x00000000 (0000ms, 0650ms total)
T58B8 002:365 JLINK_ReadReg(R9)  returns 0x00000000 (0000ms, 0650ms total)
T58B8 002:365 JLINK_ReadReg(R10)  returns 0x00000000 (0000ms, 0650ms total)
T58B8 002:365 JLINK_ReadReg(R11)  returns 0x00000000 (0000ms, 0650ms total)
T58B8 002:365 JLINK_ReadReg(R12)  returns 0x00000000 (0000ms, 0650ms total)
T58B8 002:365 JLINK_ReadReg(R13 (SP))  returns 0x20000400 (0000ms, 0650ms total)
T58B8 002:365 JLINK_ReadReg(R14)  returns 0xFFFFFFFF (0000ms, 0650ms total)
T58B8 002:365 JLINK_ReadReg(R15 (PC))  returns 0x000008E4 (0000ms, 0650ms total)
T58B8 002:365 JLINK_ReadReg(XPSR)  returns 0x01000000 (0000ms, 0650ms total)
T58B8 002:365 JLINK_ReadReg(MSP)  returns 0x20000400 (0000ms, 0650ms total)
T58B8 002:365 JLINK_ReadReg(PSP)  returns 0x00000000 (0000ms, 0650ms total)
T58B8 002:365 JLINK_ReadReg(CFBP)  returns 0x00000000 (0000ms, 0650ms total)
T58B8 002:365 JLINK_ReadReg(FPSCR)  returns 0x00000000 (0011ms, 0661ms total)
T58B8 002:376 JLINK_ReadReg(FPS0)  returns 0x00000000 (0001ms, 0662ms total)
T58B8 002:377 JLINK_ReadReg(FPS1)  returns 0x00000000 (0000ms, 0662ms total)
T58B8 002:377 JLINK_ReadReg(FPS2)  returns 0x00000000 (0000ms, 0662ms total)
T58B8 002:377 JLINK_ReadReg(FPS3)  returns 0x00000000 (0000ms, 0662ms total)
T58B8 002:377 JLINK_ReadReg(FPS4)  returns 0x00000000 (0000ms, 0662ms total)
T58B8 002:377 JLINK_ReadReg(FPS5)  returns 0x00000000 (0000ms, 0662ms total)
T58B8 002:377 JLINK_ReadReg(FPS6)  returns 0x00000000 (0000ms, 0662ms total)
T58B8 002:377 JLINK_ReadReg(FPS7)  returns 0x00000000 (0000ms, 0662ms total)
T58B8 002:377 JLINK_ReadReg(FPS8)  returns 0x00000000 (0000ms, 0662ms total)
T58B8 002:377 JLINK_ReadReg(FPS9)  returns 0x00000000 (0000ms, 0662ms total)
T58B8 002:377 JLINK_ReadReg(FPS10)  returns 0x00000000 (0000ms, 0662ms total)
T58B8 002:377 JLINK_ReadReg(FPS11)  returns 0x00000000 (0000ms, 0662ms total)
T58B8 002:377 JLINK_ReadReg(FPS12)  returns 0x00000000 (0000ms, 0662ms total)
T58B8 002:377 JLINK_ReadReg(FPS13)  returns 0x00000000 (0000ms, 0662ms total)
T58B8 002:377 JLINK_ReadReg(FPS14)  returns 0x00000000 (0000ms, 0662ms total)
T58B8 002:377 JLINK_ReadReg(FPS15)  returns 0x00000000 (0000ms, 0662ms total)
T58B8 002:377 JLINK_ReadReg(FPS16)  returns 0x00000000 (0000ms, 0662ms total)
T58B8 002:377 JLINK_ReadReg(FPS17)  returns 0x00000000 (0000ms, 0662ms total)
T58B8 002:377 JLINK_ReadReg(FPS18)  returns 0x00000000 (0000ms, 0662ms total)
T58B8 002:377 JLINK_ReadReg(FPS19)  returns 0x00000000 (0000ms, 0662ms total)
T58B8 002:377 JLINK_ReadReg(FPS20)  returns 0x00000000 (0000ms, 0662ms total)
T58B8 002:377 JLINK_ReadReg(FPS21)  returns 0x00000000 (0000ms, 0662ms total)
T58B8 002:377 JLINK_ReadReg(FPS22)  returns 0x00000000 (0000ms, 0662ms total)
T58B8 002:377 JLINK_ReadReg(FPS23)  returns 0x00000000 (0000ms, 0662ms total)
T58B8 002:377 JLINK_ReadReg(FPS24)  returns 0x00000000 (0000ms, 0662ms total)
T58B8 002:377 JLINK_ReadReg(FPS25)  returns 0x00000000 (0000ms, 0662ms total)
T58B8 002:377 JLINK_ReadReg(FPS26)  returns 0x00000000 (0000ms, 0662ms total)
T58B8 002:377 JLINK_ReadReg(FPS27)  returns 0x00000000 (0000ms, 0662ms total)
T58B8 002:377 JLINK_ReadReg(FPS28)  returns 0x00000000 (0000ms, 0662ms total)
T58B8 002:377 JLINK_ReadReg(FPS29)  returns 0x00000000 (0000ms, 0662ms total)
T58B8 002:378 JLINK_ReadReg(FPS30)  returns 0x00000000 (0000ms, 0662ms total)
T58B8 002:378 JLINK_ReadReg(FPS31)  returns 0x00000000 (0000ms, 0662ms total)
T5990 002:435 JLINK_ReadMemEx(0x000008E4, 0x0002 Bytes, ..., Flags = 0x02000000) -- Read from C cache (2 bytes @ 0x000008E4) - Data: 06 4B  returns 0x02 (0000ms, 0662ms total)
T5990 002:435 JLINK_SetBPEx(Addr = 0x00022C42, Type = 0xFFFFFFF2)  returns 0x00000001 (0000ms, 0662ms total)
T5990 002:435 JLINK_SetBPEx(Addr = 0x00022BD8, Type = 0xFFFFFFF2)  returns 0x00000002 (0000ms, 0662ms total)
T5990 002:435 JLINK_SetBPEx(Addr = 0x00022BC6, Type = 0xFFFFFFF2)  returns 0x00000003 (0000ms, 0662ms total)
T5990 002:435 JLINK_Go() -- CPU_WriteMem(4 bytes @ 0xE0002000) -- CPU_WriteMem(4 bytes @ 0xE0002000) -- CPU_WriteMem(4 bytes @ 0xE0002000) -- CPU_ReadMem(4 bytes @ 0xE0001000) -- CPU_WriteMem(4 bytes @ 0xE0002008) -- CPU_WriteMem(4 bytes @ 0xE000200C) -- CPU_WriteMem(4 bytes @ 0xE0002010) -- CPU_WriteMem(4 bytes @ 0xE0002014) -- CPU_WriteMem(4 bytes @ 0xE0002018) -- CPU_WriteMem(4 bytes @ 0xE000201C) -- CPU_WriteMem(4 bytes @ 0xE0001004) (0006ms, 0668ms total)
T5990 002:542 JLINK_IsHalted()  returns TRUE (0023ms, 0691ms total)
T5990 002:565 JLINK_Halt()  returns 0x00 (0000ms, 0668ms total)
T5990 002:565 JLINK_IsHalted()  returns TRUE (0000ms, 0668ms total)
T5990 002:565 JLINK_IsHalted()  returns TRUE (0000ms, 0668ms total)
T5990 002:565 JLINK_IsHalted()  returns TRUE (0000ms, 0668ms total)
T5990 002:566 JLINK_ReadReg(R15 (PC))  returns 0x00022C42 (0000ms, 0668ms total)
T5990 002:566 JLINK_ReadReg(XPSR)  returns 0x61000000 (0000ms, 0668ms total)
T5990 002:566 JLINK_ClrBPEx(BPHandle = 0x00000001)  returns 0x00 (0000ms, 0668ms total)
T5990 002:566 JLINK_ClrBPEx(BPHandle = 0x00000002)  returns 0x00 (0000ms, 0668ms total)
T5990 002:566 JLINK_ClrBPEx(BPHandle = 0x00000003)  returns 0x00 (0000ms, 0668ms total)
T5990 002:566 JLINK_ReadMemU32(0xE000ED30, 0x0001 Items, ...) -- CPU_ReadMem(4 bytes @ 0xE000ED30) - Data: 02 00 00 00  returns 0x01 (0001ms, 0669ms total)
T5990 002:567 JLINK_ReadMemU32(0xE0001028, 0x0001 Items, ...) -- CPU_ReadMem(4 bytes @ 0xE0001028) - Data: 00 00 00 00  returns 0x01 (0002ms, 0671ms total)
T5990 002:569 JLINK_ReadMemU32(0xE0001038, 0x0001 Items, ...) -- CPU_ReadMem(4 bytes @ 0xE0001038) - Data: 00 02 00 00  returns 0x01 (0002ms, 0673ms total)
T5990 002:571 JLINK_ReadMemU32(0xE0001048, 0x0001 Items, ...) -- CPU_ReadMem(4 bytes @ 0xE0001048) - Data: 00 00 00 00  returns 0x01 (0002ms, 0675ms total)
T5990 002:573 JLINK_ReadMemU32(0xE0001058, 0x0001 Items, ...) -- CPU_ReadMem(4 bytes @ 0xE0001058) - Data: 00 00 00 00  returns 0x01 (0054ms, 0729ms total)
T5990 002:627 JLINK_ReadReg(R0)  returns 0x00022C43 (0000ms, 0729ms total)
T5990 002:627 JLINK_ReadReg(R1)  returns 0x20005A78 (0000ms, 0729ms total)
T5990 002:627 JLINK_ReadReg(R2)  returns 0x00000000 (0000ms, 0729ms total)
T5990 002:627 JLINK_ReadReg(R3)  returns 0x0002B823 (0000ms, 0729ms total)
T5990 002:627 JLINK_ReadReg(R4)  returns 0x0002C2E0 (0000ms, 0729ms total)
T5990 002:627 JLINK_ReadReg(R5)  returns 0x0002C2E0 (0001ms, 0730ms total)
T5990 002:628 JLINK_ReadReg(R6)  returns 0x00000000 (0000ms, 0730ms total)
T5990 002:628 JLINK_ReadReg(R7)  returns 0x00000000 (0000ms, 0730ms total)
T5990 002:628 JLINK_ReadReg(R8)  returns 0x00000000 (0000ms, 0730ms total)
T5990 002:628 JLINK_ReadReg(R9)  returns 0x00000000 (0000ms, 0730ms total)
T5990 002:628 JLINK_ReadReg(R10)  returns 0x00000000 (0000ms, 0730ms total)
T5990 002:628 JLINK_ReadReg(R11)  returns 0x00000000 (0000ms, 0730ms total)
T5990 002:628 JLINK_ReadReg(R12)  returns 0x00000000 (0000ms, 0730ms total)
T5990 002:628 JLINK_ReadReg(R13 (SP))  returns 0x20005A78 (0000ms, 0730ms total)
T5990 002:628 JLINK_ReadReg(R14)  returns 0x0002B7B5 (0000ms, 0730ms total)
T5990 002:628 JLINK_ReadReg(R15 (PC))  returns 0x00022C42 (0000ms, 0730ms total)
T5990 002:628 JLINK_ReadReg(XPSR)  returns 0x61000000 (0000ms, 0730ms total)
T5990 002:628 JLINK_ReadReg(MSP)  returns 0x20005A78 (0000ms, 0730ms total)
T5990 002:628 JLINK_ReadReg(PSP)  returns 0x00000000 (0000ms, 0730ms total)
T5990 002:628 JLINK_ReadReg(CFBP)  returns 0x00000000 (0000ms, 0730ms total)
T5990 002:628 JLINK_ReadReg(FPSCR)  returns 0x00000000 (0011ms, 0741ms total)
T5990 002:639 JLINK_ReadReg(FPS0)  returns 0x00000000 (0000ms, 0741ms total)
T5990 002:639 JLINK_ReadReg(FPS1)  returns 0x00000000 (0000ms, 0741ms total)
T5990 002:639 JLINK_ReadReg(FPS2)  returns 0x00000000 (0000ms, 0741ms total)
T5990 002:639 JLINK_ReadReg(FPS3)  returns 0x00000000 (0000ms, 0741ms total)
T5990 002:639 JLINK_ReadReg(FPS4)  returns 0x00000000 (0000ms, 0741ms total)
T5990 002:639 JLINK_ReadReg(FPS5)  returns 0x00000000 (0000ms, 0741ms total)
T5990 002:639 JLINK_ReadReg(FPS6)  returns 0x00000000 (0000ms, 0741ms total)
T5990 002:639 JLINK_ReadReg(FPS7)  returns 0x00000000 (0001ms, 0742ms total)
T5990 002:640 JLINK_ReadReg(FPS8)  returns 0x00000000 (0000ms, 0742ms total)
T5990 002:640 JLINK_ReadReg(FPS9)  returns 0x00000000 (0000ms, 0742ms total)
T5990 002:640 JLINK_ReadReg(FPS10)  returns 0x00000000 (0000ms, 0742ms total)
T5990 002:640 JLINK_ReadReg(FPS11)  returns 0x00000000 (0000ms, 0742ms total)
T5990 002:640 JLINK_ReadReg(FPS12)  returns 0x00000000 (0000ms, 0742ms total)
T5990 002:640 JLINK_ReadReg(FPS13)  returns 0x00000000 (0000ms, 0742ms total)
T5990 002:640 JLINK_ReadReg(FPS14)  returns 0x00000000 (0000ms, 0742ms total)
T5990 002:640 JLINK_ReadReg(FPS15)  returns 0x00000000 (0000ms, 0742ms total)
T5990 002:640 JLINK_ReadReg(FPS16)  returns 0x00000000 (0000ms, 0742ms total)
T5990 002:640 JLINK_ReadReg(FPS17)  returns 0x00000000 (0000ms, 0742ms total)
T5990 002:640 JLINK_ReadReg(FPS18)  returns 0x00000000 (0000ms, 0742ms total)
T5990 002:640 JLINK_ReadReg(FPS19)  returns 0x00000000 (0001ms, 0743ms total)
T5990 002:641 JLINK_ReadReg(FPS20)  returns 0x00000000 (0000ms, 0743ms total)
T5990 002:641 JLINK_ReadReg(FPS21)  returns 0x00000000 (0000ms, 0743ms total)
T5990 002:641 JLINK_ReadReg(FPS22)  returns 0x00000000 (0000ms, 0743ms total)
T5990 002:641 JLINK_ReadReg(FPS23)  returns 0x00000000 (0000ms, 0743ms total)
T5990 002:641 JLINK_ReadReg(FPS24)  returns 0x00000000 (0000ms, 0743ms total)
T5990 002:641 JLINK_ReadReg(FPS25)  returns 0x00000000 (0000ms, 0743ms total)
T5990 002:641 JLINK_ReadReg(FPS26)  returns 0x00000000 (0000ms, 0743ms total)
T5990 002:641 JLINK_ReadReg(FPS27)  returns 0x00000000 (0000ms, 0743ms total)
T5990 002:641 JLINK_ReadReg(FPS28)  returns 0x00000000 (0000ms, 0743ms total)
T5990 002:641 JLINK_ReadReg(FPS29)  returns 0x00000000 (0000ms, 0743ms total)
T5990 002:641 JLINK_ReadReg(FPS30)  returns 0x00000000 (0000ms, 0743ms total)
T5990 002:641 JLINK_ReadReg(FPS31)  returns 0x00000000 (0001ms, 0744ms total)
T58B8 002:650 JLINK_ReadMemEx(0x20005A70, 0x0001 Bytes, ..., Flags = 0x02000000) -- CPU_ReadMem(64 bytes @ 0x20005A40) -- Updating C cache (64 bytes @ 0x20005A40) -- Read from C cache (1 bytes @ 0x20005A70) - Data: 00  returns 0x01 (0050ms, 0794ms total)
T58B8 002:700 JLINK_ReadMemEx(0x00000000, 0x0004 Bytes, ..., Flags = 0x02000000) -- CPU_ReadMem(64 bytes @ 0x00000000) -- Updating C cache (64 bytes @ 0x00000000) -- Read from C cache (4 bytes @ 0x00000000) - Data: 00 04 00 20  returns 0x04 (0001ms, 0795ms total)
T58B8 002:712 JLINK_ReadMemU32(0xE0001004, 0x0001 Items, ...) -- CPU_ReadMem(4 bytes @ 0xE0001004) - Data: 3D 55 00 00  returns 0x01 (0050ms, 0845ms total)
T5990 003:782 JLINK_ReadMemEx(0x00022C42, 0x0002 Bytes, ..., Flags = 0x02000000) -- CPU_ReadMem(64 bytes @ 0x00022C40) -- Updating C cache (64 bytes @ 0x00022C40) -- Read from C cache (2 bytes @ 0x00022C42) - Data: 08 B5  returns 0x02 (0002ms, 0847ms total)
T5990 003:784 JLINK_SetBPEx(Addr = 0x00022BD8, Type = 0xFFFFFFF2)  returns 0x00000004 (0000ms, 0847ms total)
T5990 003:784 JLINK_SetBPEx(Addr = 0x00022BC6, Type = 0xFFFFFFF2)  returns 0x00000005 (0000ms, 0847ms total)
T5990 003:784 JLINK_Go() -- CPU_WriteMem(4 bytes @ 0xE0002000) -- CPU_WriteMem(4 bytes @ 0xE0002000) -- CPU_ReadMem(4 bytes @ 0xE0001000) -- CPU_WriteMem(4 bytes @ 0xE0002008) -- CPU_WriteMem(4 bytes @ 0xE000200C) -- CPU_WriteMem(4 bytes @ 0xE0002010) (0007ms, 0854ms total)
T5990 003:893 JLINK_IsHalted()  returns TRUE (0026ms, 0880ms total)
T5990 003:919 JLINK_Halt()  returns 0x00 (0000ms, 0854ms total)
T5990 003:919 JLINK_IsHalted()  returns TRUE (0000ms, 0854ms total)
T5990 003:919 JLINK_IsHalted()  returns TRUE (0000ms, 0854ms total)
T5990 003:919 JLINK_IsHalted()  returns TRUE (0000ms, 0854ms total)
T5990 003:919 JLINK_ReadReg(R15 (PC))  returns 0x0002B854 (0000ms, 0854ms total)
T5990 003:919 JLINK_ReadReg(XPSR)  returns 0x81000012 (0000ms, 0854ms total)
T5990 003:919 JLINK_ClrBPEx(BPHandle = 0x00000004)  returns 0x00 (0000ms, 0854ms total)
T5990 003:919 JLINK_ClrBPEx(BPHandle = 0x00000005)  returns 0x00 (0000ms, 0854ms total)
T5990 003:919 JLINK_ReadMemU32(0xE000ED30, 0x0001 Items, ...) -- CPU_ReadMem(4 bytes @ 0xE000ED30) - Data: 02 00 00 00  returns 0x01 (0002ms, 0856ms total)
T5990 003:921 JLINK_ReadMemU32(0xE0001028, 0x0001 Items, ...) -- CPU_ReadMem(4 bytes @ 0xE0001028) - Data: 00 00 00 00  returns 0x01 (0001ms, 0857ms total)
T5990 003:922 JLINK_ReadMemU32(0xE0001038, 0x0001 Items, ...) -- CPU_ReadMem(4 bytes @ 0xE0001038) - Data: 00 02 00 00  returns 0x01 (0054ms, 0911ms total)
T5990 003:976 JLINK_ReadMemU32(0xE0001048, 0x0001 Items, ...) -- CPU_ReadMem(4 bytes @ 0xE0001048) - Data: 00 00 00 00  returns 0x01 (0001ms, 0912ms total)
T5990 003:977 JLINK_ReadMemU32(0xE0001058, 0x0001 Items, ...) -- CPU_ReadMem(4 bytes @ 0xE0001058) - Data: 00 00 00 00  returns 0x01 (0002ms, 0914ms total)
T5990 003:979 JLINK_ReadReg(R0)  returns 0x80000000 (0000ms, 0914ms total)
T5990 003:979 JLINK_ReadReg(R1)  returns 0x00000004 (0000ms, 0914ms total)
T5990 003:979 JLINK_ReadReg(R2)  returns 0x000000FF (0000ms, 0914ms total)
T5990 003:979 JLINK_ReadReg(R3)  returns 0x00000002 (0000ms, 0914ms total)
T5990 003:979 JLINK_ReadReg(R4)  returns 0x20002B48 (0000ms, 0914ms total)
T5990 003:979 JLINK_ReadReg(R5)  returns 0x200059C0 (0000ms, 0914ms total)
T5990 003:979 JLINK_ReadReg(R6)  returns 0x00000000 (0000ms, 0914ms total)
T5990 003:979 JLINK_ReadReg(R7)  returns 0x00022A05 (0001ms, 0915ms total)
T5990 003:980 JLINK_ReadReg(R8)  returns 0x00000000 (0000ms, 0915ms total)
T5990 003:980 JLINK_ReadReg(R9)  returns 0x00000000 (0000ms, 0915ms total)
T5990 003:980 JLINK_ReadReg(R10)  returns 0x00000000 (0000ms, 0915ms total)
T5990 003:980 JLINK_ReadReg(R11)  returns 0x00000000 (0000ms, 0915ms total)
T5990 003:980 JLINK_ReadReg(R12)  returns 0x00006000 (0000ms, 0915ms total)
T5990 003:980 JLINK_ReadReg(R13 (SP))  returns 0x20005990 (0000ms, 0915ms total)
T5990 003:980 JLINK_ReadReg(R14)  returns 0x00029C5F (0000ms, 0915ms total)
T5990 003:980 JLINK_ReadReg(R15 (PC))  returns 0x0002B854 (0000ms, 0915ms total)
T5990 003:980 JLINK_ReadReg(XPSR)  returns 0x81000012 (0000ms, 0915ms total)
T5990 003:980 JLINK_ReadReg(MSP)  returns 0x20005990 (0000ms, 0915ms total)
T5990 003:980 JLINK_ReadReg(PSP)  returns 0x00000000 (0000ms, 0915ms total)
T5990 003:980 JLINK_ReadReg(CFBP)  returns 0x00000000 (0000ms, 0915ms total)
T5990 003:980 JLINK_ReadReg(FPSCR)  returns 0x00000000 (0012ms, 0927ms total)
T5990 003:992 JLINK_ReadReg(FPS0)  returns 0x00000000 (0000ms, 0927ms total)
T5990 003:992 JLINK_ReadReg(FPS1)  returns 0x00000000 (0000ms, 0927ms total)
T5990 003:992 JLINK_ReadReg(FPS2)  returns 0x00000000 (0000ms, 0927ms total)
T5990 003:992 JLINK_ReadReg(FPS3)  returns 0x00000000 (0000ms, 0927ms total)
T5990 003:992 JLINK_ReadReg(FPS4)  returns 0x00000000 (0001ms, 0928ms total)
T5990 003:993 JLINK_ReadReg(FPS5)  returns 0x00000000 (0000ms, 0928ms total)
T5990 003:993 JLINK_ReadReg(FPS6)  returns 0x00000000 (0000ms, 0928ms total)
T5990 003:993 JLINK_ReadReg(FPS7)  returns 0x00000000 (0000ms, 0928ms total)
T5990 003:993 JLINK_ReadReg(FPS8)  returns 0x00000000 (0000ms, 0928ms total)
T5990 003:993 JLINK_ReadReg(FPS9)  returns 0x00000000 (0000ms, 0928ms total)
T5990 003:993 JLINK_ReadReg(FPS10)  returns 0x00000000 (0000ms, 0928ms total)
T5990 003:993 JLINK_ReadReg(FPS11)  returns 0x00000000 (0000ms, 0928ms total)
T5990 003:993 JLINK_ReadReg(FPS12)  returns 0x00000000 (0000ms, 0928ms total)
T5990 003:993 JLINK_ReadReg(FPS13)  returns 0x00000000 (0000ms, 0928ms total)
T5990 003:993 JLINK_ReadReg(FPS14)  returns 0x00000000 (0000ms, 0928ms total)
T5990 003:993 JLINK_ReadReg(FPS15)  returns 0x00000000 (0000ms, 0928ms total)
T5990 003:993 JLINK_ReadReg(FPS16)  returns 0x00000000 (0000ms, 0928ms total)
T5990 003:993 JLINK_ReadReg(FPS17)  returns 0x00000000 (0000ms, 0928ms total)
T5990 003:993 JLINK_ReadReg(FPS18)  returns 0x00000000 (0001ms, 0929ms total)
T5990 003:994 JLINK_ReadReg(FPS19)  returns 0x00000000 (0000ms, 0929ms total)
T5990 003:994 JLINK_ReadReg(FPS20)  returns 0x00000000 (0000ms, 0929ms total)
T5990 003:994 JLINK_ReadReg(FPS21)  returns 0x00000000 (0000ms, 0929ms total)
T5990 003:994 JLINK_ReadReg(FPS22)  returns 0x00000000 (0000ms, 0929ms total)
T5990 003:994 JLINK_ReadReg(FPS23)  returns 0x00000000 (0000ms, 0929ms total)
T5990 003:994 JLINK_ReadReg(FPS24)  returns 0x00000000 (0000ms, 0929ms total)
T5990 003:994 JLINK_ReadReg(FPS25)  returns 0x00000000 (0000ms, 0929ms total)
T5990 003:994 JLINK_ReadReg(FPS26)  returns 0x00000000 (0000ms, 0929ms total)
T5990 003:994 JLINK_ReadReg(FPS27)  returns 0x00000000 (0000ms, 0929ms total)
T5990 003:994 JLINK_ReadReg(FPS28)  returns 0x00000000 (0000ms, 0929ms total)
T5990 003:994 JLINK_ReadReg(FPS29)  returns 0x00000000 (0000ms, 0929ms total)
T5990 003:994 JLINK_ReadReg(FPS30)  returns 0x00000000 (0000ms, 0929ms total)
T5990 003:994 JLINK_ReadReg(FPS31)  returns 0x00000000 (0001ms, 0930ms total)
T58B8 004:046 JLINK_ReadMemEx(0x00000000, 0x0004 Bytes, ..., Flags = 0x02000000) -- CPU_ReadMem(64 bytes @ 0x00000000) -- Updating C cache (64 bytes @ 0x00000000) -- Read from C cache (4 bytes @ 0x00000000) - Data: 00 04 00 20  returns 0x04 (0008ms, 0938ms total)
T58B8 004:058 JLINK_ReadMemU32(0xE0001004, 0x0001 Items, ...) -- CPU_ReadMem(4 bytes @ 0xE0001004) - Data: 21 B4 00 00  returns 0x01 (0001ms, 0939ms total)
T58B8 004:063 JLINK_ReadMemEx(0x0002B854, 0x003C Bytes, ..., Flags = 0x02000000) -- CPU_ReadMem(128 bytes @ 0x0002B840) -- Updating C cache (128 bytes @ 0x0002B840) -- Read from C cache (60 bytes @ 0x0002B854) - Data: 00 BE 20 88 02 21 01 EB 00 40 0D A1 FE F7 35 FA ...  returns 0x3C (0055ms, 0994ms total)
T58B8 018:403 JLINK_ReadMemEx(0x00022BC6, 0x0002 Bytes, ..., Flags = 0x02000000) -- CPU_ReadMem(64 bytes @ 0x00022BC0) -- Updating C cache (64 bytes @ 0x00022BC0) -- Read from C cache (2 bytes @ 0x00022BC6) - Data: 00 BF  returns 0x02 (0002ms, 0996ms total)
T58B8 018:406 JLINK_ReadMemEx(0x00022BC8, 0x0038 Bytes, ..., Flags = 0x02000000) -- Read from C cache (56 bytes @ 0x00022BC8) - Data: 26 46 26 B1 00 BF 30 46 04 F0 CA FC 00 BF 00 BF ...  returns 0x38 (0000ms, 0996ms total)
T58B8 018:406 JLINK_ReadMemEx(0x00022C00, 0x0004 Bytes, ..., Flags = 0x02000000) -- CPU_ReadMem(64 bytes @ 0x00022C00) -- Updating C cache (64 bytes @ 0x00022C00) -- Read from C cache (4 bytes @ 0x00022C00) - Data: 00 20 28 70  returns 0x04 (0002ms, 0998ms total)
T5990 022:573 JLINK_ReadMemEx(0x0002B854, 0x0002 Bytes, ..., Flags = 0x02000000) -- Read from C cache (2 bytes @ 0x0002B854) - Data: 00 BE  returns 0x02 (0000ms, 0998ms total)
T5990 022:573 JLINK_WriteReg(R15 (PC), 0x0002B856)  returns 0x00 (0000ms, 0998ms total)
T5990 022:573 JLINK_SetBPEx(Addr = 0x00022BD8, Type = 0xFFFFFFF2)  returns 0x00000006 (0000ms, 0998ms total)
T5990 022:573 JLINK_SetBPEx(Addr = 0x00022BC6, Type = 0xFFFFFFF2)  returns 0x00000007 (0000ms, 0998ms total)
T5990 022:573 JLINK_Go() -- CPU_WriteMem(4 bytes @ 0xE0002000) -- CPU_WriteMem(4 bytes @ 0xE0002000) -- CPU_ReadMem(4 bytes @ 0xE0001000) (0010ms, 1008ms total)
T5990 022:683 JLINK_IsHalted()  returns TRUE (0008ms, 1016ms total)
T5990 022:691 JLINK_Halt()  returns 0x00 (0000ms, 1008ms total)
T5990 022:691 JLINK_IsHalted()  returns TRUE (0000ms, 1008ms total)
T5990 022:691 JLINK_IsHalted()  returns TRUE (0000ms, 1008ms total)
T5990 022:691 JLINK_IsHalted()  returns TRUE (0000ms, 1008ms total)
T5990 022:692 JLINK_ReadReg(R15 (PC))  returns 0x0002B854 (0000ms, 1008ms total)
T5990 022:692 JLINK_ReadReg(XPSR)  returns 0x81000012 (0000ms, 1008ms total)
T5990 022:692 JLINK_ClrBPEx(BPHandle = 0x00000006)  returns 0x00 (0000ms, 1008ms total)
T5990 022:692 JLINK_ClrBPEx(BPHandle = 0x00000007)  returns 0x00 (0000ms, 1008ms total)
T5990 022:692 JLINK_ReadMemU32(0xE000ED30, 0x0001 Items, ...) -- CPU_ReadMem(4 bytes @ 0xE000ED30) - Data: 02 00 00 00  returns 0x01 (0001ms, 1009ms total)
T5990 022:693 JLINK_ReadMemU32(0xE0001028, 0x0001 Items, ...) -- CPU_ReadMem(4 bytes @ 0xE0001028) - Data: 00 00 00 00  returns 0x01 (0003ms, 1012ms total)
T5990 022:696 JLINK_ReadMemU32(0xE0001038, 0x0001 Items, ...) -- CPU_ReadMem(4 bytes @ 0xE0001038) - Data: 00 02 00 00  returns 0x01 (0002ms, 1014ms total)
T5990 022:698 JLINK_ReadMemU32(0xE0001048, 0x0001 Items, ...) -- CPU_ReadMem(4 bytes @ 0xE0001048) - Data: 00 00 00 00  returns 0x01 (0002ms, 1016ms total)
T5990 022:700 JLINK_ReadMemU32(0xE0001058, 0x0001 Items, ...) -- CPU_ReadMem(4 bytes @ 0xE0001058) - Data: 00 00 00 00  returns 0x01 (0002ms, 1018ms total)
T5990 022:703 JLINK_ReadReg(R0)  returns 0x80000000 (0000ms, 1018ms total)
T5990 022:703 JLINK_ReadReg(R1)  returns 0x00000004 (0000ms, 1018ms total)
T5990 022:703 JLINK_ReadReg(R2)  returns 0x000000FF (0000ms, 1018ms total)
T5990 022:703 JLINK_ReadReg(R3)  returns 0x00000002 (0000ms, 1018ms total)
T5990 022:703 JLINK_ReadReg(R4)  returns 0x20002B48 (0000ms, 1018ms total)
T5990 022:703 JLINK_ReadReg(R5)  returns 0x200059C0 (0000ms, 1018ms total)
T5990 022:703 JLINK_ReadReg(R6)  returns 0x00000000 (0000ms, 1018ms total)
T5990 022:703 JLINK_ReadReg(R7)  returns 0x00022A05 (0000ms, 1018ms total)
T5990 022:703 JLINK_ReadReg(R8)  returns 0x00000000 (0000ms, 1018ms total)
T5990 022:703 JLINK_ReadReg(R9)  returns 0x00000000 (0000ms, 1018ms total)
T5990 022:703 JLINK_ReadReg(R10)  returns 0x00000000 (0001ms, 1019ms total)
T5990 022:704 JLINK_ReadReg(R11)  returns 0x00000000 (0000ms, 1019ms total)
T5990 022:704 JLINK_ReadReg(R12)  returns 0x00006000 (0000ms, 1019ms total)
T5990 022:704 JLINK_ReadReg(R13 (SP))  returns 0x20005990 (0000ms, 1019ms total)
T5990 022:704 JLINK_ReadReg(R14)  returns 0x00029C5F (0000ms, 1019ms total)
T5990 022:704 JLINK_ReadReg(R15 (PC))  returns 0x0002B854 (0000ms, 1019ms total)
T5990 022:704 JLINK_ReadReg(XPSR)  returns 0x81000012 (0000ms, 1019ms total)
T5990 022:704 JLINK_ReadReg(MSP)  returns 0x20005990 (0000ms, 1019ms total)
T5990 022:704 JLINK_ReadReg(PSP)  returns 0x00000000 (0000ms, 1019ms total)
T5990 022:704 JLINK_ReadReg(CFBP)  returns 0x00000000 (0000ms, 1019ms total)
T5990 022:704 JLINK_ReadReg(FPSCR)  returns 0x00000000 (0013ms, 1032ms total)
T5990 022:717 JLINK_ReadReg(FPS0)  returns 0x00000000 (0000ms, 1032ms total)
T5990 022:717 JLINK_ReadReg(FPS1)  returns 0x00000000 (0000ms, 1032ms total)
T5990 022:717 JLINK_ReadReg(FPS2)  returns 0x00000000 (0000ms, 1032ms total)
T5990 022:717 JLINK_ReadReg(FPS3)  returns 0x00000000 (0000ms, 1032ms total)
T5990 022:717 JLINK_ReadReg(FPS4)  returns 0x00000000 (0000ms, 1032ms total)
T5990 022:717 JLINK_ReadReg(FPS5)  returns 0x00000000 (0000ms, 1032ms total)
T5990 022:717 JLINK_ReadReg(FPS6)  returns 0x00000000 (0000ms, 1032ms total)
T5990 022:717 JLINK_ReadReg(FPS7)  returns 0x00000000 (0000ms, 1032ms total)
T5990 022:717 JLINK_ReadReg(FPS8)  returns 0x00000000 (0000ms, 1032ms total)
T5990 022:717 JLINK_ReadReg(FPS9)  returns 0x00000000 (0000ms, 1032ms total)
T5990 022:717 JLINK_ReadReg(FPS10)  returns 0x00000000 (0000ms, 1032ms total)
T5990 022:717 JLINK_ReadReg(FPS11)  returns 0x00000000 (0000ms, 1032ms total)
T5990 022:717 JLINK_ReadReg(FPS12)  returns 0x00000000 (0000ms, 1032ms total)
T5990 022:717 JLINK_ReadReg(FPS13)  returns 0x00000000 (0000ms, 1032ms total)
T5990 022:717 JLINK_ReadReg(FPS14)  returns 0x00000000 (0000ms, 1032ms total)
T5990 022:717 JLINK_ReadReg(FPS15)  returns 0x00000000 (0000ms, 1032ms total)
T5990 022:717 JLINK_ReadReg(FPS16)  returns 0x00000000 (0001ms, 1033ms total)
T5990 022:718 JLINK_ReadReg(FPS17)  returns 0x00000000 (0000ms, 1033ms total)
T5990 022:718 JLINK_ReadReg(FPS18)  returns 0x00000000 (0000ms, 1033ms total)
T5990 022:718 JLINK_ReadReg(FPS19)  returns 0x00000000 (0000ms, 1033ms total)
T5990 022:718 JLINK_ReadReg(FPS20)  returns 0x00000000 (0000ms, 1033ms total)
T5990 022:718 JLINK_ReadReg(FPS21)  returns 0x00000000 (0000ms, 1033ms total)
T5990 022:718 JLINK_ReadReg(FPS22)  returns 0x00000000 (0000ms, 1033ms total)
T5990 022:718 JLINK_ReadReg(FPS23)  returns 0x00000000 (0000ms, 1033ms total)
T5990 022:718 JLINK_ReadReg(FPS24)  returns 0x00000000 (0000ms, 1033ms total)
T5990 022:718 JLINK_ReadReg(FPS25)  returns 0x00000000 (0000ms, 1033ms total)
T5990 022:718 JLINK_ReadReg(FPS26)  returns 0x00000000 (0000ms, 1033ms total)
T5990 022:718 JLINK_ReadReg(FPS27)  returns 0x00000000 (0000ms, 1033ms total)
T5990 022:718 JLINK_ReadReg(FPS28)  returns 0x00000000 (0000ms, 1033ms total)
T5990 022:718 JLINK_ReadReg(FPS29)  returns 0x00000000 (0000ms, 1033ms total)
T5990 022:718 JLINK_ReadReg(FPS30)  returns 0x00000000 (0000ms, 1033ms total)
T5990 022:718 JLINK_ReadReg(FPS31)  returns 0x00000000 (0000ms, 1033ms total)
T58B8 022:719 JLINK_ReadMemEx(0x00000000, 0x0004 Bytes, ..., Flags = 0x02000000) -- CPU_ReadMem(64 bytes @ 0x00000000) -- Updating C cache (64 bytes @ 0x00000000) -- Read from C cache (4 bytes @ 0x00000000) - Data: 00 04 00 20  returns 0x04 (0002ms, 1035ms total)
T58B8 022:722 JLINK_ReadMemU32(0xE0001004, 0x0001 Items, ...) -- CPU_ReadMem(4 bytes @ 0xE0001004) - Data: 23 7D 01 00  returns 0x01 (0001ms, 1037ms total)
T58B8 022:732 JLINK_ReadMemEx(0x0002B854, 0x003C Bytes, ..., Flags = 0x02000000) -- CPU_ReadMem(128 bytes @ 0x0002B840) -- Updating C cache (128 bytes @ 0x0002B840) -- Read from C cache (60 bytes @ 0x0002B854) - Data: 00 BE 20 88 02 21 01 EB 00 40 0D A1 FE F7 35 FA ...  returns 0x3C (0003ms, 1040ms total)
T58B8 024:354 JLINK_ReadMemEx(0x00022BC6, 0x0002 Bytes, ..., Flags = 0x02000000) -- CPU_ReadMem(64 bytes @ 0x00022BC0) -- Updating C cache (64 bytes @ 0x00022BC0) -- Read from C cache (2 bytes @ 0x00022BC6) - Data: 00 BF  returns 0x02 (0003ms, 1043ms total)
T58B8 024:357 JLINK_ReadMemEx(0x00022BC8, 0x0038 Bytes, ..., Flags = 0x02000000) -- Read from C cache (56 bytes @ 0x00022BC8) - Data: 26 46 26 B1 00 BF 30 46 04 F0 CA FC 00 BF 00 BF ...  returns 0x38 (0000ms, 1043ms total)
T58B8 024:357 JLINK_ReadMemEx(0x00022C00, 0x0004 Bytes, ..., Flags = 0x02000000) -- CPU_ReadMem(64 bytes @ 0x00022C00) -- Updating C cache (64 bytes @ 0x00022C00) -- Read from C cache (4 bytes @ 0x00022C00) - Data: 00 20 28 70  returns 0x04 (0002ms, 1045ms total)
T5990 034:079 JLINK_ReadMemEx(0x0002B854, 0x0002 Bytes, ..., Flags = 0x02000000) -- Read from C cache (2 bytes @ 0x0002B854) - Data: 00 BE  returns 0x02 (0000ms, 1045ms total)
T5990 034:079 JLINK_WriteReg(R15 (PC), 0x0002B856)  returns 0x00 (0000ms, 1045ms total)
T5990 034:079 JLINK_SetBPEx(Addr = 0x00022BD8, Type = 0xFFFFFFF2)  returns 0x00000008 (0000ms, 1045ms total)
T5990 034:079 JLINK_SetBPEx(Addr = 0x00022BC6, Type = 0xFFFFFFF2)  returns 0x00000009 (0000ms, 1045ms total)
T5990 034:079 JLINK_Go() -- CPU_WriteMem(4 bytes @ 0xE0002000) -- CPU_WriteMem(4 bytes @ 0xE0002000) -- CPU_ReadMem(4 bytes @ 0xE0001000) (0009ms, 1054ms total)
T5990 034:190 JLINK_IsHalted()  returns TRUE (0009ms, 1064ms total)
T5990 034:199 JLINK_Halt()  returns 0x00 (0000ms, 1055ms total)
T5990 034:199 JLINK_IsHalted()  returns TRUE (0000ms, 1055ms total)
T5990 034:199 JLINK_IsHalted()  returns TRUE (0000ms, 1055ms total)
T5990 034:199 JLINK_IsHalted()  returns TRUE (0000ms, 1055ms total)
T5990 034:199 JLINK_ReadReg(R15 (PC))  returns 0x0002B854 (0000ms, 1055ms total)
T5990 034:199 JLINK_ReadReg(XPSR)  returns 0x81000012 (0000ms, 1055ms total)
T5990 034:199 JLINK_ClrBPEx(BPHandle = 0x00000008)  returns 0x00 (0000ms, 1055ms total)
T5990 034:199 JLINK_ClrBPEx(BPHandle = 0x00000009)  returns 0x00 (0000ms, 1055ms total)
T5990 034:199 JLINK_ReadMemU32(0xE000ED30, 0x0001 Items, ...) -- CPU_ReadMem(4 bytes @ 0xE000ED30) - Data: 02 00 00 00  returns 0x01 (0001ms, 1056ms total)
T5990 034:200 JLINK_ReadMemU32(0xE0001028, 0x0001 Items, ...) -- CPU_ReadMem(4 bytes @ 0xE0001028) - Data: 00 00 00 00  returns 0x01 (0005ms, 1061ms total)
T5990 034:205 JLINK_ReadMemU32(0xE0001038, 0x0001 Items, ...) -- CPU_ReadMem(4 bytes @ 0xE0001038) - Data: 00 02 00 00  returns 0x01 (0001ms, 1062ms total)
T5990 034:206 JLINK_ReadMemU32(0xE0001048, 0x0001 Items, ...) -- CPU_ReadMem(4 bytes @ 0xE0001048) - Data: 00 00 00 00  returns 0x01 (0001ms, 1063ms total)
T5990 034:208 JLINK_ReadMemU32(0xE0001058, 0x0001 Items, ...) -- CPU_ReadMem(4 bytes @ 0xE0001058) - Data: 00 00 00 00  returns 0x01 (0001ms, 1064ms total)
T5990 034:209 JLINK_ReadReg(R0)  returns 0x80000000 (0000ms, 1064ms total)
T5990 034:209 JLINK_ReadReg(R1)  returns 0x00000004 (0000ms, 1064ms total)
T5990 034:209 JLINK_ReadReg(R2)  returns 0x000000FF (0000ms, 1064ms total)
T5990 034:209 JLINK_ReadReg(R3)  returns 0x00000002 (0000ms, 1064ms total)
T5990 034:209 JLINK_ReadReg(R4)  returns 0x20002B48 (0000ms, 1064ms total)
T5990 034:209 JLINK_ReadReg(R5)  returns 0x200059C0 (0000ms, 1064ms total)
T5990 034:209 JLINK_ReadReg(R6)  returns 0x00000000 (0000ms, 1064ms total)
T5990 034:209 JLINK_ReadReg(R7)  returns 0x00022A05 (0000ms, 1064ms total)
T5990 034:209 JLINK_ReadReg(R8)  returns 0x00000000 (0000ms, 1064ms total)
T5990 034:209 JLINK_ReadReg(R9)  returns 0x00000000 (0001ms, 1065ms total)
T5990 034:210 JLINK_ReadReg(R10)  returns 0x00000000 (0000ms, 1065ms total)
T5990 034:210 JLINK_ReadReg(R11)  returns 0x00000000 (0000ms, 1065ms total)
T5990 034:210 JLINK_ReadReg(R12)  returns 0x00006000 (0000ms, 1065ms total)
T5990 034:210 JLINK_ReadReg(R13 (SP))  returns 0x20005990 (0000ms, 1065ms total)
T5990 034:210 JLINK_ReadReg(R14)  returns 0x00029C5F (0000ms, 1065ms total)
T5990 034:210 JLINK_ReadReg(R15 (PC))  returns 0x0002B854 (0000ms, 1065ms total)
T5990 034:210 JLINK_ReadReg(XPSR)  returns 0x81000012 (0000ms, 1065ms total)
T5990 034:210 JLINK_ReadReg(MSP)  returns 0x20005990 (0000ms, 1065ms total)
T5990 034:210 JLINK_ReadReg(PSP)  returns 0x00000000 (0000ms, 1065ms total)
T5990 034:210 JLINK_ReadReg(CFBP)  returns 0x00000000 (0000ms, 1065ms total)
T5990 034:210 JLINK_ReadReg(FPSCR)  returns 0x00000000 (0012ms, 1077ms total)
T5990 034:222 JLINK_ReadReg(FPS0)  returns 0x00000000 (0000ms, 1077ms total)
T5990 034:222 JLINK_ReadReg(FPS1)  returns 0x00000000 (0000ms, 1077ms total)
T5990 034:222 JLINK_ReadReg(FPS2)  returns 0x00000000 (0000ms, 1077ms total)
T5990 034:222 JLINK_ReadReg(FPS3)  returns 0x00000000 (0000ms, 1077ms total)
T5990 034:222 JLINK_ReadReg(FPS4)  returns 0x00000000 (0000ms, 1077ms total)
T5990 034:222 JLINK_ReadReg(FPS5)  returns 0x00000000 (0000ms, 1077ms total)
T5990 034:222 JLINK_ReadReg(FPS6)  returns 0x00000000 (0000ms, 1077ms total)
T5990 034:222 JLINK_ReadReg(FPS7)  returns 0x00000000 (0000ms, 1077ms total)
T5990 034:222 JLINK_ReadReg(FPS8)  returns 0x00000000 (0000ms, 1077ms total)
T5990 034:222 JLINK_ReadReg(FPS9)  returns 0x00000000 (0000ms, 1077ms total)
T5990 034:222 JLINK_ReadReg(FPS10)  returns 0x00000000 (0000ms, 1077ms total)
T5990 034:222 JLINK_ReadReg(FPS11)  returns 0x00000000 (0000ms, 1077ms total)
T5990 034:222 JLINK_ReadReg(FPS12)  returns 0x00000000 (0000ms, 1077ms total)
T5990 034:222 JLINK_ReadReg(FPS13)  returns 0x00000000 (0000ms, 1077ms total)
T5990 034:222 JLINK_ReadReg(FPS14)  returns 0x00000000 (0000ms, 1077ms total)
T5990 034:222 JLINK_ReadReg(FPS15)  returns 0x00000000 (0000ms, 1077ms total)
T5990 034:222 JLINK_ReadReg(FPS16)  returns 0x00000000 (0000ms, 1077ms total)
T5990 034:222 JLINK_ReadReg(FPS17)  returns 0x00000000 (0000ms, 1077ms total)
T5990 034:222 JLINK_ReadReg(FPS18)  returns 0x00000000 (0000ms, 1077ms total)
T5990 034:222 JLINK_ReadReg(FPS19)  returns 0x00000000 (0000ms, 1077ms total)
T5990 034:222 JLINK_ReadReg(FPS20)  returns 0x00000000 (0000ms, 1077ms total)
T5990 034:222 JLINK_ReadReg(FPS21)  returns 0x00000000 (0000ms, 1077ms total)
T5990 034:222 JLINK_ReadReg(FPS22)  returns 0x00000000 (0000ms, 1077ms total)
T5990 034:222 JLINK_ReadReg(FPS23)  returns 0x00000000 (0000ms, 1077ms total)
T5990 034:222 JLINK_ReadReg(FPS24)  returns 0x00000000 (0000ms, 1077ms total)
T5990 034:222 JLINK_ReadReg(FPS25)  returns 0x00000000 (0000ms, 1077ms total)
T5990 034:222 JLINK_ReadReg(FPS26)  returns 0x00000000 (0000ms, 1077ms total)
T5990 034:222 JLINK_ReadReg(FPS27)  returns 0x00000000 (0000ms, 1077ms total)
T5990 034:222 JLINK_ReadReg(FPS28)  returns 0x00000000 (0000ms, 1077ms total)
T5990 034:222 JLINK_ReadReg(FPS29)  returns 0x00000000 (0000ms, 1077ms total)
T5990 034:222 JLINK_ReadReg(FPS30)  returns 0x00000000 (0000ms, 1077ms total)
T5990 034:222 JLINK_ReadReg(FPS31)  returns 0x00000000 (0000ms, 1077ms total)
T58B8 034:223 JLINK_ReadMemEx(0x00000000, 0x0004 Bytes, ..., Flags = 0x02000000) -- CPU_ReadMem(64 bytes @ 0x00000000) -- Updating C cache (64 bytes @ 0x00000000) -- Read from C cache (4 bytes @ 0x00000000) - Data: 00 04 00 20  returns 0x04 (0002ms, 1079ms total)
T58B8 034:225 JLINK_ReadMemU32(0xE0001004, 0x0001 Items, ...) -- CPU_ReadMem(4 bytes @ 0xE0001004) - Data: 25 46 02 00  returns 0x01 (0001ms, 1080ms total)
T58B8 034:229 JLINK_ReadMemEx(0x0002B854, 0x003C Bytes, ..., Flags = 0x02000000) -- CPU_ReadMem(128 bytes @ 0x0002B840) -- Updating C cache (128 bytes @ 0x0002B840) -- Read from C cache (60 bytes @ 0x0002B854) - Data: 00 BE 20 88 02 21 01 EB 00 40 0D A1 FE F7 35 FA ...  returns 0x3C (0002ms, 1082ms total)
T58B8 042:519 JLINK_ReadMemEx(0x00022BC6, 0x0002 Bytes, ..., Flags = 0x02000000) -- CPU_ReadMem(64 bytes @ 0x00022BC0) -- Updating C cache (64 bytes @ 0x00022BC0) -- Read from C cache (2 bytes @ 0x00022BC6) - Data: 00 BF  returns 0x02 (0001ms, 1083ms total)
T58B8 042:520 JLINK_ReadMemEx(0x00022BC8, 0x0038 Bytes, ..., Flags = 0x02000000) -- Read from C cache (56 bytes @ 0x00022BC8) - Data: 26 46 26 B1 00 BF 30 46 04 F0 CA FC 00 BF 00 BF ...  returns 0x38 (0001ms, 1084ms total)
T58B8 042:521 JLINK_ReadMemEx(0x00022C00, 0x0004 Bytes, ..., Flags = 0x02000000) -- CPU_ReadMem(64 bytes @ 0x00022C00) -- Updating C cache (64 bytes @ 0x00022C00) -- Read from C cache (4 bytes @ 0x00022C00) - Data: 00 20 28 70  returns 0x04 (0002ms, 1086ms total)
T58B8 051:062 JLINK_Close() -- CPU_WriteMem(4 bytes @ 0xE0002008) -- CPU_WriteMem(4 bytes @ 0xE000200C) -- CPU_ReadMem(4 bytes @ 0xE0001000) (0011ms, 1097ms total)
T58B8 051:062  (0012ms, 1098ms total)
T58B8 051:062 Closed (0012ms, 1098ms total)
