
T353C 000:001 SEGGER J-Link V6.20b Log File (0001ms, 0002ms total)
T353C 000:001 DLL Compiled: Sep 22 2017 17:57:26 (0001ms, 0002ms total)
T353C 000:001 Logging started @ 2018-03-14 16:54 (0001ms, 0002ms total)
T353C 000:002 JLINK_SetWarnOutHandler(...) (0000ms, 0002ms total)
T353C 000:002 JLINK_OpenEx(...)
Firmware: J-Link OB-SAM3U128-V2-NordicSemi compiled Jul 24 2017 17:30:12
Hardware: V1.00
S/N: 683796563
TELNET listener socket opened on port 19021WEBSRV 
Webserver running on local port 19080  returns O.K. (0012ms, 0014ms total)
T353C 000:014 JLINK_GetEmuCaps()  returns 0xB8EA5A33 (0000ms, 0014ms total)
T353C 000:014 JLINK_TIF_GetAvailable(...) (0000ms, 0014ms total)
T353C 000:014 JLINK_SetErrorOutHandler(...) (0000ms, 0014ms total)
T353C 000:014 JLINK_ExecCommand("ProjectFile = "C:\Users\marcus\Desktop\nRF5_SDK_14.2.0_17b948a\nRF5_SDK_14.2.0_17b948a-MOD1\examples\peripheral\rtc\pca10056\blank\arm5_no_packs\JLinkSettings.ini"", ...). C:\Program Files (x86)\SEGGER\JLink_V620b\JLinkDevices.xml evaluated successfully.  returns 0x00 (0234ms, 0248ms total)
T353C 000:250 JLINK_ExecCommand("Device = nRF52840_xxAA", ...). Device "NRF52840_XXAA" selected.  returns 0x00 (0004ms, 0252ms total)
T353C 000:254 JLINK_ExecCommand("DisableConnectionTimeout", ...).   returns 0x01 (0000ms, 0252ms total)
T353C 000:254 JLINK_GetHardwareVersion()  returns 0x2710 (0000ms, 0252ms total)
T353C 000:254 JLINK_GetDLLVersion()  returns 62002 (0000ms, 0252ms total)
T353C 000:254 JLINK_GetFirmwareString(...) (0000ms, 0252ms total)
T353C 000:258 JLINK_GetDLLVersion()  returns 62002 (0000ms, 0252ms total)
T353C 000:258 JLINK_GetCompileDateTime() (0000ms, 0252ms total)
T353C 000:259 JLINK_GetFirmwareString(...) (0000ms, 0252ms total)
T353C 000:260 JLINK_GetHardwareVersion()  returns 0x2710 (0000ms, 0252ms total)
T353C 000:265 JLINK_TIF_Select(JLINKARM_TIF_SWD)  returns 0x00 (0000ms, 0252ms total)
T353C 000:265 JLINK_SetSpeed(5000) (0000ms, 0252ms total)
T353C 000:265 JLINK_GetId() >0x10B TIF>Found SW-DP with ID 0x2BA01477 >0x0D TIF> >0x28 TIF> >0x0D TIF> >0x28 TIF> >0x10B TIF>Found SW-DP with ID 0x2BA01477 >0x0D TIF> >0x28 TIF> >0x0D TIF> >0x28 TIF> >0x0D TIF> >0x28 TIF> >0x0D TIF> >0x28 TIF> >0x35 TIF> >0x0D TIF> >0x28 TIF>Scanning AP map to find all available APs >0x0D TIF> >0x28 TIF> >0x35 TIF> >0x35 TIF> >0x0D TIF> >0x28 TIF> >0x35 TIF> >0x35 TIF> >0x0D TIF> >0x28 TIF> >0x35 TIF> >0x35 TIF>AP[2]: Stopped AP scan as end of AP map has been reached
AP[0]: AHB-AP (IDR: 0x24770011)AP[1]: JTAG-AP (IDR: 0x02880000)Iterating through AP map to find AHB-AP to use >0x42 TIF> >0x28 TIF> >0x35 TIF> >0x35 TIF> >0x42 TIF> >0x28 TIF> >0x0D TIF> >0x28 TIF> >0x0D TIF> >0x28 TIF> >0x35 TIF> >0x35 TIF>AP[0]: Core foundAP[0]: AHB-AP ROM base: 0xE00FF000 >0x0D TIF> >0x28 TIF> >0x0D TIF> >0x28 TIF> >0x0D TIF> >0x28 TIF> >0x35 TIF> >0x35 TIF>CPUID register: 0x410FC241. Implementer code: 0x41 (ARM)Found Cortex-M4 r0p1, Little endian. -- CPU_ReadMem(4 bytes @ 0xE000EDF0)
 -- CPU_WriteMem(4 bytes @ 0xE000EDF0) -- CPU_ReadMem(4 bytes @ 0xE0002000)FPUnit: 6 code (BP) slots and 2 literal slots -- CPU_ReadMem(4 bytes @ 0xE000EDFC) -- CPU_WriteMem(4 bytes @ 0xE000EDFC) -- CPU_ReadMem(4 bytes @ 0xE0001000) -- CPU_WriteMem(4 bytes @ 0xE0001000) -- CPU_ReadMem(4 bytes @ 0xE000ED88) -- CPU_WriteMem(4 bytes @ 0xE000ED88) -- CPU_ReadMem(4 bytes @ 0xE000ED88) -- CPU_WriteMem(4 bytes @ 0xE000ED88)CoreSight components:ROMTbl[0] @ E00FF000 -- CPU_ReadMem(16 bytes @ 0xE00FF000)
 -- CPU_ReadMem(16 bytes @ 0xE000EFF0) -- CPU_ReadMem(16 bytes @ 0xE000EFE0)ROMTbl[0][0]: E000E000, CID: B105E00D, PID: 000BB00C SCS -- CPU_ReadMem(16 bytes @ 0xE0001FF0) -- CPU_ReadMem(16 bytes @ 0xE0001FE0)ROMTbl[0][1]: E0001000, CID: B105E00D, PID: 003BB002 DWT -- CPU_ReadMem(16 bytes @ 0xE0002FF0) -- CPU_ReadMem(16 bytes @ 0xE0002FE0)ROMTbl[0][2]: E0002000, CID: B105E00D, PID: 002BB003 FPB -- CPU_ReadMem(16 bytes @ 0xE0000FF0) -- CPU_ReadMem(16 bytes @ 0xE0000FE0)
ROMTbl[0][3]: E0000000, CID: B105E00D, PID: 003BB001 ITM -- CPU_ReadMem(16 bytes @ 0xE00FF010) -- CPU_ReadMem(16 bytes @ 0xE0040FF0) -- CPU_ReadMem(16 bytes @ 0xE0040FE0)ROMTbl[0][4]: E0040000, CID: B105900D, PID: 000BB9A1 TPIU -- CPU_ReadMem(16 bytes @ 0xE0041FF0) -- CPU_ReadMem(16 bytes @ 0xE0041FE0)ROMTbl[0][5]: E0041000, CID: B105900D, PID: 000BB925 ETM >0x35 TIF>  returns 0x2BA01477 (0157ms, 0409ms total)
T353C 000:423 JLINK_GetDLLVersion()  returns 62002 (0000ms, 0409ms total)
T353C 000:423 JLINK_CORE_GetFound()  returns 0xE0000FF (0000ms, 0409ms total)
T353C 000:423 JLINK_GetDebugInfo(0x100 = JLINKARM_ROM_TABLE_ADDR_INDEX) -- Value=0xE00FF000  returns 0x00 (0000ms, 0409ms total)
T353C 000:424 JLINK_GetDebugInfo(0x100 = JLINKARM_ROM_TABLE_ADDR_INDEX) -- Value=0xE00FF000  returns 0x00 (0000ms, 0409ms total)
T353C 000:424 JLINK_GetDebugInfo(0x101 = JLINKARM_DEBUG_INFO_ETM_ADDR_INDEX) -- Value=0xE0041000  returns 0x00 (0000ms, 0409ms total)
T353C 000:424 JLINK_ReadMemEx(0xE0041FD0, 0x0020 Bytes, ..., Flags = 0x02000004) -- CPU_ReadMem(32 bytes @ 0xE0041FD0) - Data: 04 00 00 00 00 00 00 00 00 00 00 00 00 00 00 00 ...  returns 0x20 (0001ms, 0410ms total)
T353C 000:425 JLINK_GetDebugInfo(0x102 = JLINKARM_DEBUG_INFO_MTB_ADDR_INDEX) -- Value=0x00000000  returns 0x00 (0000ms, 0410ms total)
T353C 000:425 JLINK_GetDebugInfo(0x103 = JLINKARM_DEBUG_INFO_TPIU_ADDR_INDEX) -- Value=0xE0040000  returns 0x00 (0000ms, 0410ms total)
T353C 000:425 JLINK_GetDebugInfo(0x104 = JLINKARM_DEBUG_INFO_ITM_ADDR_INDEX) -- Value=0xE0000000  returns 0x00 (0000ms, 0410ms total)
T353C 000:425 JLINK_GetDebugInfo(0x105 = JLINKARM_DEBUG_INFO_DWT_ADDR_INDEX) -- Value=0xE0001000  returns 0x00 (0000ms, 0410ms total)
T353C 000:425 JLINK_GetDebugInfo(0x106 = JLINKARM_DEBUG_INFO_FPB_ADDR_INDEX) -- Value=0xE0002000  returns 0x00 (0000ms, 0410ms total)
T353C 000:425 JLINK_GetDebugInfo(0x107 = JLINKARM_DEBUG_INFO_NVIC_ADDR_INDEX) -- Value=0xE000E000  returns 0x00 (0000ms, 0410ms total)
T353C 000:425 JLINK_GetDebugInfo(0x10C = JLINKARM_DEBUG_INFO_DBG_ADDR_INDEX) -- Value=0xE000EDF0  returns 0x00 (0000ms, 0410ms total)
T353C 000:425 JLINK_ReadMemU32(0xE000EF40, 0x0001 Items, ...) -- CPU_ReadMem(4 bytes @ 0xE000EF40) - Data: 21 00 11 10  returns 0x01 (0001ms, 0411ms total)
T353C 000:426 JLINK_ReadMemU32(0xE000EF44, 0x0001 Items, ...) -- CPU_ReadMem(4 bytes @ 0xE000EF44) - Data: 11 00 00 11  returns 0x01 (0001ms, 0412ms total)
T353C 000:427 JLINK_ReadMemU32(0xE000ED00, 0x0001 Items, ...) -- CPU_ReadMem(4 bytes @ 0xE000ED00) - Data: 41 C2 0F 41  returns 0x01 (0000ms, 0412ms total)
T353C 000:427 JLINK_GetDebugInfo(0x10F = JLINKARM_DEBUG_INFO_HAS_CORTEX_M_SECURITY_EXT_INDEX) -- Value=0x00000000  returns 0x00 (0000ms, 0412ms total)
T353C 000:427 JLINK_SetResetType(JLINKARM_CM3_RESET_TYPE_NORMAL)  returns JLINKARM_CM3_RESET_TYPE_NORMAL (0000ms, 0412ms total)
T353C 000:427 JLINK_Reset() -- CPU is running -- CPU_WriteMem(4 bytes @ 0xE000EDF0) -- CPU is running -- CPU_WriteMem(4 bytes @ 0xE000EDFC)Reset: Halt core after reset via DEMCR.VC_CORERESET. >0x35 TIF>Reset: Reset device via AIRCR.SYSRESETREQ. -- CPU is running -- CPU_WriteMem(4 bytes @ 0xE000ED0C) >0x0D TIF> >0x28 TIF> -- CPU_ReadMem(4 bytes @ 0xE000EDF0) -- CPU_ReadMem(4 bytes @ 0xE000EDF0) -- CPU is running -- CPU_WriteMem(4 bytes @ 0xE000EDF0) -- CPU is running -- CPU_WriteMem(4 bytes @ 0xE000EDFC)
 -- CPU_ReadMem(4 bytes @ 0xE000EDF0) -- CPU_WriteMem(4 bytes @ 0xE0002000) -- CPU_ReadMem(4 bytes @ 0xE000EDFC) -- CPU_ReadMem(4 bytes @ 0xE0001000) (0075ms, 0487ms total)
T353C 000:502 JLINK_Halt()  returns 0x00 (0000ms, 0487ms total)
T353C 000:502 JLINK_ReadMemU32(0xE000EDF0, 0x0001 Items, ...) -- CPU_ReadMem(4 bytes @ 0xE000EDF0) - Data: 03 00 03 00  returns 0x01 (0001ms, 0488ms total)
T353C 000:503 JLINK_WriteU32(0xE000EDF0, 0xA05F0003) -- CPU_WriteMem(4 bytes @ 0xE000EDF0)  returns 0x00 (0001ms, 0489ms total)
T353C 000:504 JLINK_WriteU32(0xE000EDFC, 0x01000000) -- CPU_WriteMem(4 bytes @ 0xE000EDFC)  returns 0x00 (0001ms, 0490ms total)
T353C 000:511 JLINK_GetHWStatus(...)  returns 0x00 (0001ms, 0491ms total)
T353C 000:516 JLINK_GetNumBPUnits(Type = 0xFFFFFF00)  returns 0x06 (0001ms, 0492ms total)
T353C 000:517 JLINK_GetNumBPUnits(Type = 0xF0)  returns 0x2000 (0000ms, 0492ms total)
T353C 000:517 JLINK_GetNumWPUnits()  returns 0x04 (0000ms, 0492ms total)
T353C 000:520 JLINK_GetSpeed()  returns 0x3E8 (0000ms, 0492ms total)
T353C 000:522 JLINK_ReadMemU32(0xE000E004, 0x0001 Items, ...) -- CPU_ReadMem(4 bytes @ 0xE000E004) - Data: 01 00 00 00  returns 0x01 (0001ms, 0493ms total)
T353C 000:523 JLINK_ReadMemU32(0xE000E004, 0x0001 Items, ...) -- CPU_ReadMem(4 bytes @ 0xE000E004) - Data: 01 00 00 00  returns 0x01 (0000ms, 0493ms total)
T353C 000:523 JLINK_WriteMemEx(0xE0001000, 0x001C Bytes, ..., Flags = 0x02000004) - Data: 01 00 00 00 00 00 00 00 00 00 00 00 00 00 00 00 ... -- CPU_WriteMem(28 bytes @ 0xE0001000)  returns 0x1C (0001ms, 0494ms total)
T353C 000:524 JLINK_Halt()  returns 0x00 (0000ms, 0494ms total)
T353C 000:524 JLINK_IsHalted()  returns TRUE (0000ms, 0494ms total)
T353C 000:526 JLINK_WriteMem(0x20000000, 0x0234 Bytes, ...) - Data: 00 BE 0A E0 0D 78 2D 06 68 40 08 24 40 00 00 D3 ... -- CPU_WriteMem(564 bytes @ 0x20000000)  returns 0x234 (0009ms, 0503ms total)
T353C 000:535 JLINK_WriteReg(R0, 0x00000000)  returns 0x00 (0000ms, 0503ms total)
T353C 000:535 JLINK_WriteReg(R1, 0x03D09000)  returns 0x00 (0000ms, 0503ms total)
T353C 000:535 JLINK_WriteReg(R2, 0x00000001)  returns 0x00 (0000ms, 0503ms total)
T353C 000:535 JLINK_WriteReg(R3, 0x00000000)  returns 0x00 (0000ms, 0503ms total)
T353C 000:535 JLINK_WriteReg(R4, 0x00000000)  returns 0x00 (0000ms, 0503ms total)
T353C 000:535 JLINK_WriteReg(R5, 0x00000000)  returns 0x00 (0000ms, 0503ms total)
T353C 000:535 JLINK_WriteReg(R6, 0x00000000)  returns 0x00 (0000ms, 0503ms total)
T353C 000:535 JLINK_WriteReg(R7, 0x00000000)  returns 0x00 (0000ms, 0503ms total)
T353C 000:535 JLINK_WriteReg(R8, 0x00000000)  returns 0x00 (0000ms, 0503ms total)
T353C 000:535 JLINK_WriteReg(R9, 0x20000230)  returns 0x00 (0000ms, 0503ms total)
T353C 000:535 JLINK_WriteReg(R10, 0x00000000)  returns 0x00 (0000ms, 0503ms total)
T353C 000:535 JLINK_WriteReg(R11, 0x00000000)  returns 0x00 (0000ms, 0503ms total)
T353C 000:535 JLINK_WriteReg(R12, 0x00000000)  returns 0x00 (0000ms, 0503ms total)
T353C 000:535 JLINK_WriteReg(R13 (SP), 0x20002000)  returns 0x00 (0000ms, 0503ms total)
T353C 000:535 JLINK_WriteReg(R14, 0x20000001)  returns 0x00 (0000ms, 0503ms total)
T353C 000:535 JLINK_WriteReg(R15 (PC), 0x2000003C)  returns 0x00 (0000ms, 0503ms total)
T353C 000:535 JLINK_WriteReg(XPSR, 0x01000000)  returns 0x00 (0000ms, 0503ms total)
T353C 000:535 JLINK_WriteReg(MSP, 0x20002000)  returns 0x00 (0000ms, 0503ms total)
T353C 000:535 JLINK_WriteReg(PSP, 0x20002000)  returns 0x00 (0000ms, 0503ms total)
T353C 000:535 JLINK_WriteReg(CFBP, 0x00000000)  returns 0x00 (0000ms, 0503ms total)
T353C 000:535 JLINK_SetBPEx(Addr = 0x20000000, Type = 0xFFFFFFF2) -- CPU_ReadMem(2 bytes @ 0x20000000)  returns 0x00000001 (0001ms, 0504ms total)
T353C 000:536 JLINK_Go() -- CPU_WriteMem(2 bytes @ 0x20000000) -- CPU_ReadMem(4 bytes @ 0xE0001000) -- CPU_WriteMem(4 bytes @ 0xE0002008) -- CPU_WriteMem(4 bytes @ 0xE000200C) -- CPU_WriteMem(4 bytes @ 0xE0002010) -- CPU_WriteMem(4 bytes @ 0xE0002014) -- CPU_WriteMem(4 bytes @ 0xE0002018) -- CPU_WriteMem(4 bytes @ 0xE000201C) -- CPU_WriteMem(4 bytes @ 0xE0001004) (0007ms, 0511ms total)
T353C 000:543 JLINK_IsHalted() -- CPU_ReadMem(2 bytes @ 0x20000000)  returns TRUE (0007ms, 0518ms total)
T353C 000:550 JLINK_ReadReg(R15 (PC))  returns 0x20000000 (0000ms, 0511ms total)
T353C 000:550 JLINK_ClrBPEx(BPHandle = 0x00000001)  returns 0x00 (0000ms, 0511ms total)
T353C 000:550 JLINK_ReadReg(R0)  returns 0x00000000 (0000ms, 0511ms total)
T353C 000:551 JLINK_WriteReg(R0, 0x00000000)  returns 0x00 (0000ms, 0511ms total)
T353C 000:551 JLINK_WriteReg(R1, 0x00001000)  returns 0x00 (0000ms, 0511ms total)
T353C 000:551 JLINK_WriteReg(R2, 0x000000FF)  returns 0x00 (0000ms, 0511ms total)
T353C 000:551 JLINK_WriteReg(R3, 0x00000000)  returns 0x00 (0000ms, 0511ms total)
T353C 000:551 JLINK_WriteReg(R4, 0x00000000)  returns 0x00 (0000ms, 0511ms total)
T353C 000:551 JLINK_WriteReg(R5, 0x00000000)  returns 0x00 (0000ms, 0511ms total)
T353C 000:551 JLINK_WriteReg(R6, 0x00000000)  returns 0x00 (0000ms, 0511ms total)
T353C 000:551 JLINK_WriteReg(R7, 0x00000000)  returns 0x00 (0000ms, 0511ms total)
T353C 000:551 JLINK_WriteReg(R8, 0x00000000)  returns 0x00 (0000ms, 0511ms total)
T353C 000:551 JLINK_WriteReg(R9, 0x20000230)  returns 0x00 (0000ms, 0511ms total)
T353C 000:551 JLINK_WriteReg(R10, 0x00000000)  returns 0x00 (0000ms, 0511ms total)
T353C 000:551 JLINK_WriteReg(R11, 0x00000000)  returns 0x00 (0000ms, 0511ms total)
T353C 000:551 JLINK_WriteReg(R12, 0x00000000)  returns 0x00 (0000ms, 0511ms total)
T353C 000:551 JLINK_WriteReg(R13 (SP), 0x20002000)  returns 0x00 (0000ms, 0511ms total)
T353C 000:551 JLINK_WriteReg(R14, 0x20000001)  returns 0x00 (0000ms, 0511ms total)
T353C 000:551 JLINK_WriteReg(R15 (PC), 0x2000011A)  returns 0x00 (0000ms, 0511ms total)
T353C 000:551 JLINK_WriteReg(XPSR, 0x01000000)  returns 0x00 (0000ms, 0511ms total)
T353C 000:551 JLINK_WriteReg(MSP, 0x20002000)  returns 0x00 (0000ms, 0511ms total)
T353C 000:551 JLINK_WriteReg(PSP, 0x20002000)  returns 0x00 (0000ms, 0511ms total)
T353C 000:551 JLINK_WriteReg(CFBP, 0x00000000)  returns 0x00 (0000ms, 0511ms total)
T353C 000:551 JLINK_SetBPEx(Addr = 0x20000000, Type = 0xFFFFFFF2)  returns 0x00000002 (0000ms, 0511ms total)
T353C 000:551 JLINK_Go() -- CPU_ReadMem(4 bytes @ 0xE0001000) (0004ms, 0515ms total)
T353C 000:555 JLINK_IsHalted()  returns FALSE (0000ms, 0515ms total)
T353C 000:604 JLINK_IsHalted() -- CPU_ReadMem(2 bytes @ 0x20000000)  returns TRUE (0007ms, 0522ms total)
T353C 000:611 JLINK_ReadReg(R15 (PC))  returns 0x20000000 (0000ms, 0515ms total)
T353C 000:611 JLINK_ClrBPEx(BPHandle = 0x00000002)  returns 0x00 (0000ms, 0515ms total)
T353C 000:611 JLINK_ReadReg(R0)  returns 0x00000000 (0000ms, 0515ms total)
T353C 000:611 JLINK_WriteReg(R0, 0x00000001)  returns 0x00 (0000ms, 0515ms total)
T353C 000:611 JLINK_WriteReg(R1, 0x00001000)  returns 0x00 (0000ms, 0515ms total)
T353C 000:611 JLINK_WriteReg(R2, 0x000000FF)  returns 0x00 (0000ms, 0515ms total)
T353C 000:611 JLINK_WriteReg(R3, 0x00000000)  returns 0x00 (0000ms, 0515ms total)
T353C 000:611 JLINK_WriteReg(R4, 0x00000000)  returns 0x00 (0000ms, 0515ms total)
T353C 000:611 JLINK_WriteReg(R5, 0x00000000)  returns 0x00 (0000ms, 0515ms total)
T353C 000:611 JLINK_WriteReg(R6, 0x00000000)  returns 0x00 (0000ms, 0515ms total)
T353C 000:611 JLINK_WriteReg(R7, 0x00000000)  returns 0x00 (0000ms, 0515ms total)
T353C 000:611 JLINK_WriteReg(R8, 0x00000000)  returns 0x00 (0000ms, 0515ms total)
T353C 000:611 JLINK_WriteReg(R9, 0x20000230)  returns 0x00 (0000ms, 0515ms total)
T353C 000:612 JLINK_WriteReg(R10, 0x00000000)  returns 0x00 (0000ms, 0516ms total)
T353C 000:612 JLINK_WriteReg(R11, 0x00000000)  returns 0x00 (0000ms, 0516ms total)
T353C 000:612 JLINK_WriteReg(R12, 0x00000000)  returns 0x00 (0000ms, 0516ms total)
T353C 000:612 JLINK_WriteReg(R13 (SP), 0x20002000)  returns 0x00 (0000ms, 0516ms total)
T353C 000:612 JLINK_WriteReg(R14, 0x20000001)  returns 0x00 (0000ms, 0516ms total)
T353C 000:612 JLINK_WriteReg(R15 (PC), 0x2000008E)  returns 0x00 (0000ms, 0516ms total)
T353C 000:612 JLINK_WriteReg(XPSR, 0x01000000)  returns 0x00 (0000ms, 0516ms total)
T353C 000:612 JLINK_WriteReg(MSP, 0x20002000)  returns 0x00 (0000ms, 0516ms total)
T353C 000:612 JLINK_WriteReg(PSP, 0x20002000)  returns 0x00 (0000ms, 0516ms total)
T353C 000:612 JLINK_WriteReg(CFBP, 0x00000000)  returns 0x00 (0000ms, 0516ms total)
T353C 000:612 JLINK_SetBPEx(Addr = 0x20000000, Type = 0xFFFFFFF2)  returns 0x00000003 (0000ms, 0516ms total)
T353C 000:612 JLINK_Go() -- CPU_ReadMem(4 bytes @ 0xE0001000) (0003ms, 0519ms total)
T353C 000:615 JLINK_IsHalted() -- CPU_ReadMem(2 bytes @ 0x20000000)  returns TRUE (0007ms, 0526ms total)
T353C 000:622 JLINK_ReadReg(R15 (PC))  returns 0x20000000 (0000ms, 0519ms total)
T353C 000:622 JLINK_ClrBPEx(BPHandle = 0x00000003)  returns 0x00 (0000ms, 0519ms total)
T353C 000:622 JLINK_ReadReg(R0)  returns 0x00000000 (0000ms, 0519ms total)
T353C 000:682 JLINK_WriteMem(0x20000000, 0x0234 Bytes, ...) - Data: 00 BE 0A E0 0D 78 2D 06 68 40 08 24 40 00 00 D3 ... -- CPU_WriteMem(564 bytes @ 0x20000000)  returns 0x234 (0009ms, 0528ms total)
T353C 000:691 JLINK_WriteReg(R0, 0x00000000)  returns 0x00 (0000ms, 0528ms total)
T353C 000:691 JLINK_WriteReg(R1, 0x03D09000)  returns 0x00 (0000ms, 0528ms total)
T353C 000:691 JLINK_WriteReg(R2, 0x00000002)  returns 0x00 (0000ms, 0528ms total)
T353C 000:691 JLINK_WriteReg(R3, 0x00000000)  returns 0x00 (0000ms, 0528ms total)
T353C 000:691 JLINK_WriteReg(R4, 0x00000000)  returns 0x00 (0000ms, 0528ms total)
T353C 000:691 JLINK_WriteReg(R5, 0x00000000)  returns 0x00 (0000ms, 0528ms total)
T353C 000:691 JLINK_WriteReg(R6, 0x00000000)  returns 0x00 (0000ms, 0528ms total)
T353C 000:691 JLINK_WriteReg(R7, 0x00000000)  returns 0x00 (0000ms, 0528ms total)
T353C 000:691 JLINK_WriteReg(R8, 0x00000000)  returns 0x00 (0000ms, 0528ms total)
T353C 000:691 JLINK_WriteReg(R9, 0x20000230)  returns 0x00 (0000ms, 0528ms total)
T353C 000:691 JLINK_WriteReg(R10, 0x00000000)  returns 0x00 (0000ms, 0528ms total)
T353C 000:691 JLINK_WriteReg(R11, 0x00000000)  returns 0x00 (0000ms, 0528ms total)
T353C 000:691 JLINK_WriteReg(R12, 0x00000000)  returns 0x00 (0000ms, 0528ms total)
T353C 000:691 JLINK_WriteReg(R13 (SP), 0x20002000)  returns 0x00 (0000ms, 0528ms total)
T353C 000:691 JLINK_WriteReg(R14, 0x20000001)  returns 0x00 (0000ms, 0528ms total)
T353C 000:691 JLINK_WriteReg(R15 (PC), 0x2000003C)  returns 0x00 (0000ms, 0528ms total)
T353C 000:691 JLINK_WriteReg(XPSR, 0x01000000)  returns 0x00 (0000ms, 0528ms total)
T353C 000:691 JLINK_WriteReg(MSP, 0x20002000)  returns 0x00 (0000ms, 0528ms total)
T353C 000:691 JLINK_WriteReg(PSP, 0x20002000)  returns 0x00 (0000ms, 0528ms total)
T353C 000:691 JLINK_WriteReg(CFBP, 0x00000000)  returns 0x00 (0000ms, 0528ms total)
T353C 000:691 JLINK_SetBPEx(Addr = 0x20000000, Type = 0xFFFFFFF2) -- CPU_ReadMem(2 bytes @ 0x20000000)  returns 0x00000004 (0001ms, 0529ms total)
T353C 000:692 JLINK_Go() -- CPU_WriteMem(2 bytes @ 0x20000000) -- CPU_ReadMem(4 bytes @ 0xE0001000) (0004ms, 0533ms total)
T353C 000:696 JLINK_IsHalted() -- CPU_ReadMem(2 bytes @ 0x20000000)  returns TRUE (0006ms, 0539ms total)
T353C 000:702 JLINK_ReadReg(R15 (PC))  returns 0x20000000 (0000ms, 0533ms total)
T353C 000:702 JLINK_ClrBPEx(BPHandle = 0x00000004)  returns 0x00 (0000ms, 0533ms total)
T353C 000:702 JLINK_ReadReg(R0)  returns 0x00000000 (0000ms, 0533ms total)
T353C 000:703 JLINK_WriteMem(0x20000234, 0x01CC Bytes, ...) - Data: 28 20 00 20 15 02 00 00 1D 02 00 00 1F 02 00 00 ... -- CPU_WriteMem(460 bytes @ 0x20000234)  returns 0x1CC (0007ms, 0540ms total)
T353C 000:710 JLINK_WriteMem(0x20000400, 0x0400 Bytes, ...) - Data: 00 00 00 00 00 00 00 00 00 00 00 00 00 00 00 00 ... -- CPU_WriteMem(1024 bytes @ 0x20000400)  returns 0x400 (0015ms, 0555ms total)
T353C 000:725 JLINK_WriteMem(0x20000800, 0x0400 Bytes, ...) - Data: 08 34 F4 E7 70 BD 00 00 10 00 00 20 02 68 13 46 ... -- CPU_WriteMem(1024 bytes @ 0x20000800)  returns 0x400 (0014ms, 0569ms total)
T353C 000:739 JLINK_WriteMem(0x20000C00, 0x0400 Bytes, ...) - Data: CB BF 0E 20 FB E7 70 47 00 00 07 41 00 00 00 00 ... -- CPU_WriteMem(1024 bytes @ 0x20000C00)  returns 0x400 (0014ms, 0583ms total)
T353C 000:753 JLINK_WriteMem(0x20001000, 0x0234 Bytes, ...) - Data: FF FF FF FF FF FF FF FF FF FF FF FF FF FF FF FF ... -- CPU_WriteMem(564 bytes @ 0x20001000)  returns 0x234 (0008ms, 0591ms total)
T353C 000:761 JLINK_WriteReg(R0, 0x00000000)  returns 0x00 (0000ms, 0591ms total)
T353C 000:761 JLINK_WriteReg(R1, 0x00000A1C)  returns 0x00 (0000ms, 0591ms total)
T353C 000:761 JLINK_WriteReg(R2, 0x20000234)  returns 0x00 (0000ms, 0591ms total)
T353C 000:761 JLINK_WriteReg(R3, 0x00000000)  returns 0x00 (0000ms, 0591ms total)
T353C 000:761 JLINK_WriteReg(R4, 0x00000000)  returns 0x00 (0000ms, 0591ms total)
T353C 000:761 JLINK_WriteReg(R5, 0x00000000)  returns 0x00 (0000ms, 0591ms total)
T353C 000:761 JLINK_WriteReg(R6, 0x00000000)  returns 0x00 (0000ms, 0591ms total)
T353C 000:761 JLINK_WriteReg(R7, 0x00000000)  returns 0x00 (0000ms, 0591ms total)
T353C 000:761 JLINK_WriteReg(R8, 0x00000000)  returns 0x00 (0000ms, 0591ms total)
T353C 000:761 JLINK_WriteReg(R9, 0x20000230)  returns 0x00 (0000ms, 0591ms total)
T353C 000:761 JLINK_WriteReg(R10, 0x00000000)  returns 0x00 (0000ms, 0591ms total)
T353C 000:761 JLINK_WriteReg(R11, 0x00000000)  returns 0x00 (0000ms, 0591ms total)
T353C 000:761 JLINK_WriteReg(R12, 0x00000000)  returns 0x00 (0000ms, 0591ms total)
T353C 000:761 JLINK_WriteReg(R13 (SP), 0x20002000)  returns 0x00 (0000ms, 0591ms total)
T353C 000:761 JLINK_WriteReg(R14, 0x20000001)  returns 0x00 (0000ms, 0591ms total)
T353C 000:761 JLINK_WriteReg(R15 (PC), 0x20000156)  returns 0x00 (0000ms, 0591ms total)
T353C 000:761 JLINK_WriteReg(XPSR, 0x01000000)  returns 0x00 (0000ms, 0591ms total)
T353C 000:761 JLINK_WriteReg(MSP, 0x20002000)  returns 0x00 (0000ms, 0591ms total)
T353C 000:761 JLINK_WriteReg(PSP, 0x20002000)  returns 0x00 (0000ms, 0591ms total)
T353C 000:761 JLINK_WriteReg(CFBP, 0x00000000)  returns 0x00 (0000ms, 0591ms total)
T353C 000:761 JLINK_SetBPEx(Addr = 0x20000000, Type = 0xFFFFFFF2)  returns 0x00000005 (0000ms, 0591ms total)
T353C 000:761 JLINK_Go() -- CPU_ReadMem(4 bytes @ 0xE0001000) (0004ms, 0595ms total)
T353C 000:765 JLINK_IsHalted()  returns FALSE (0000ms, 0595ms total)
T353C 000:774 JLINK_IsHalted()  returns FALSE (0001ms, 0596ms total)
T353C 000:776 JLINK_IsHalted()  returns FALSE (0000ms, 0595ms total)
T353C 000:778 JLINK_IsHalted()  returns FALSE (0000ms, 0595ms total)
T353C 000:791 JLINK_IsHalted()  returns FALSE (0000ms, 0595ms total)
T353C 000:793 JLINK_IsHalted() -- CPU_ReadMem(2 bytes @ 0x20000000)  returns TRUE (0007ms, 0602ms total)
T353C 000:800 JLINK_ReadReg(R15 (PC))  returns 0x20000000 (0000ms, 0595ms total)
T353C 000:800 JLINK_ClrBPEx(BPHandle = 0x00000005)  returns 0x00 (0000ms, 0595ms total)
T353C 000:800 JLINK_ReadReg(R0)  returns 0x00000000 (0000ms, 0595ms total)
T353C 000:800 JLINK_WriteReg(R0, 0x00000002)  returns 0x00 (0000ms, 0595ms total)
T353C 000:800 JLINK_WriteReg(R1, 0x00000A1C)  returns 0x00 (0000ms, 0595ms total)
T353C 000:800 JLINK_WriteReg(R2, 0x20000234)  returns 0x00 (0000ms, 0595ms total)
T353C 000:800 JLINK_WriteReg(R3, 0x00000000)  returns 0x00 (0000ms, 0595ms total)
T353C 000:800 JLINK_WriteReg(R4, 0x00000000)  returns 0x00 (0000ms, 0595ms total)
T353C 000:800 JLINK_WriteReg(R5, 0x00000000)  returns 0x00 (0000ms, 0595ms total)
T353C 000:800 JLINK_WriteReg(R6, 0x00000000)  returns 0x00 (0000ms, 0595ms total)
T353C 000:800 JLINK_WriteReg(R7, 0x00000000)  returns 0x00 (0000ms, 0595ms total)
T353C 000:800 JLINK_WriteReg(R8, 0x00000000)  returns 0x00 (0000ms, 0595ms total)
T353C 000:800 JLINK_WriteReg(R9, 0x20000230)  returns 0x00 (0000ms, 0595ms total)
T353C 000:800 JLINK_WriteReg(R10, 0x00000000)  returns 0x00 (0000ms, 0595ms total)
T353C 000:800 JLINK_WriteReg(R11, 0x00000000)  returns 0x00 (0000ms, 0595ms total)
T353C 000:800 JLINK_WriteReg(R12, 0x00000000)  returns 0x00 (0000ms, 0595ms total)
T353C 000:800 JLINK_WriteReg(R13 (SP), 0x20002000)  returns 0x00 (0000ms, 0595ms total)
T353C 000:800 JLINK_WriteReg(R14, 0x20000001)  returns 0x00 (0000ms, 0595ms total)
T353C 000:800 JLINK_WriteReg(R15 (PC), 0x2000008E)  returns 0x00 (0000ms, 0595ms total)
T353C 000:800 JLINK_WriteReg(XPSR, 0x01000000)  returns 0x00 (0000ms, 0595ms total)
T353C 000:800 JLINK_WriteReg(MSP, 0x20002000)  returns 0x00 (0000ms, 0595ms total)
T353C 000:800 JLINK_WriteReg(PSP, 0x20002000)  returns 0x00 (0000ms, 0595ms total)
T353C 000:800 JLINK_WriteReg(CFBP, 0x00000000)  returns 0x00 (0000ms, 0595ms total)
T353C 000:800 JLINK_SetBPEx(Addr = 0x20000000, Type = 0xFFFFFFF2)  returns 0x00000006 (0000ms, 0595ms total)
T353C 000:800 JLINK_Go() -- CPU_ReadMem(4 bytes @ 0xE0001000) (0004ms, 0599ms total)
T353C 000:804 JLINK_IsHalted() -- CPU_ReadMem(2 bytes @ 0x20000000)  returns TRUE (0007ms, 0606ms total)
T353C 000:811 JLINK_ReadReg(R15 (PC))  returns 0x20000000 (0000ms, 0599ms total)
T353C 000:811 JLINK_ClrBPEx(BPHandle = 0x00000006)  returns 0x00 (0000ms, 0599ms total)
T353C 000:811 JLINK_ReadReg(R0)  returns 0x00000000 (0000ms, 0599ms total)
T353C 000:867 JLINK_WriteMem(0x20000000, 0x0234 Bytes, ...) - Data: 00 BE 0A E0 0D 78 2D 06 68 40 08 24 40 00 00 D3 ... -- CPU_WriteMem(564 bytes @ 0x20000000)  returns 0x234 (0007ms, 0606ms total)
T353C 000:874 JLINK_WriteReg(R0, 0x00000000)  returns 0x00 (0001ms, 0607ms total)
T353C 000:875 JLINK_WriteReg(R1, 0x03D09000)  returns 0x00 (0000ms, 0607ms total)
T353C 000:875 JLINK_WriteReg(R2, 0x00000003)  returns 0x00 (0000ms, 0607ms total)
T353C 000:875 JLINK_WriteReg(R3, 0x00000000)  returns 0x00 (0000ms, 0607ms total)
T353C 000:875 JLINK_WriteReg(R4, 0x00000000)  returns 0x00 (0000ms, 0607ms total)
T353C 000:875 JLINK_WriteReg(R5, 0x00000000)  returns 0x00 (0000ms, 0607ms total)
T353C 000:875 JLINK_WriteReg(R6, 0x00000000)  returns 0x00 (0000ms, 0607ms total)
T353C 000:875 JLINK_WriteReg(R7, 0x00000000)  returns 0x00 (0000ms, 0607ms total)
T353C 000:875 JLINK_WriteReg(R8, 0x00000000)  returns 0x00 (0000ms, 0607ms total)
T353C 000:875 JLINK_WriteReg(R9, 0x20000230)  returns 0x00 (0000ms, 0607ms total)
T353C 000:875 JLINK_WriteReg(R10, 0x00000000)  returns 0x00 (0000ms, 0607ms total)
T353C 000:875 JLINK_WriteReg(R11, 0x00000000)  returns 0x00 (0000ms, 0607ms total)
T353C 000:875 JLINK_WriteReg(R12, 0x00000000)  returns 0x00 (0000ms, 0607ms total)
T353C 000:875 JLINK_WriteReg(R13 (SP), 0x20002000)  returns 0x00 (0000ms, 0607ms total)
T353C 000:875 JLINK_WriteReg(R14, 0x20000001)  returns 0x00 (0000ms, 0607ms total)
T353C 000:875 JLINK_WriteReg(R15 (PC), 0x2000003C)  returns 0x00 (0000ms, 0607ms total)
T353C 000:875 JLINK_WriteReg(XPSR, 0x01000000)  returns 0x00 (0000ms, 0607ms total)
T353C 000:875 JLINK_WriteReg(MSP, 0x20002000)  returns 0x00 (0000ms, 0607ms total)
T353C 000:875 JLINK_WriteReg(PSP, 0x20002000)  returns 0x00 (0000ms, 0607ms total)
T353C 000:875 JLINK_WriteReg(CFBP, 0x00000000)  returns 0x00 (0000ms, 0607ms total)
T353C 000:875 JLINK_SetBPEx(Addr = 0x20000000, Type = 0xFFFFFFF2) -- CPU_ReadMem(2 bytes @ 0x20000000)  returns 0x00000007 (0000ms, 0607ms total)
T353C 000:875 JLINK_Go() -- CPU_WriteMem(2 bytes @ 0x20000000) -- CPU_ReadMem(4 bytes @ 0xE0001000) (0004ms, 0611ms total)
T353C 000:879 JLINK_IsHalted() -- CPU_ReadMem(2 bytes @ 0x20000000)  returns TRUE (0007ms, 0618ms total)
T353C 000:886 JLINK_ReadReg(R15 (PC))  returns 0x20000000 (0000ms, 0611ms total)
T353C 000:886 JLINK_ClrBPEx(BPHandle = 0x00000007)  returns 0x00 (0000ms, 0611ms total)
T353C 000:886 JLINK_ReadReg(R0)  returns 0x00000000 (0000ms, 0611ms total)
T353C 000:886 JLINK_WriteMem(0x20000234, 0x01CC Bytes, ...) - Data: 28 20 00 20 15 02 00 00 1D 02 00 00 1F 02 00 00 ... -- CPU_WriteMem(460 bytes @ 0x20000234)  returns 0x1CC (0007ms, 0618ms total)
T353C 000:893 JLINK_WriteMem(0x20000400, 0x0400 Bytes, ...) - Data: 00 00 00 00 00 00 00 00 00 00 00 00 00 00 00 00 ... -- CPU_WriteMem(1024 bytes @ 0x20000400)  returns 0x400 (0014ms, 0632ms total)
T353C 000:907 JLINK_WriteMem(0x20000800, 0x0400 Bytes, ...) - Data: 08 34 F4 E7 70 BD 00 00 10 00 00 20 02 68 13 46 ... -- CPU_WriteMem(1024 bytes @ 0x20000800)  returns 0x400 (0015ms, 0647ms total)
T353C 000:922 JLINK_WriteMem(0x20000C00, 0x0400 Bytes, ...) - Data: CB BF 0E 20 FB E7 70 47 00 00 07 41 00 00 00 00 ... -- CPU_WriteMem(1024 bytes @ 0x20000C00)  returns 0x400 (0014ms, 0661ms total)
T353C 000:936 JLINK_WriteMem(0x20001000, 0x0234 Bytes, ...) - Data: 00 00 00 00 00 00 00 00 00 00 00 00 00 00 00 00 ... -- CPU_WriteMem(564 bytes @ 0x20001000)  returns 0x234 (0008ms, 0669ms total)
T353C 000:944 JLINK_WriteReg(R0, 0x00000000)  returns 0x00 (0000ms, 0669ms total)
T353C 000:944 JLINK_WriteReg(R1, 0x00000A1C)  returns 0x00 (0000ms, 0669ms total)
T353C 000:944 JLINK_WriteReg(R2, 0x20000234)  returns 0x00 (0000ms, 0669ms total)
T353C 000:944 JLINK_WriteReg(R3, 0x00000000)  returns 0x00 (0000ms, 0669ms total)
T353C 000:944 JLINK_WriteReg(R4, 0x00000000)  returns 0x00 (0000ms, 0669ms total)
T353C 000:944 JLINK_WriteReg(R5, 0x00000000)  returns 0x00 (0000ms, 0669ms total)
T353C 000:944 JLINK_WriteReg(R6, 0x00000000)  returns 0x00 (0000ms, 0669ms total)
T353C 000:944 JLINK_WriteReg(R7, 0x00000000)  returns 0x00 (0000ms, 0669ms total)
T353C 000:944 JLINK_WriteReg(R8, 0x00000000)  returns 0x00 (0000ms, 0669ms total)
T353C 000:944 JLINK_WriteReg(R9, 0x20000230)  returns 0x00 (0000ms, 0669ms total)
T353C 000:944 JLINK_WriteReg(R10, 0x00000000)  returns 0x00 (0000ms, 0669ms total)
T353C 000:944 JLINK_WriteReg(R11, 0x00000000)  returns 0x00 (0000ms, 0669ms total)
T353C 000:944 JLINK_WriteReg(R12, 0x00000000)  returns 0x00 (0000ms, 0669ms total)
T353C 000:944 JLINK_WriteReg(R13 (SP), 0x20002000)  returns 0x00 (0000ms, 0669ms total)
T353C 000:944 JLINK_WriteReg(R14, 0x20000001)  returns 0x00 (0000ms, 0669ms total)
T353C 000:944 JLINK_WriteReg(R15 (PC), 0x200001C8)  returns 0x00 (0000ms, 0669ms total)
T353C 000:944 JLINK_WriteReg(XPSR, 0x01000000)  returns 0x00 (0000ms, 0669ms total)
T353C 000:944 JLINK_WriteReg(MSP, 0x20002000)  returns 0x00 (0000ms, 0669ms total)
T353C 000:944 JLINK_WriteReg(PSP, 0x20002000)  returns 0x00 (0000ms, 0669ms total)
T353C 000:944 JLINK_WriteReg(CFBP, 0x00000000)  returns 0x00 (0000ms, 0669ms total)
T353C 000:944 JLINK_SetBPEx(Addr = 0x20000000, Type = 0xFFFFFFF2)  returns 0x00000008 (0000ms, 0669ms total)
T353C 000:944 JLINK_Go() -- CPU_ReadMem(4 bytes @ 0xE0001000) (0004ms, 0673ms total)
T353C 000:948 JLINK_IsHalted() -- CPU_ReadMem(2 bytes @ 0x20000000)  returns TRUE (0007ms, 0680ms total)
T353C 000:955 JLINK_ReadReg(R15 (PC))  returns 0x20000000 (0000ms, 0673ms total)
T353C 000:955 JLINK_ClrBPEx(BPHandle = 0x00000008)  returns 0x00 (0000ms, 0673ms total)
T353C 000:955 JLINK_ReadReg(R0)  returns 0x00000A1C (0000ms, 0673ms total)
T353C 000:956 JLINK_WriteReg(R0, 0x00000003)  returns 0x00 (0000ms, 0673ms total)
T353C 000:956 JLINK_WriteReg(R1, 0x00000A1C)  returns 0x00 (0000ms, 0673ms total)
T353C 000:956 JLINK_WriteReg(R2, 0x20000234)  returns 0x00 (0000ms, 0673ms total)
T353C 000:956 JLINK_WriteReg(R3, 0x00000000)  returns 0x00 (0000ms, 0673ms total)
T353C 000:956 JLINK_WriteReg(R4, 0x00000000)  returns 0x00 (0000ms, 0673ms total)
T353C 000:956 JLINK_WriteReg(R5, 0x00000000)  returns 0x00 (0000ms, 0673ms total)
T353C 000:956 JLINK_WriteReg(R6, 0x00000000)  returns 0x00 (0000ms, 0673ms total)
T353C 000:956 JLINK_WriteReg(R7, 0x00000000)  returns 0x00 (0000ms, 0673ms total)
T353C 000:956 JLINK_WriteReg(R8, 0x00000000)  returns 0x00 (0000ms, 0673ms total)
T353C 000:956 JLINK_WriteReg(R9, 0x20000230)  returns 0x00 (0000ms, 0673ms total)
T353C 000:956 JLINK_WriteReg(R10, 0x00000000)  returns 0x00 (0000ms, 0673ms total)
T353C 000:956 JLINK_WriteReg(R11, 0x00000000)  returns 0x00 (0000ms, 0673ms total)
T353C 000:956 JLINK_WriteReg(R12, 0x00000000)  returns 0x00 (0000ms, 0673ms total)
T353C 000:956 JLINK_WriteReg(R13 (SP), 0x20002000)  returns 0x00 (0000ms, 0673ms total)
T353C 000:956 JLINK_WriteReg(R14, 0x20000001)  returns 0x00 (0000ms, 0673ms total)
T353C 000:956 JLINK_WriteReg(R15 (PC), 0x2000008E)  returns 0x00 (0000ms, 0673ms total)
T353C 000:956 JLINK_WriteReg(XPSR, 0x01000000)  returns 0x00 (0000ms, 0673ms total)
T353C 000:956 JLINK_WriteReg(MSP, 0x20002000)  returns 0x00 (0000ms, 0673ms total)
T353C 000:956 JLINK_WriteReg(PSP, 0x20002000)  returns 0x00 (0000ms, 0673ms total)
T353C 000:956 JLINK_WriteReg(CFBP, 0x00000000)  returns 0x00 (0000ms, 0673ms total)
T353C 000:956 JLINK_SetBPEx(Addr = 0x20000000, Type = 0xFFFFFFF2)  returns 0x00000009 (0000ms, 0673ms total)
T353C 000:956 JLINK_Go() -- CPU_ReadMem(4 bytes @ 0xE0001000) (0003ms, 0676ms total)
T353C 000:959 JLINK_IsHalted() -- CPU_ReadMem(2 bytes @ 0x20000000)  returns TRUE (0007ms, 0683ms total)
T353C 000:966 JLINK_ReadReg(R15 (PC))  returns 0x20000000 (0000ms, 0676ms total)
T353C 000:966 JLINK_ClrBPEx(BPHandle = 0x00000009)  returns 0x00 (0000ms, 0676ms total)
T353C 000:966 JLINK_ReadReg(R0)  returns 0x00000000 (0000ms, 0676ms total)
T353C 001:021 JLINK_WriteMemEx(0x20000000, 0x0002 Bytes, ..., Flags = 0x02000000) - Data: FE E7 -- CPU_WriteMem(2 bytes @ 0x20000000)  returns 0x02 (0000ms, 0676ms total)
T353C 001:021 JLINK_SetResetType(JLINKARM_CM3_RESET_TYPE_NORMAL)  returns JLINKARM_CM3_RESET_TYPE_NORMAL (0000ms, 0676ms total)
T353C 001:021 JLINK_Reset() -- CPU_WriteMem(4 bytes @ 0xE000EDF0) -- CPU_WriteMem(4 bytes @ 0xE000EDFC)Reset: Halt core after reset via DEMCR.VC_CORERESET. >0x35 TIF>Reset: Reset device via AIRCR.SYSRESETREQ. -- CPU_WriteMem(4 bytes @ 0xE000ED0C) >0x0D TIF> >0x28 TIF> -- CPU_ReadMem(4 bytes @ 0xE000EDF0) -- CPU_ReadMem(4 bytes @ 0xE000EDF0) -- CPU_WriteMem(4 bytes @ 0xE000EDF0) -- CPU_WriteMem(4 bytes @ 0xE000EDFC) -- CPU_ReadMem(4 bytes @ 0xE000EDF0) -- CPU_WriteMem(4 bytes @ 0xE0002000)
 -- CPU_ReadMem(4 bytes @ 0xE000EDFC) -- CPU_ReadMem(4 bytes @ 0xE0001000) (0080ms, 0756ms total)
T353C 001:101 JLINK_Go() -- CPU_ReadMem(4 bytes @ 0xE0001000) -- CPU_WriteMem(4 bytes @ 0xE0002008) -- CPU_WriteMem(4 bytes @ 0xE000200C) -- CPU_WriteMem(4 bytes @ 0xE0002010) -- CPU_WriteMem(4 bytes @ 0xE0002014) -- CPU_WriteMem(4 bytes @ 0xE0002018) -- CPU_WriteMem(4 bytes @ 0xE000201C) -- CPU_WriteMem(4 bytes @ 0xE0001004) (0006ms, 0762ms total)
T353C 001:144 JLINK_Close() -- CPU is running -- CPU_WriteMem(4 bytes @ 0xE0002008) -- CPU is running -- CPU_WriteMem(4 bytes @ 0xE000200C) -- CPU is running -- CPU_WriteMem(4 bytes @ 0xE0002010) -- CPU is running -- CPU_WriteMem(4 bytes @ 0xE0002014) -- CPU is running -- CPU_WriteMem(4 bytes @ 0xE0002018) -- CPU is running -- CPU_WriteMem(4 bytes @ 0xE000201C) >0x0D TIF> >0x28 TIF> >0x0D TIF> >0x28 TIF> >0x0D TIF> >0x28 TIF> >0x0D TIF> >0x28 TIF> >0x0D TIF> >0x28 TIF> >0x0D TIF> >0x28 TIF> >0x0D TIF>
 >0x28 TIF> >0x0D TIF> >0x28 TIF> >0x35 TIF> >0x0D TIF> >0x28 TIF> (0011ms, 0773ms total)
T353C 001:144  (0011ms, 0773ms total)
T353C 001:144 Closed (0011ms, 0773ms total)
