
T070C 000:014 SEGGER J-Link V6.20b Log File (0001ms, 0015ms total)
T070C 000:014 DLL Compiled: Sep 22 2017 17:57:26 (0001ms, 0015ms total)
T070C 000:014 Logging started @ 2018-06-14 11:33 (0001ms, 0015ms total)
T070C 000:015 JLINK_SetWarnOutHandler(...) (0000ms, 0015ms total)
T070C 000:015 JLINK_OpenEx(...)
Firmware: J-Link OB-SAM3U128-V2-NordicSemi compiled Jul 24 2017 17:30:12
Hardware: V1.00
S/N: 683508989
TELNET listener socket opened on port 19021WEBSRV 
Webserver running on local port 19080  returns O.K. (0010ms, 0025ms total)
T070C 000:025 JLINK_GetEmuCaps()  returns 0xB8EA5A33 (0000ms, 0025ms total)
T070C 000:025 JLINK_TIF_GetAvailable(...) (0000ms, 0025ms total)
T070C 000:025 JLINK_SetErrorOutHandler(...) (0000ms, 0025ms total)
T070C 000:025 JLINK_ExecCommand("ProjectFile = "C:\Users\marcus\Documents\coded-production\nRF5_SDK_14.2.0_17b948a\nRF5_SDK_14.2.0_17b948a-MOD1\examples\peripheral\twi_scanner\pca10056\blank\arm5_no_packs\JLinkSettings.ini"", ...). C:\Program Files (x86)\SEGGER\JLink_V620b\JLinkDevices.xml evaluated successfully.  returns 0x00 (0115ms, 0140ms total)
T070C 000:143 JLINK_ExecCommand("Device = nRF52840_xxAA", ...). Device "NRF52840_XXAA" selected.  returns 0x00 (0005ms, 0145ms total)
T070C 000:148 JLINK_ExecCommand("DisableConnectionTimeout", ...).   returns 0x01 (0000ms, 0145ms total)
T070C 000:148 JLINK_GetHardwareVersion()  returns 0x2710 (0000ms, 0145ms total)
T070C 000:148 JLINK_GetDLLVersion()  returns 62002 (0000ms, 0145ms total)
T070C 000:148 JLINK_GetFirmwareString(...) (0000ms, 0145ms total)
T070C 000:152 JLINK_GetDLLVersion()  returns 62002 (0000ms, 0145ms total)
T070C 000:152 JLINK_GetCompileDateTime() (0000ms, 0145ms total)
T070C 000:153 JLINK_GetFirmwareString(...) (0000ms, 0145ms total)
T070C 000:154 JLINK_GetHardwareVersion()  returns 0x2710 (0000ms, 0145ms total)
T070C 000:157 JLINK_TIF_Select(JLINKARM_TIF_SWD)  returns 0x00 (0046ms, 0191ms total)
T070C 000:204 JLINK_SetSpeed(5000) (0000ms, 0191ms total)
T070C 000:204 JLINK_GetId() >0x10B TIF>Found SW-DP with ID 0x2BA01477 >0x0D TIF> >0x28 TIF> >0x0D TIF> >0x28 TIF> >0x10B TIF>Found SW-DP with ID 0x2BA01477 >0x0D TIF> >0x28 TIF> >0x0D TIF> >0x28 TIF> >0x0D TIF> >0x28 TIF> >0x0D TIF> >0x28 TIF> >0x35 TIF> >0x0D TIF> >0x28 TIF>Scanning AP map to find all available APs >0x0D TIF> >0x28 TIF> >0x35 TIF> >0x35 TIF> >0x0D TIF> >0x28 TIF> >0x35 TIF> >0x35 TIF> >0x0D TIF> >0x28 TIF> >0x35 TIF> >0x35 TIF>AP[2]: Stopped AP scan as end of AP map has been reached
AP[0]: AHB-AP (IDR: 0x24770011)AP[1]: JTAG-AP (IDR: 0x02880000)Iterating through AP map to find AHB-AP to use >0x42 TIF> >0x28 TIF> >0x35 TIF> >0x35 TIF> >0x42 TIF> >0x28 TIF> >0x0D TIF> >0x28 TIF> >0x0D TIF> >0x28 TIF> >0x35 TIF> >0x35 TIF>AP[0]: Core foundAP[0]: AHB-AP ROM base: 0xE00FF000 >0x0D TIF> >0x28 TIF> >0x0D TIF> >0x28 TIF> >0x0D TIF> >0x28 TIF> >0x35 TIF> >0x35 TIF>CPUID register: 0x410FC241. Implementer code: 0x41 (ARM)Found Cortex-M4 r0p1, Little endian. -- CPU_ReadMem(4 bytes @ 0xE000EDF0)
 -- CPU_ReadMem(4 bytes @ 0xE0002000)FPUnit: 6 code (BP) slots and 2 literal slots -- CPU_ReadMem(4 bytes @ 0xE000EDFC) -- CPU_ReadMem(4 bytes @ 0xE0001000) -- CPU_WriteMem(4 bytes @ 0xE0001000) -- CPU_ReadMem(4 bytes @ 0xE000ED88) -- CPU_WriteMem(4 bytes @ 0xE000ED88) -- CPU_ReadMem(4 bytes @ 0xE000ED88) -- CPU_WriteMem(4 bytes @ 0xE000ED88)CoreSight components:ROMTbl[0] @ E00FF000 -- CPU_ReadMem(16 bytes @ 0xE00FF000) -- CPU_ReadMem(16 bytes @ 0xE000EFF0) -- CPU_ReadMem(16 bytes @ 0xE000EFE0)
ROMTbl[0][0]: E000E000, CID: B105E00D, PID: 000BB00C SCS -- CPU_ReadMem(16 bytes @ 0xE0001FF0) -- CPU_ReadMem(16 bytes @ 0xE0001FE0)ROMTbl[0][1]: E0001000, CID: B105E00D, PID: 003BB002 DWT -- CPU_ReadMem(16 bytes @ 0xE0002FF0) -- CPU_ReadMem(16 bytes @ 0xE0002FE0)ROMTbl[0][2]: E0002000, CID: B105E00D, PID: 002BB003 FPB -- CPU_ReadMem(16 bytes @ 0xE0000FF0) -- CPU_ReadMem(16 bytes @ 0xE0000FE0)ROMTbl[0][3]: E0000000, CID: B105E00D, PID: 003BB001 ITM -- CPU_ReadMem(16 bytes @ 0xE00FF010)
 -- CPU_ReadMem(16 bytes @ 0xE0040FF0) -- CPU_ReadMem(16 bytes @ 0xE0040FE0)ROMTbl[0][4]: E0040000, CID: B105900D, PID: 000BB9A1 TPIU -- CPU_ReadMem(16 bytes @ 0xE0041FF0) -- CPU_ReadMem(16 bytes @ 0xE0041FE0)ROMTbl[0][5]: E0041000, CID: B105900D, PID: 000BB925 ETM >0x35 TIF>  returns 0x2BA01477 (0165ms, 0356ms total)
T070C 000:369 JLINK_GetDLLVersion()  returns 62002 (0000ms, 0356ms total)
T070C 000:369 JLINK_CORE_GetFound()  returns 0xE0000FF (0000ms, 0356ms total)
T070C 000:369 JLINK_GetDebugInfo(0x100 = JLINKARM_ROM_TABLE_ADDR_INDEX) -- Value=0xE00FF000  returns 0x00 (0000ms, 0356ms total)
T070C 000:371 JLINK_GetDebugInfo(0x100 = JLINKARM_ROM_TABLE_ADDR_INDEX) -- Value=0xE00FF000  returns 0x00 (0000ms, 0356ms total)
T070C 000:371 JLINK_GetDebugInfo(0x101 = JLINKARM_DEBUG_INFO_ETM_ADDR_INDEX) -- Value=0xE0041000  returns 0x00 (0000ms, 0356ms total)
T070C 000:371 JLINK_ReadMemEx(0xE0041FD0, 0x0020 Bytes, ..., Flags = 0x02000004) -- CPU_ReadMem(32 bytes @ 0xE0041FD0) - Data: 04 00 00 00 00 00 00 00 00 00 00 00 00 00 00 00 ...  returns 0x20 (0052ms, 0408ms total)
T070C 000:423 JLINK_GetDebugInfo(0x102 = JLINKARM_DEBUG_INFO_MTB_ADDR_INDEX) -- Value=0x00000000  returns 0x00 (0000ms, 0408ms total)
T070C 000:423 JLINK_GetDebugInfo(0x103 = JLINKARM_DEBUG_INFO_TPIU_ADDR_INDEX) -- Value=0xE0040000  returns 0x00 (0000ms, 0408ms total)
T070C 000:423 JLINK_GetDebugInfo(0x104 = JLINKARM_DEBUG_INFO_ITM_ADDR_INDEX) -- Value=0xE0000000  returns 0x00 (0000ms, 0408ms total)
T070C 000:423 JLINK_GetDebugInfo(0x105 = JLINKARM_DEBUG_INFO_DWT_ADDR_INDEX) -- Value=0xE0001000  returns 0x00 (0000ms, 0408ms total)
T070C 000:423 JLINK_GetDebugInfo(0x106 = JLINKARM_DEBUG_INFO_FPB_ADDR_INDEX) -- Value=0xE0002000  returns 0x00 (0000ms, 0408ms total)
T070C 000:423 JLINK_GetDebugInfo(0x107 = JLINKARM_DEBUG_INFO_NVIC_ADDR_INDEX) -- Value=0xE000E000  returns 0x00 (0000ms, 0408ms total)
T070C 000:423 JLINK_GetDebugInfo(0x10C = JLINKARM_DEBUG_INFO_DBG_ADDR_INDEX) -- Value=0xE000EDF0  returns 0x00 (0000ms, 0408ms total)
T070C 000:423 JLINK_ReadMemU32(0xE000EF40, 0x0001 Items, ...) -- CPU_ReadMem(4 bytes @ 0xE000EF40) - Data: 21 00 11 10  returns 0x01 (0001ms, 0409ms total)
T070C 000:424 JLINK_ReadMemU32(0xE000EF44, 0x0001 Items, ...) -- CPU_ReadMem(4 bytes @ 0xE000EF44) - Data: 11 00 00 11  returns 0x01 (0000ms, 0409ms total)
T070C 000:424 JLINK_ReadMemU32(0xE000ED00, 0x0001 Items, ...) -- CPU_ReadMem(4 bytes @ 0xE000ED00) - Data: 41 C2 0F 41  returns 0x01 (0001ms, 0410ms total)
T070C 000:425 JLINK_GetDebugInfo(0x10F = JLINKARM_DEBUG_INFO_HAS_CORTEX_M_SECURITY_EXT_INDEX) -- Value=0x00000000  returns 0x00 (0000ms, 0410ms total)
T070C 000:425 JLINK_SetResetType(JLINKARM_CM3_RESET_TYPE_NORMAL)  returns JLINKARM_CM3_RESET_TYPE_NORMAL (0000ms, 0410ms total)
T070C 000:425 JLINK_Reset() -- CPU is running -- CPU_WriteMem(4 bytes @ 0xE000EDF0) -- CPU is running -- CPU_WriteMem(4 bytes @ 0xE000EDFC)Reset: Halt core after reset via DEMCR.VC_CORERESET. >0x35 TIF>Reset: Reset device via AIRCR.SYSRESETREQ. -- CPU is running -- CPU_WriteMem(4 bytes @ 0xE000ED0C) >0x0D TIF> >0x28 TIF> -- CPU_ReadMem(4 bytes @ 0xE000EDF0) -- CPU_ReadMem(4 bytes @ 0xE000EDF0) -- CPU is running -- CPU_WriteMem(4 bytes @ 0xE000EDF0) -- CPU is running -- CPU_WriteMem(4 bytes @ 0xE000EDFC)
 -- CPU_ReadMem(4 bytes @ 0xE000EDF0) -- CPU_WriteMem(4 bytes @ 0xE0002000) -- CPU_ReadMem(4 bytes @ 0xE000EDFC) -- CPU_ReadMem(4 bytes @ 0xE0001000) (0074ms, 0484ms total)
T070C 000:499 JLINK_Halt()  returns 0x00 (0000ms, 0484ms total)
T070C 000:499 JLINK_ReadMemU32(0xE000EDF0, 0x0001 Items, ...) -- CPU_ReadMem(4 bytes @ 0xE000EDF0) - Data: 03 00 03 00  returns 0x01 (0001ms, 0485ms total)
T070C 000:500 JLINK_WriteU32(0xE000EDF0, 0xA05F0003) -- CPU_WriteMem(4 bytes @ 0xE000EDF0)  returns 0x00 (0053ms, 0538ms total)
T070C 000:553 JLINK_WriteU32(0xE000EDFC, 0x01000000) -- CPU_WriteMem(4 bytes @ 0xE000EDFC)  returns 0x00 (0001ms, 0539ms total)
T070C 000:560 JLINK_GetHWStatus(...)  returns 0x00 (0000ms, 0539ms total)
T070C 000:565 JLINK_GetNumBPUnits(Type = 0xFFFFFF00)  returns 0x06 (0000ms, 0539ms total)
T070C 000:565 JLINK_GetNumBPUnits(Type = 0xF0)  returns 0x2000 (0000ms, 0539ms total)
T070C 000:565 JLINK_GetNumWPUnits()  returns 0x04 (0000ms, 0539ms total)
T070C 000:569 JLINK_GetSpeed()  returns 0x3E8 (0000ms, 0539ms total)
T070C 000:572 JLINK_ReadMemU32(0xE000E004, 0x0001 Items, ...) -- CPU_ReadMem(4 bytes @ 0xE000E004) - Data: 01 00 00 00  returns 0x01 (0045ms, 0584ms total)
T070C 000:617 JLINK_ReadMemU32(0xE000E004, 0x0001 Items, ...) -- CPU_ReadMem(4 bytes @ 0xE000E004) - Data: 01 00 00 00  returns 0x01 (0001ms, 0585ms total)
T070C 000:618 JLINK_WriteMemEx(0xE0001000, 0x001C Bytes, ..., Flags = 0x02000004) - Data: 01 00 00 00 00 00 00 00 00 00 00 00 00 00 00 00 ... -- CPU_WriteMem(28 bytes @ 0xE0001000)  returns 0x1C (0002ms, 0587ms total)
T070C 000:620 JLINK_Halt()  returns 0x00 (0000ms, 0587ms total)
T070C 000:620 JLINK_IsHalted()  returns TRUE (0000ms, 0587ms total)
T070C 000:622 JLINK_WriteMem(0x20000000, 0x0234 Bytes, ...) - Data: 00 BE 0A E0 0D 78 2D 06 68 40 08 24 40 00 00 D3 ... -- CPU_WriteMem(564 bytes @ 0x20000000)  returns 0x234 (0009ms, 0596ms total)
T070C 000:631 JLINK_WriteReg(R0, 0x00000000)  returns 0x00 (0000ms, 0596ms total)
T070C 000:631 JLINK_WriteReg(R1, 0x03D09000)  returns 0x00 (0000ms, 0596ms total)
T070C 000:631 JLINK_WriteReg(R2, 0x00000001)  returns 0x00 (0000ms, 0596ms total)
T070C 000:631 JLINK_WriteReg(R3, 0x00000000)  returns 0x00 (0000ms, 0596ms total)
T070C 000:631 JLINK_WriteReg(R4, 0x00000000)  returns 0x00 (0000ms, 0596ms total)
T070C 000:631 JLINK_WriteReg(R5, 0x00000000)  returns 0x00 (0000ms, 0596ms total)
T070C 000:631 JLINK_WriteReg(R6, 0x00000000)  returns 0x00 (0000ms, 0596ms total)
T070C 000:631 JLINK_WriteReg(R7, 0x00000000)  returns 0x00 (0000ms, 0596ms total)
T070C 000:631 JLINK_WriteReg(R8, 0x00000000)  returns 0x00 (0000ms, 0596ms total)
T070C 000:631 JLINK_WriteReg(R9, 0x20000230)  returns 0x00 (0000ms, 0596ms total)
T070C 000:631 JLINK_WriteReg(R10, 0x00000000)  returns 0x00 (0000ms, 0596ms total)
T070C 000:631 JLINK_WriteReg(R11, 0x00000000)  returns 0x00 (0000ms, 0596ms total)
T070C 000:631 JLINK_WriteReg(R12, 0x00000000)  returns 0x00 (0000ms, 0596ms total)
T070C 000:631 JLINK_WriteReg(R13 (SP), 0x20002000)  returns 0x00 (0000ms, 0596ms total)
T070C 000:631 JLINK_WriteReg(R14, 0x20000001)  returns 0x00 (0000ms, 0596ms total)
T070C 000:631 JLINK_WriteReg(R15 (PC), 0x2000003C)  returns 0x00 (0000ms, 0596ms total)
T070C 000:631 JLINK_WriteReg(XPSR, 0x01000000)  returns 0x00 (0000ms, 0596ms total)
T070C 000:631 JLINK_WriteReg(MSP, 0x20002000)  returns 0x00 (0000ms, 0596ms total)
T070C 000:631 JLINK_WriteReg(PSP, 0x20002000)  returns 0x00 (0000ms, 0596ms total)
T070C 000:631 JLINK_WriteReg(CFBP, 0x00000000)  returns 0x00 (0000ms, 0596ms total)
T070C 000:631 JLINK_SetBPEx(Addr = 0x20000000, Type = 0xFFFFFFF2) -- CPU_ReadMem(2 bytes @ 0x20000000)  returns 0x00000001 (0053ms, 0649ms total)
T070C 000:684 JLINK_Go() -- CPU_WriteMem(2 bytes @ 0x20000000) -- CPU_ReadMem(4 bytes @ 0xE0001000) -- CPU_WriteMem(4 bytes @ 0xE0002008) -- CPU_WriteMem(4 bytes @ 0xE000200C) -- CPU_WriteMem(4 bytes @ 0xE0002010) -- CPU_WriteMem(4 bytes @ 0xE0002014) -- CPU_WriteMem(4 bytes @ 0xE0002018) -- CPU_WriteMem(4 bytes @ 0xE000201C) -- CPU_WriteMem(4 bytes @ 0xE0001004) (0008ms, 0657ms total)
T070C 000:692 JLINK_IsHalted() -- CPU_ReadMem(2 bytes @ 0x20000000)  returns TRUE (0007ms, 0664ms total)
T070C 000:699 JLINK_ReadReg(R15 (PC))  returns 0x20000000 (0000ms, 0657ms total)
T070C 000:699 JLINK_ClrBPEx(BPHandle = 0x00000001)  returns 0x00 (0000ms, 0657ms total)
T070C 000:699 JLINK_ReadReg(R0)  returns 0x00000000 (0000ms, 0657ms total)
T070C 000:700 JLINK_WriteReg(R0, 0x00000000)  returns 0x00 (0000ms, 0657ms total)
T070C 000:700 JLINK_WriteReg(R1, 0x00001000)  returns 0x00 (0000ms, 0657ms total)
T070C 000:700 JLINK_WriteReg(R2, 0x000000FF)  returns 0x00 (0000ms, 0657ms total)
T070C 000:700 JLINK_WriteReg(R3, 0x00000000)  returns 0x00 (0000ms, 0657ms total)
T070C 000:700 JLINK_WriteReg(R4, 0x00000000)  returns 0x00 (0000ms, 0657ms total)
T070C 000:700 JLINK_WriteReg(R5, 0x00000000)  returns 0x00 (0000ms, 0657ms total)
T070C 000:700 JLINK_WriteReg(R6, 0x00000000)  returns 0x00 (0000ms, 0657ms total)
T070C 000:700 JLINK_WriteReg(R7, 0x00000000)  returns 0x00 (0000ms, 0657ms total)
T070C 000:700 JLINK_WriteReg(R8, 0x00000000)  returns 0x00 (0000ms, 0657ms total)
T070C 000:700 JLINK_WriteReg(R9, 0x20000230)  returns 0x00 (0000ms, 0657ms total)
T070C 000:700 JLINK_WriteReg(R10, 0x00000000)  returns 0x00 (0000ms, 0657ms total)
T070C 000:700 JLINK_WriteReg(R11, 0x00000000)  returns 0x00 (0000ms, 0657ms total)
T070C 000:700 JLINK_WriteReg(R12, 0x00000000)  returns 0x00 (0000ms, 0657ms total)
T070C 000:700 JLINK_WriteReg(R13 (SP), 0x20002000)  returns 0x00 (0000ms, 0657ms total)
T070C 000:700 JLINK_WriteReg(R14, 0x20000001)  returns 0x00 (0000ms, 0657ms total)
T070C 000:700 JLINK_WriteReg(R15 (PC), 0x2000011A)  returns 0x00 (0000ms, 0657ms total)
T070C 000:700 JLINK_WriteReg(XPSR, 0x01000000)  returns 0x00 (0000ms, 0657ms total)
T070C 000:700 JLINK_WriteReg(MSP, 0x20002000)  returns 0x00 (0000ms, 0657ms total)
T070C 000:700 JLINK_WriteReg(PSP, 0x20002000)  returns 0x00 (0000ms, 0657ms total)
T070C 000:700 JLINK_WriteReg(CFBP, 0x00000000)  returns 0x00 (0000ms, 0657ms total)
T070C 000:700 JLINK_SetBPEx(Addr = 0x20000000, Type = 0xFFFFFFF2)  returns 0x00000002 (0000ms, 0657ms total)
T070C 000:700 JLINK_Go() -- CPU_ReadMem(4 bytes @ 0xE0001000) (0056ms, 0713ms total)
T070C 000:756 JLINK_IsHalted() -- CPU_ReadMem(2 bytes @ 0x20000000)  returns TRUE (0008ms, 0721ms total)
T070C 000:764 JLINK_ReadReg(R15 (PC))  returns 0x20000000 (0000ms, 0713ms total)
T070C 000:764 JLINK_ClrBPEx(BPHandle = 0x00000002)  returns 0x00 (0000ms, 0713ms total)
T070C 000:764 JLINK_ReadReg(R0)  returns 0x00000000 (0000ms, 0713ms total)
T070C 000:765 JLINK_WriteReg(R0, 0x00001000)  returns 0x00 (0000ms, 0713ms total)
T070C 000:765 JLINK_WriteReg(R1, 0x00001000)  returns 0x00 (0000ms, 0713ms total)
T070C 000:765 JLINK_WriteReg(R2, 0x000000FF)  returns 0x00 (0000ms, 0713ms total)
T070C 000:765 JLINK_WriteReg(R3, 0x00000000)  returns 0x00 (0000ms, 0713ms total)
T070C 000:765 JLINK_WriteReg(R4, 0x00000000)  returns 0x00 (0000ms, 0713ms total)
T070C 000:765 JLINK_WriteReg(R5, 0x00000000)  returns 0x00 (0000ms, 0713ms total)
T070C 000:765 JLINK_WriteReg(R6, 0x00000000)  returns 0x00 (0000ms, 0713ms total)
T070C 000:765 JLINK_WriteReg(R7, 0x00000000)  returns 0x00 (0000ms, 0713ms total)
T070C 000:765 JLINK_WriteReg(R8, 0x00000000)  returns 0x00 (0000ms, 0713ms total)
T070C 000:765 JLINK_WriteReg(R9, 0x20000230)  returns 0x00 (0000ms, 0713ms total)
T070C 000:765 JLINK_WriteReg(R10, 0x00000000)  returns 0x00 (0000ms, 0713ms total)
T070C 000:765 JLINK_WriteReg(R11, 0x00000000)  returns 0x00 (0000ms, 0713ms total)
T070C 000:765 JLINK_WriteReg(R12, 0x00000000)  returns 0x00 (0000ms, 0713ms total)
T070C 000:765 JLINK_WriteReg(R13 (SP), 0x20002000)  returns 0x00 (0000ms, 0713ms total)
T070C 000:765 JLINK_WriteReg(R14, 0x20000001)  returns 0x00 (0000ms, 0713ms total)
T070C 000:765 JLINK_WriteReg(R15 (PC), 0x2000011A)  returns 0x00 (0000ms, 0713ms total)
T070C 000:765 JLINK_WriteReg(XPSR, 0x01000000)  returns 0x00 (0000ms, 0713ms total)
T070C 000:765 JLINK_WriteReg(MSP, 0x20002000)  returns 0x00 (0000ms, 0713ms total)
T070C 000:765 JLINK_WriteReg(PSP, 0x20002000)  returns 0x00 (0000ms, 0713ms total)
T070C 000:765 JLINK_WriteReg(CFBP, 0x00000000)  returns 0x00 (0000ms, 0713ms total)
T070C 000:765 JLINK_SetBPEx(Addr = 0x20000000, Type = 0xFFFFFFF2)  returns 0x00000003 (0000ms, 0713ms total)
T070C 000:765 JLINK_Go() -- CPU_ReadMem(4 bytes @ 0xE0001000) (0056ms, 0769ms total)
T070C 000:821 JLINK_IsHalted() -- CPU_ReadMem(2 bytes @ 0x20000000)  returns TRUE (0009ms, 0778ms total)
T070C 000:830 JLINK_ReadReg(R15 (PC))  returns 0x20000000 (0000ms, 0769ms total)
T070C 000:830 JLINK_ClrBPEx(BPHandle = 0x00000003)  returns 0x00 (0000ms, 0769ms total)
T070C 000:830 JLINK_ReadReg(R0)  returns 0x00000000 (0000ms, 0769ms total)
T070C 000:831 JLINK_WriteReg(R0, 0x00002000)  returns 0x00 (0000ms, 0769ms total)
T070C 000:831 JLINK_WriteReg(R1, 0x00001000)  returns 0x00 (0001ms, 0770ms total)
T070C 000:832 JLINK_WriteReg(R2, 0x000000FF)  returns 0x00 (0000ms, 0770ms total)
T070C 000:832 JLINK_WriteReg(R3, 0x00000000)  returns 0x00 (0000ms, 0770ms total)
T070C 000:832 JLINK_WriteReg(R4, 0x00000000)  returns 0x00 (0000ms, 0770ms total)
T070C 000:832 JLINK_WriteReg(R5, 0x00000000)  returns 0x00 (0000ms, 0770ms total)
T070C 000:832 JLINK_WriteReg(R6, 0x00000000)  returns 0x00 (0000ms, 0770ms total)
T070C 000:832 JLINK_WriteReg(R7, 0x00000000)  returns 0x00 (0000ms, 0770ms total)
T070C 000:832 JLINK_WriteReg(R8, 0x00000000)  returns 0x00 (0000ms, 0770ms total)
T070C 000:832 JLINK_WriteReg(R9, 0x20000230)  returns 0x00 (0000ms, 0770ms total)
T070C 000:832 JLINK_WriteReg(R10, 0x00000000)  returns 0x00 (0000ms, 0770ms total)
T070C 000:832 JLINK_WriteReg(R11, 0x00000000)  returns 0x00 (0000ms, 0770ms total)
T070C 000:832 JLINK_WriteReg(R12, 0x00000000)  returns 0x00 (0000ms, 0770ms total)
T070C 000:832 JLINK_WriteReg(R13 (SP), 0x20002000)  returns 0x00 (0000ms, 0770ms total)
T070C 000:832 JLINK_WriteReg(R14, 0x20000001)  returns 0x00 (0000ms, 0770ms total)
T070C 000:832 JLINK_WriteReg(R15 (PC), 0x2000011A)  returns 0x00 (0000ms, 0770ms total)
T070C 000:832 JLINK_WriteReg(XPSR, 0x01000000)  returns 0x00 (0000ms, 0770ms total)
T070C 000:832 JLINK_WriteReg(MSP, 0x20002000)  returns 0x00 (0001ms, 0771ms total)
T070C 000:833 JLINK_WriteReg(PSP, 0x20002000)  returns 0x00 (0000ms, 0771ms total)
T070C 000:833 JLINK_WriteReg(CFBP, 0x00000000)  returns 0x00 (0000ms, 0771ms total)
T070C 000:833 JLINK_SetBPEx(Addr = 0x20000000, Type = 0xFFFFFFF2)  returns 0x00000004 (0000ms, 0771ms total)
T070C 000:833 JLINK_Go() -- CPU_ReadMem(4 bytes @ 0xE0001000) (0055ms, 0826ms total)
T070C 000:888 JLINK_IsHalted() -- CPU_ReadMem(2 bytes @ 0x20000000)  returns TRUE (0009ms, 0835ms total)
T070C 000:897 JLINK_ReadReg(R15 (PC))  returns 0x20000000 (0000ms, 0826ms total)
T070C 000:897 JLINK_ClrBPEx(BPHandle = 0x00000004)  returns 0x00 (0000ms, 0826ms total)
T070C 000:897 JLINK_ReadReg(R0)  returns 0x00000000 (0001ms, 0827ms total)
T070C 000:899 JLINK_WriteReg(R0, 0x00000001)  returns 0x00 (0000ms, 0827ms total)
T070C 000:899 JLINK_WriteReg(R1, 0x00001000)  returns 0x00 (0000ms, 0827ms total)
T070C 000:899 JLINK_WriteReg(R2, 0x000000FF)  returns 0x00 (0000ms, 0827ms total)
T070C 000:899 JLINK_WriteReg(R3, 0x00000000)  returns 0x00 (0000ms, 0827ms total)
T070C 000:899 JLINK_WriteReg(R4, 0x00000000)  returns 0x00 (0000ms, 0827ms total)
T070C 000:899 JLINK_WriteReg(R5, 0x00000000)  returns 0x00 (0000ms, 0827ms total)
T070C 000:899 JLINK_WriteReg(R6, 0x00000000)  returns 0x00 (0000ms, 0827ms total)
T070C 000:899 JLINK_WriteReg(R7, 0x00000000)  returns 0x00 (0000ms, 0827ms total)
T070C 000:899 JLINK_WriteReg(R8, 0x00000000)  returns 0x00 (0000ms, 0827ms total)
T070C 000:899 JLINK_WriteReg(R9, 0x20000230)  returns 0x00 (0000ms, 0827ms total)
T070C 000:899 JLINK_WriteReg(R10, 0x00000000)  returns 0x00 (0000ms, 0827ms total)
T070C 000:899 JLINK_WriteReg(R11, 0x00000000)  returns 0x00 (0000ms, 0827ms total)
T070C 000:899 JLINK_WriteReg(R12, 0x00000000)  returns 0x00 (0000ms, 0827ms total)
T070C 000:899 JLINK_WriteReg(R13 (SP), 0x20002000)  returns 0x00 (0000ms, 0827ms total)
T070C 000:899 JLINK_WriteReg(R14, 0x20000001)  returns 0x00 (0000ms, 0827ms total)
T070C 000:899 JLINK_WriteReg(R15 (PC), 0x2000008E)  returns 0x00 (0001ms, 0828ms total)
T070C 000:900 JLINK_WriteReg(XPSR, 0x01000000)  returns 0x00 (0000ms, 0828ms total)
T070C 000:900 JLINK_WriteReg(MSP, 0x20002000)  returns 0x00 (0000ms, 0828ms total)
T070C 000:900 JLINK_WriteReg(PSP, 0x20002000)  returns 0x00 (0000ms, 0828ms total)
T070C 000:900 JLINK_WriteReg(CFBP, 0x00000000)  returns 0x00 (0000ms, 0828ms total)
T070C 000:900 JLINK_SetBPEx(Addr = 0x20000000, Type = 0xFFFFFFF2)  returns 0x00000005 (0000ms, 0828ms total)
T070C 000:900 JLINK_Go() -- CPU_ReadMem(4 bytes @ 0xE0001000) (0055ms, 0883ms total)
T070C 000:955 JLINK_IsHalted() -- CPU_ReadMem(2 bytes @ 0x20000000)  returns TRUE (0009ms, 0892ms total)
T070C 000:964 JLINK_ReadReg(R15 (PC))  returns 0x20000000 (0000ms, 0883ms total)
T070C 000:964 JLINK_ClrBPEx(BPHandle = 0x00000005)  returns 0x00 (0001ms, 0884ms total)
T070C 000:965 JLINK_ReadReg(R0)  returns 0x00000000 (0000ms, 0884ms total)
T070C 001:081 JLINK_WriteMem(0x20000000, 0x0234 Bytes, ...) - Data: 00 BE 0A E0 0D 78 2D 06 68 40 08 24 40 00 00 D3 ... -- CPU_WriteMem(564 bytes @ 0x20000000)  returns 0x234 (0008ms, 0892ms total)
T070C 001:090 JLINK_WriteReg(R0, 0x00000000)  returns 0x00 (0000ms, 0892ms total)
T070C 001:090 JLINK_WriteReg(R1, 0x03D09000)  returns 0x00 (0000ms, 0892ms total)
T070C 001:090 JLINK_WriteReg(R2, 0x00000002)  returns 0x00 (0000ms, 0892ms total)
T070C 001:090 JLINK_WriteReg(R3, 0x00000000)  returns 0x00 (0000ms, 0892ms total)
T070C 001:090 JLINK_WriteReg(R4, 0x00000000)  returns 0x00 (0000ms, 0892ms total)
T070C 001:090 JLINK_WriteReg(R5, 0x00000000)  returns 0x00 (0000ms, 0892ms total)
T070C 001:090 JLINK_WriteReg(R6, 0x00000000)  returns 0x00 (0000ms, 0892ms total)
T070C 001:090 JLINK_WriteReg(R7, 0x00000000)  returns 0x00 (0000ms, 0892ms total)
T070C 001:090 JLINK_WriteReg(R8, 0x00000000)  returns 0x00 (0000ms, 0892ms total)
T070C 001:090 JLINK_WriteReg(R9, 0x20000230)  returns 0x00 (0000ms, 0892ms total)
T070C 001:090 JLINK_WriteReg(R10, 0x00000000)  returns 0x00 (0000ms, 0892ms total)
T070C 001:090 JLINK_WriteReg(R11, 0x00000000)  returns 0x00 (0000ms, 0892ms total)
T070C 001:090 JLINK_WriteReg(R12, 0x00000000)  returns 0x00 (0000ms, 0892ms total)
T070C 001:090 JLINK_WriteReg(R13 (SP), 0x20002000)  returns 0x00 (0000ms, 0892ms total)
T070C 001:090 JLINK_WriteReg(R14, 0x20000001)  returns 0x00 (0000ms, 0892ms total)
T070C 001:090 JLINK_WriteReg(R15 (PC), 0x2000003C)  returns 0x00 (0000ms, 0892ms total)
T070C 001:090 JLINK_WriteReg(XPSR, 0x01000000)  returns 0x00 (0000ms, 0892ms total)
T070C 001:090 JLINK_WriteReg(MSP, 0x20002000)  returns 0x00 (0000ms, 0892ms total)
T070C 001:090 JLINK_WriteReg(PSP, 0x20002000)  returns 0x00 (0000ms, 0892ms total)
T070C 001:090 JLINK_WriteReg(CFBP, 0x00000000)  returns 0x00 (0000ms, 0892ms total)
T070C 001:090 JLINK_SetBPEx(Addr = 0x20000000, Type = 0xFFFFFFF2) -- CPU_ReadMem(2 bytes @ 0x20000000)  returns 0x00000006 (0001ms, 0893ms total)
T070C 001:091 JLINK_Go() -- CPU_WriteMem(2 bytes @ 0x20000000) -- CPU_ReadMem(4 bytes @ 0xE0001000) (0003ms, 0896ms total)
T070C 001:094 JLINK_IsHalted() -- CPU_ReadMem(2 bytes @ 0x20000000)  returns TRUE (0007ms, 0903ms total)
T070C 001:101 JLINK_ReadReg(R15 (PC))  returns 0x20000000 (0000ms, 0896ms total)
T070C 001:101 JLINK_ClrBPEx(BPHandle = 0x00000006)  returns 0x00 (0000ms, 0896ms total)
T070C 001:101 JLINK_ReadReg(R0)  returns 0x00000000 (0001ms, 0897ms total)
T070C 001:102 JLINK_WriteMem(0x20000234, 0x01CC Bytes, ...) - Data: 80 28 00 20 4D 03 00 00 55 03 00 00 57 03 00 00 ... -- CPU_WriteMem(460 bytes @ 0x20000234)  returns 0x1CC (0059ms, 0956ms total)
T070C 001:161 JLINK_WriteMem(0x20000400, 0x0400 Bytes, ...) - Data: 00 00 00 00 00 00 00 00 00 00 00 00 00 00 00 00 ... -- CPU_WriteMem(1024 bytes @ 0x20000400)  returns 0x400 (0014ms, 0970ms total)
T070C 001:175 JLINK_WriteMem(0x20000800, 0x0400 Bytes, ...) - Data: 25 48 01 68 41 F4 70 01 01 60 BF F3 4F 8F BF F3 ... -- CPU_WriteMem(1024 bytes @ 0x20000800)  returns 0x400 (0015ms, 0985ms total)
T070C 001:190 JLINK_WriteMem(0x20000C00, 0x0400 Bytes, ...) - Data: 4F F4 92 77 04 46 39 46 00 F0 48 FF 4F F0 02 09 ... -- CPU_WriteMem(1024 bytes @ 0x20000C00)  returns 0x400 (0067ms, 1052ms total)
T070C 001:257 JLINK_WriteMem(0x20001000, 0x0234 Bytes, ...) - Data: 10 BD 00 00 00 28 3E D0 1F 49 20 4A 09 68 00 BF ... -- CPU_WriteMem(564 bytes @ 0x20001000)  returns 0x234 (0062ms, 1114ms total)
T070C 001:319 JLINK_WriteReg(R0, 0x00000000)  returns 0x00 (0000ms, 1114ms total)
T070C 001:319 JLINK_WriteReg(R1, 0x00001000)  returns 0x00 (0000ms, 1114ms total)
T070C 001:319 JLINK_WriteReg(R2, 0x20000234)  returns 0x00 (0000ms, 1114ms total)
T070C 001:319 JLINK_WriteReg(R3, 0x00000000)  returns 0x00 (0000ms, 1114ms total)
T070C 001:319 JLINK_WriteReg(R4, 0x00000000)  returns 0x00 (0000ms, 1114ms total)
T070C 001:319 JLINK_WriteReg(R5, 0x00000000)  returns 0x00 (0000ms, 1114ms total)
T070C 001:319 JLINK_WriteReg(R6, 0x00000000)  returns 0x00 (0000ms, 1114ms total)
T070C 001:319 JLINK_WriteReg(R7, 0x00000000)  returns 0x00 (0000ms, 1114ms total)
T070C 001:319 JLINK_WriteReg(R8, 0x00000000)  returns 0x00 (0000ms, 1114ms total)
T070C 001:319 JLINK_WriteReg(R9, 0x20000230)  returns 0x00 (0000ms, 1114ms total)
T070C 001:319 JLINK_WriteReg(R10, 0x00000000)  returns 0x00 (0000ms, 1114ms total)
T070C 001:319 JLINK_WriteReg(R11, 0x00000000)  returns 0x00 (0000ms, 1114ms total)
T070C 001:319 JLINK_WriteReg(R12, 0x00000000)  returns 0x00 (0000ms, 1114ms total)
T070C 001:319 JLINK_WriteReg(R13 (SP), 0x20002000)  returns 0x00 (0000ms, 1114ms total)
T070C 001:319 JLINK_WriteReg(R14, 0x20000001)  returns 0x00 (0000ms, 1114ms total)
T070C 001:319 JLINK_WriteReg(R15 (PC), 0x20000156)  returns 0x00 (0000ms, 1114ms total)
T070C 001:319 JLINK_WriteReg(XPSR, 0x01000000)  returns 0x00 (0000ms, 1114ms total)
T070C 001:319 JLINK_WriteReg(MSP, 0x20002000)  returns 0x00 (0000ms, 1114ms total)
T070C 001:319 JLINK_WriteReg(PSP, 0x20002000)  returns 0x00 (0000ms, 1114ms total)
T070C 001:319 JLINK_WriteReg(CFBP, 0x00000000)  returns 0x00 (0000ms, 1114ms total)
T070C 001:319 JLINK_SetBPEx(Addr = 0x20000000, Type = 0xFFFFFFF2)  returns 0x00000007 (0000ms, 1114ms total)
T070C 001:319 JLINK_Go() -- CPU_ReadMem(4 bytes @ 0xE0001000) (0005ms, 1119ms total)
T070C 001:324 JLINK_IsHalted()  returns FALSE (0001ms, 1120ms total)
T070C 001:358 JLINK_IsHalted() -- CPU_ReadMem(2 bytes @ 0x20000000)  returns TRUE (0027ms, 1146ms total)
T070C 001:385 JLINK_ReadReg(R15 (PC))  returns 0x20000000 (0000ms, 1119ms total)
T070C 001:385 JLINK_ClrBPEx(BPHandle = 0x00000007)  returns 0x00 (0000ms, 1119ms total)
T070C 001:385 JLINK_ReadReg(R0)  returns 0x00000000 (0000ms, 1119ms total)
T070C 001:385 JLINK_WriteMem(0x20000234, 0x01CC Bytes, ...) - Data: 01 22 21 78 2B 29 1B D0 2D 29 02 D0 30 29 08 D1 ... -- CPU_WriteMem(460 bytes @ 0x20000234)  returns 0x1CC (0006ms, 1125ms total)
T070C 001:391 JLINK_WriteMem(0x20000400, 0x0400 Bytes, ...) - Data: 70 47 00 00 00 03 00 50 01 B5 68 46 FF F7 EE FF ... -- CPU_WriteMem(1024 bytes @ 0x20000400)  returns 0x400 (0015ms, 1140ms total)
T070C 001:406 JLINK_WriteMem(0x20000800, 0x0400 Bytes, ...) - Data: 00 68 C0 5D 10 F0 3E 0F 01 D0 3A 46 00 E0 2E 22 ... -- CPU_WriteMem(1024 bytes @ 0x20000800)  returns 0x400 (0067ms, 1207ms total)
T070C 001:473 JLINK_WriteMem(0x20000C00, 0x0400 Bytes, ...) - Data: 05 46 91 46 1F 46 69 46 18 46 A6 68 FE F7 58 FF ... -- CPU_WriteMem(1024 bytes @ 0x20000C00)  returns 0x400 (0067ms, 1274ms total)
T070C 001:540 JLINK_WriteMem(0x20001000, 0x0234 Bytes, ...) - Data: A0 7E 00 B9 6F 60 02 20 8D F8 00 00 D5 F8 80 04 ... -- CPU_WriteMem(564 bytes @ 0x20001000)  returns 0x234 (0009ms, 1283ms total)
T070C 001:549 JLINK_WriteReg(R0, 0x00001000)  returns 0x00 (0000ms, 1283ms total)
T070C 001:549 JLINK_WriteReg(R1, 0x00001000)  returns 0x00 (0000ms, 1283ms total)
T070C 001:549 JLINK_WriteReg(R2, 0x20000234)  returns 0x00 (0000ms, 1283ms total)
T070C 001:549 JLINK_WriteReg(R3, 0x00000000)  returns 0x00 (0000ms, 1283ms total)
T070C 001:549 JLINK_WriteReg(R4, 0x00000000)  returns 0x00 (0000ms, 1283ms total)
T070C 001:549 JLINK_WriteReg(R5, 0x00000000)  returns 0x00 (0000ms, 1283ms total)
T070C 001:549 JLINK_WriteReg(R6, 0x00000000)  returns 0x00 (0000ms, 1283ms total)
T070C 001:549 JLINK_WriteReg(R7, 0x00000000)  returns 0x00 (0000ms, 1283ms total)
T070C 001:549 JLINK_WriteReg(R8, 0x00000000)  returns 0x00 (0000ms, 1283ms total)
T070C 001:549 JLINK_WriteReg(R9, 0x20000230)  returns 0x00 (0001ms, 1284ms total)
T070C 001:550 JLINK_WriteReg(R10, 0x00000000)  returns 0x00 (0000ms, 1284ms total)
T070C 001:550 JLINK_WriteReg(R11, 0x00000000)  returns 0x00 (0000ms, 1284ms total)
T070C 001:550 JLINK_WriteReg(R12, 0x00000000)  returns 0x00 (0000ms, 1284ms total)
T070C 001:550 JLINK_WriteReg(R13 (SP), 0x20002000)  returns 0x00 (0000ms, 1284ms total)
T070C 001:550 JLINK_WriteReg(R14, 0x20000001)  returns 0x00 (0000ms, 1284ms total)
T070C 001:550 JLINK_WriteReg(R15 (PC), 0x20000156)  returns 0x00 (0000ms, 1284ms total)
T070C 001:550 JLINK_WriteReg(XPSR, 0x01000000)  returns 0x00 (0000ms, 1284ms total)
T070C 001:550 JLINK_WriteReg(MSP, 0x20002000)  returns 0x00 (0000ms, 1284ms total)
T070C 001:550 JLINK_WriteReg(PSP, 0x20002000)  returns 0x00 (0000ms, 1284ms total)
T070C 001:550 JLINK_WriteReg(CFBP, 0x00000000)  returns 0x00 (0000ms, 1284ms total)
T070C 001:550 JLINK_SetBPEx(Addr = 0x20000000, Type = 0xFFFFFFF2)  returns 0x00000008 (0000ms, 1284ms total)
T070C 001:550 JLINK_Go() -- CPU_ReadMem(4 bytes @ 0xE0001000) (0056ms, 1340ms total)
T070C 001:606 JLINK_IsHalted()  returns FALSE (0001ms, 1341ms total)
T070C 001:620 JLINK_IsHalted() -- CPU_ReadMem(2 bytes @ 0x20000000)  returns TRUE (0054ms, 1394ms total)
T070C 001:674 JLINK_ReadReg(R15 (PC))  returns 0x20000000 (0000ms, 1340ms total)
T070C 001:674 JLINK_ClrBPEx(BPHandle = 0x00000008)  returns 0x00 (0000ms, 1340ms total)
T070C 001:674 JLINK_ReadReg(R0)  returns 0x00000000 (0000ms, 1340ms total)
T070C 001:676 JLINK_WriteMem(0x20000234, 0x01CC Bytes, ...) - Data: B9 F1 01 0F 02 D9 A9 F1 01 09 03 E0 B5 FB F6 F0 ... -- CPU_WriteMem(460 bytes @ 0x20000234)  returns 0x1CC (0006ms, 1346ms total)
T070C 001:682 JLINK_WriteMem(0x20000400, 0x0400 Bytes, ...) - Data: 8C 00 00 20 F4 27 00 00 C2 07 00 00 A0 21 00 00 ... -- CPU_WriteMem(1024 bytes @ 0x20000400)  returns 0x400 (0068ms, 1414ms total)
T070C 001:750 JLINK_WriteMem(0x20000800, 0x0400 Bytes, ...) - Data: FF FF FF FF FF FF FF FF FF FF FF FF FF FF FF FF ... -- CPU_WriteMem(1024 bytes @ 0x20000800)  returns 0x400 (0066ms, 1480ms total)
T070C 001:817 JLINK_WriteMem(0x20000C00, 0x0400 Bytes, ...) - Data: FF FF FF FF FF FF FF FF FF FF FF FF FF FF FF FF ... -- CPU_WriteMem(1024 bytes @ 0x20000C00)  returns 0x400 (0068ms, 1548ms total)
T070C 001:885 JLINK_WriteMem(0x20001000, 0x0234 Bytes, ...) - Data: FF FF FF FF FF FF FF FF FF FF FF FF FF FF FF FF ... -- CPU_WriteMem(564 bytes @ 0x20001000)  returns 0x234 (0008ms, 1556ms total)
T070C 001:893 JLINK_WriteReg(R0, 0x00002000)  returns 0x00 (0000ms, 1556ms total)
T070C 001:893 JLINK_WriteReg(R1, 0x00000284)  returns 0x00 (0000ms, 1556ms total)
T070C 001:893 JLINK_WriteReg(R2, 0x20000234)  returns 0x00 (0000ms, 1556ms total)
T070C 001:893 JLINK_WriteReg(R3, 0x00000000)  returns 0x00 (0000ms, 1556ms total)
T070C 001:893 JLINK_WriteReg(R4, 0x00000000)  returns 0x00 (0000ms, 1556ms total)
T070C 001:893 JLINK_WriteReg(R5, 0x00000000)  returns 0x00 (0000ms, 1556ms total)
T070C 001:893 JLINK_WriteReg(R6, 0x00000000)  returns 0x00 (0000ms, 1556ms total)
T070C 001:893 JLINK_WriteReg(R7, 0x00000000)  returns 0x00 (0000ms, 1556ms total)
T070C 001:893 JLINK_WriteReg(R8, 0x00000000)  returns 0x00 (0000ms, 1556ms total)
T070C 001:893 JLINK_WriteReg(R9, 0x20000230)  returns 0x00 (0000ms, 1556ms total)
T070C 001:893 JLINK_WriteReg(R10, 0x00000000)  returns 0x00 (0000ms, 1556ms total)
T070C 001:893 JLINK_WriteReg(R11, 0x00000000)  returns 0x00 (0000ms, 1556ms total)
T070C 001:893 JLINK_WriteReg(R12, 0x00000000)  returns 0x00 (0000ms, 1556ms total)
T070C 001:893 JLINK_WriteReg(R13 (SP), 0x20002000)  returns 0x00 (0000ms, 1556ms total)
T070C 001:893 JLINK_WriteReg(R14, 0x20000001)  returns 0x00 (0000ms, 1556ms total)
T070C 001:893 JLINK_WriteReg(R15 (PC), 0x20000156)  returns 0x00 (0000ms, 1556ms total)
T070C 001:893 JLINK_WriteReg(XPSR, 0x01000000)  returns 0x00 (0000ms, 1556ms total)
T070C 001:893 JLINK_WriteReg(MSP, 0x20002000)  returns 0x00 (0001ms, 1557ms total)
T070C 001:894 JLINK_WriteReg(PSP, 0x20002000)  returns 0x00 (0000ms, 1557ms total)
T070C 001:894 JLINK_WriteReg(CFBP, 0x00000000)  returns 0x00 (0000ms, 1557ms total)
T070C 001:894 JLINK_SetBPEx(Addr = 0x20000000, Type = 0xFFFFFFF2)  returns 0x00000009 (0000ms, 1557ms total)
T070C 001:894 JLINK_Go() -- CPU_ReadMem(4 bytes @ 0xE0001000) (0003ms, 1560ms total)
T070C 001:898 JLINK_IsHalted()  returns FALSE (0000ms, 1560ms total)
T070C 001:908 JLINK_IsHalted() -- CPU_ReadMem(2 bytes @ 0x20000000)  returns TRUE (0050ms, 1610ms total)
T070C 001:958 JLINK_ReadReg(R15 (PC))  returns 0x20000000 (0000ms, 1560ms total)
T070C 001:958 JLINK_ClrBPEx(BPHandle = 0x00000009)  returns 0x00 (0000ms, 1560ms total)
T070C 001:958 JLINK_ReadReg(R0)  returns 0x00000000 (0000ms, 1560ms total)
T070C 001:958 JLINK_WriteReg(R0, 0x00000002)  returns 0x00 (0000ms, 1560ms total)
T070C 001:958 JLINK_WriteReg(R1, 0x00000284)  returns 0x00 (0000ms, 1560ms total)
T070C 001:958 JLINK_WriteReg(R2, 0x20000234)  returns 0x00 (0000ms, 1560ms total)
T070C 001:958 JLINK_WriteReg(R3, 0x00000000)  returns 0x00 (0000ms, 1560ms total)
T070C 001:958 JLINK_WriteReg(R4, 0x00000000)  returns 0x00 (0000ms, 1560ms total)
T070C 001:958 JLINK_WriteReg(R5, 0x00000000)  returns 0x00 (0000ms, 1560ms total)
T070C 001:958 JLINK_WriteReg(R6, 0x00000000)  returns 0x00 (0000ms, 1560ms total)
T070C 001:958 JLINK_WriteReg(R7, 0x00000000)  returns 0x00 (0000ms, 1560ms total)
T070C 001:958 JLINK_WriteReg(R8, 0x00000000)  returns 0x00 (0000ms, 1560ms total)
T070C 001:958 JLINK_WriteReg(R9, 0x20000230)  returns 0x00 (0000ms, 1560ms total)
T070C 001:958 JLINK_WriteReg(R10, 0x00000000)  returns 0x00 (0000ms, 1560ms total)
T070C 001:958 JLINK_WriteReg(R11, 0x00000000)  returns 0x00 (0000ms, 1560ms total)
T070C 001:958 JLINK_WriteReg(R12, 0x00000000)  returns 0x00 (0000ms, 1560ms total)
T070C 001:958 JLINK_WriteReg(R13 (SP), 0x20002000)  returns 0x00 (0000ms, 1560ms total)
T070C 001:959 JLINK_WriteReg(R14, 0x20000001)  returns 0x00 (0000ms, 1560ms total)
T070C 001:959 JLINK_WriteReg(R15 (PC), 0x2000008E)  returns 0x00 (0000ms, 1560ms total)
T070C 001:959 JLINK_WriteReg(XPSR, 0x01000000)  returns 0x00 (0000ms, 1560ms total)
T070C 001:959 JLINK_WriteReg(MSP, 0x20002000)  returns 0x00 (0000ms, 1560ms total)
T070C 001:959 JLINK_WriteReg(PSP, 0x20002000)  returns 0x00 (0000ms, 1560ms total)
T070C 001:959 JLINK_WriteReg(CFBP, 0x00000000)  returns 0x00 (0000ms, 1560ms total)
T070C 001:959 JLINK_SetBPEx(Addr = 0x20000000, Type = 0xFFFFFFF2)  returns 0x0000000A (0000ms, 1560ms total)
T070C 001:959 JLINK_Go() -- CPU_ReadMem(4 bytes @ 0xE0001000) (0003ms, 1563ms total)
T070C 001:962 JLINK_IsHalted() -- CPU_ReadMem(2 bytes @ 0x20000000)  returns TRUE (0009ms, 1572ms total)
T070C 001:971 JLINK_ReadReg(R15 (PC))  returns 0x20000000 (0000ms, 1563ms total)
T070C 001:971 JLINK_ClrBPEx(BPHandle = 0x0000000A)  returns 0x00 (0000ms, 1563ms total)
T070C 001:971 JLINK_ReadReg(R0)  returns 0x00000000 (0000ms, 1563ms total)
T070C 002:032 JLINK_WriteMem(0x20000000, 0x0234 Bytes, ...) - Data: 00 BE 0A E0 0D 78 2D 06 68 40 08 24 40 00 00 D3 ... -- CPU_WriteMem(564 bytes @ 0x20000000)  returns 0x234 (0008ms, 1571ms total)
T070C 002:041 JLINK_WriteReg(R0, 0x00000000)  returns 0x00 (0000ms, 1571ms total)
T070C 002:041 JLINK_WriteReg(R1, 0x03D09000)  returns 0x00 (0000ms, 1571ms total)
T070C 002:041 JLINK_WriteReg(R2, 0x00000003)  returns 0x00 (0000ms, 1571ms total)
T070C 002:041 JLINK_WriteReg(R3, 0x00000000)  returns 0x00 (0000ms, 1571ms total)
T070C 002:041 JLINK_WriteReg(R4, 0x00000000)  returns 0x00 (0000ms, 1571ms total)
T070C 002:041 JLINK_WriteReg(R5, 0x00000000)  returns 0x00 (0000ms, 1571ms total)
T070C 002:041 JLINK_WriteReg(R6, 0x00000000)  returns 0x00 (0000ms, 1571ms total)
T070C 002:041 JLINK_WriteReg(R7, 0x00000000)  returns 0x00 (0000ms, 1571ms total)
T070C 002:041 JLINK_WriteReg(R8, 0x00000000)  returns 0x00 (0000ms, 1571ms total)
T070C 002:041 JLINK_WriteReg(R9, 0x20000230)  returns 0x00 (0000ms, 1571ms total)
T070C 002:041 JLINK_WriteReg(R10, 0x00000000)  returns 0x00 (0000ms, 1571ms total)
T070C 002:041 JLINK_WriteReg(R11, 0x00000000)  returns 0x00 (0000ms, 1571ms total)
T070C 002:041 JLINK_WriteReg(R12, 0x00000000)  returns 0x00 (0000ms, 1571ms total)
T070C 002:041 JLINK_WriteReg(R13 (SP), 0x20002000)  returns 0x00 (0000ms, 1571ms total)
T070C 002:041 JLINK_WriteReg(R14, 0x20000001)  returns 0x00 (0000ms, 1571ms total)
T070C 002:041 JLINK_WriteReg(R15 (PC), 0x2000003C)  returns 0x00 (0000ms, 1571ms total)
T070C 002:041 JLINK_WriteReg(XPSR, 0x01000000)  returns 0x00 (0000ms, 1571ms total)
T070C 002:041 JLINK_WriteReg(MSP, 0x20002000)  returns 0x00 (0000ms, 1571ms total)
T070C 002:041 JLINK_WriteReg(PSP, 0x20002000)  returns 0x00 (0000ms, 1571ms total)
T070C 002:041 JLINK_WriteReg(CFBP, 0x00000000)  returns 0x00 (0000ms, 1571ms total)
T070C 002:041 JLINK_SetBPEx(Addr = 0x20000000, Type = 0xFFFFFFF2) -- CPU_ReadMem(2 bytes @ 0x20000000)  returns 0x0000000B (0053ms, 1624ms total)
T070C 002:094 JLINK_Go() -- CPU_WriteMem(2 bytes @ 0x20000000) -- CPU_ReadMem(4 bytes @ 0xE0001000) (0005ms, 1629ms total)
T070C 002:099 JLINK_IsHalted() -- CPU_ReadMem(2 bytes @ 0x20000000)  returns TRUE (0008ms, 1637ms total)
T070C 002:107 JLINK_ReadReg(R15 (PC))  returns 0x20000000 (0000ms, 1629ms total)
T070C 002:107 JLINK_ClrBPEx(BPHandle = 0x0000000B)  returns 0x00 (0000ms, 1629ms total)
T070C 002:107 JLINK_ReadReg(R0)  returns 0x00000000 (0000ms, 1629ms total)
T070C 002:107 JLINK_WriteMem(0x20000234, 0x01CC Bytes, ...) - Data: 80 28 00 20 4D 03 00 00 55 03 00 00 57 03 00 00 ... -- CPU_WriteMem(460 bytes @ 0x20000234)  returns 0x1CC (0060ms, 1689ms total)
T070C 002:167 JLINK_WriteMem(0x20000400, 0x0400 Bytes, ...) - Data: 00 00 00 00 00 00 00 00 00 00 00 00 00 00 00 00 ... -- CPU_WriteMem(1024 bytes @ 0x20000400)  returns 0x400 (0014ms, 1703ms total)
T070C 002:181 JLINK_WriteMem(0x20000800, 0x0400 Bytes, ...) - Data: 25 48 01 68 41 F4 70 01 01 60 BF F3 4F 8F BF F3 ... -- CPU_WriteMem(1024 bytes @ 0x20000800)  returns 0x400 (0068ms, 1771ms total)
T070C 002:249 JLINK_WriteMem(0x20000C00, 0x0400 Bytes, ...) - Data: 4F F4 92 77 04 46 39 46 00 F0 48 FF 4F F0 02 09 ... -- CPU_WriteMem(1024 bytes @ 0x20000C00)  returns 0x400 (0067ms, 1838ms total)
T070C 002:316 JLINK_WriteMem(0x20001000, 0x0234 Bytes, ...) - Data: 10 BD 00 00 00 28 3E D0 1F 49 20 4A 09 68 00 BF ... -- CPU_WriteMem(564 bytes @ 0x20001000)  returns 0x234 (0008ms, 1846ms total)
T070C 002:324 JLINK_WriteReg(R0, 0x00000000)  returns 0x00 (0000ms, 1846ms total)
T070C 002:324 JLINK_WriteReg(R1, 0x00001000)  returns 0x00 (0000ms, 1846ms total)
T070C 002:324 JLINK_WriteReg(R2, 0x20000234)  returns 0x00 (0000ms, 1846ms total)
T070C 002:324 JLINK_WriteReg(R3, 0x00000000)  returns 0x00 (0000ms, 1846ms total)
T070C 002:324 JLINK_WriteReg(R4, 0x00000000)  returns 0x00 (0000ms, 1846ms total)
T070C 002:324 JLINK_WriteReg(R5, 0x00000000)  returns 0x00 (0000ms, 1846ms total)
T070C 002:324 JLINK_WriteReg(R6, 0x00000000)  returns 0x00 (0000ms, 1846ms total)
T070C 002:324 JLINK_WriteReg(R7, 0x00000000)  returns 0x00 (0000ms, 1846ms total)
T070C 002:324 JLINK_WriteReg(R8, 0x00000000)  returns 0x00 (0000ms, 1846ms total)
T070C 002:324 JLINK_WriteReg(R9, 0x20000230)  returns 0x00 (0000ms, 1846ms total)
T070C 002:324 JLINK_WriteReg(R10, 0x00000000)  returns 0x00 (0000ms, 1846ms total)
T070C 002:324 JLINK_WriteReg(R11, 0x00000000)  returns 0x00 (0000ms, 1846ms total)
T070C 002:324 JLINK_WriteReg(R12, 0x00000000)  returns 0x00 (0000ms, 1846ms total)
T070C 002:324 JLINK_WriteReg(R13 (SP), 0x20002000)  returns 0x00 (0000ms, 1846ms total)
T070C 002:324 JLINK_WriteReg(R14, 0x20000001)  returns 0x00 (0000ms, 1846ms total)
T070C 002:324 JLINK_WriteReg(R15 (PC), 0x200001C8)  returns 0x00 (0000ms, 1846ms total)
T070C 002:325 JLINK_WriteReg(XPSR, 0x01000000)  returns 0x00 (0000ms, 1846ms total)
T070C 002:325 JLINK_WriteReg(MSP, 0x20002000)  returns 0x00 (0000ms, 1846ms total)
T070C 002:325 JLINK_WriteReg(PSP, 0x20002000)  returns 0x00 (0000ms, 1846ms total)
T070C 002:325 JLINK_WriteReg(CFBP, 0x00000000)  returns 0x00 (0000ms, 1846ms total)
T070C 002:325 JLINK_SetBPEx(Addr = 0x20000000, Type = 0xFFFFFFF2)  returns 0x0000000C (0000ms, 1846ms total)
T070C 002:325 JLINK_Go() -- CPU_ReadMem(4 bytes @ 0xE0001000) (0056ms, 1902ms total)
T070C 002:381 JLINK_IsHalted() -- CPU_ReadMem(2 bytes @ 0x20000000)  returns TRUE (0007ms, 1909ms total)
T070C 002:388 JLINK_ReadReg(R15 (PC))  returns 0x20000000 (0000ms, 1902ms total)
T070C 002:388 JLINK_ClrBPEx(BPHandle = 0x0000000C)  returns 0x00 (0000ms, 1902ms total)
T070C 002:388 JLINK_ReadReg(R0)  returns 0x00001000 (0000ms, 1902ms total)
T070C 002:389 JLINK_WriteMem(0x20000234, 0x01CC Bytes, ...) - Data: 01 22 21 78 2B 29 1B D0 2D 29 02 D0 30 29 08 D1 ... -- CPU_WriteMem(460 bytes @ 0x20000234)  returns 0x1CC (0059ms, 1961ms total)
T070C 002:448 JLINK_WriteMem(0x20000400, 0x0400 Bytes, ...) - Data: 70 47 00 00 00 03 00 50 01 B5 68 46 FF F7 EE FF ... -- CPU_WriteMem(1024 bytes @ 0x20000400)  returns 0x400 (0014ms, 1975ms total)
T070C 002:462 JLINK_WriteMem(0x20000800, 0x0400 Bytes, ...) - Data: 00 68 C0 5D 10 F0 3E 0F 01 D0 3A 46 00 E0 2E 22 ... -- CPU_WriteMem(1024 bytes @ 0x20000800)  returns 0x400 (0014ms, 1989ms total)
T070C 002:476 JLINK_WriteMem(0x20000C00, 0x0400 Bytes, ...) - Data: 05 46 91 46 1F 46 69 46 18 46 A6 68 FE F7 58 FF ... -- CPU_WriteMem(1024 bytes @ 0x20000C00)  returns 0x400 (0067ms, 2056ms total)
T070C 002:543 JLINK_WriteMem(0x20001000, 0x0234 Bytes, ...) - Data: A0 7E 00 B9 6F 60 02 20 8D F8 00 00 D5 F8 80 04 ... -- CPU_WriteMem(564 bytes @ 0x20001000)  returns 0x234 (0008ms, 2064ms total)
T070C 002:551 JLINK_WriteReg(R0, 0x00001000)  returns 0x00 (0000ms, 2064ms total)
T070C 002:551 JLINK_WriteReg(R1, 0x00001000)  returns 0x00 (0000ms, 2064ms total)
T070C 002:551 JLINK_WriteReg(R2, 0x20000234)  returns 0x00 (0000ms, 2064ms total)
T070C 002:551 JLINK_WriteReg(R3, 0x00000000)  returns 0x00 (0000ms, 2064ms total)
T070C 002:551 JLINK_WriteReg(R4, 0x00000000)  returns 0x00 (0000ms, 2064ms total)
T070C 002:551 JLINK_WriteReg(R5, 0x00000000)  returns 0x00 (0000ms, 2064ms total)
T070C 002:551 JLINK_WriteReg(R6, 0x00000000)  returns 0x00 (0000ms, 2064ms total)
T070C 002:551 JLINK_WriteReg(R7, 0x00000000)  returns 0x00 (0000ms, 2064ms total)
T070C 002:551 JLINK_WriteReg(R8, 0x00000000)  returns 0x00 (0000ms, 2064ms total)
T070C 002:551 JLINK_WriteReg(R9, 0x20000230)  returns 0x00 (0000ms, 2064ms total)
T070C 002:551 JLINK_WriteReg(R10, 0x00000000)  returns 0x00 (0000ms, 2064ms total)
T070C 002:551 JLINK_WriteReg(R11, 0x00000000)  returns 0x00 (0000ms, 2064ms total)
T070C 002:551 JLINK_WriteReg(R12, 0x00000000)  returns 0x00 (0000ms, 2064ms total)
T070C 002:551 JLINK_WriteReg(R13 (SP), 0x20002000)  returns 0x00 (0000ms, 2064ms total)
T070C 002:551 JLINK_WriteReg(R14, 0x20000001)  returns 0x00 (0000ms, 2064ms total)
T070C 002:551 JLINK_WriteReg(R15 (PC), 0x200001C8)  returns 0x00 (0000ms, 2064ms total)
T070C 002:551 JLINK_WriteReg(XPSR, 0x01000000)  returns 0x00 (0000ms, 2064ms total)
T070C 002:551 JLINK_WriteReg(MSP, 0x20002000)  returns 0x00 (0000ms, 2064ms total)
T070C 002:551 JLINK_WriteReg(PSP, 0x20002000)  returns 0x00 (0000ms, 2064ms total)
T070C 002:551 JLINK_WriteReg(CFBP, 0x00000000)  returns 0x00 (0000ms, 2064ms total)
T070C 002:551 JLINK_SetBPEx(Addr = 0x20000000, Type = 0xFFFFFFF2)  returns 0x0000000D (0000ms, 2064ms total)
T070C 002:551 JLINK_Go() -- CPU_ReadMem(4 bytes @ 0xE0001000) (0056ms, 2120ms total)
T070C 002:607 JLINK_IsHalted() -- CPU_ReadMem(2 bytes @ 0x20000000)  returns TRUE (0007ms, 2127ms total)
T070C 002:614 JLINK_ReadReg(R15 (PC))  returns 0x20000000 (0000ms, 2120ms total)
T070C 002:614 JLINK_ClrBPEx(BPHandle = 0x0000000D)  returns 0x00 (0000ms, 2120ms total)
T070C 002:614 JLINK_ReadReg(R0)  returns 0x00002000 (0000ms, 2120ms total)
T070C 002:614 JLINK_WriteMem(0x20000234, 0x01CC Bytes, ...) - Data: B9 F1 01 0F 02 D9 A9 F1 01 09 03 E0 B5 FB F6 F0 ... -- CPU_WriteMem(460 bytes @ 0x20000234)  returns 0x1CC (0007ms, 2127ms total)
T070C 002:621 JLINK_WriteMem(0x20000400, 0x0400 Bytes, ...) - Data: 8C 00 00 20 F4 27 00 00 C2 07 00 00 A0 21 00 00 ... -- CPU_WriteMem(1024 bytes @ 0x20000400)  returns 0x400 (0014ms, 2141ms total)
T070C 002:635 JLINK_WriteMem(0x20000800, 0x0400 Bytes, ...) - Data: 00 00 00 00 00 00 00 00 00 00 00 00 00 00 00 00 ... -- CPU_WriteMem(1024 bytes @ 0x20000800)  returns 0x400 (0067ms, 2208ms total)
T070C 002:702 JLINK_WriteMem(0x20000C00, 0x0400 Bytes, ...) - Data: 00 00 00 00 00 00 00 00 00 00 00 00 00 00 00 00 ... -- CPU_WriteMem(1024 bytes @ 0x20000C00)  returns 0x400 (0065ms, 2273ms total)
T070C 002:767 JLINK_WriteMem(0x20001000, 0x0234 Bytes, ...) - Data: 00 00 00 00 00 00 00 00 00 00 00 00 00 00 00 00 ... -- CPU_WriteMem(564 bytes @ 0x20001000)  returns 0x234 (0061ms, 2334ms total)
T070C 002:828 JLINK_WriteReg(R0, 0x00002000)  returns 0x00 (0000ms, 2334ms total)
T070C 002:828 JLINK_WriteReg(R1, 0x00000284)  returns 0x00 (0000ms, 2334ms total)
T070C 002:828 JLINK_WriteReg(R2, 0x20000234)  returns 0x00 (0000ms, 2334ms total)
T070C 002:828 JLINK_WriteReg(R3, 0x00000000)  returns 0x00 (0000ms, 2334ms total)
T070C 002:828 JLINK_WriteReg(R4, 0x00000000)  returns 0x00 (0000ms, 2334ms total)
T070C 002:828 JLINK_WriteReg(R5, 0x00000000)  returns 0x00 (0000ms, 2334ms total)
T070C 002:828 JLINK_WriteReg(R6, 0x00000000)  returns 0x00 (0000ms, 2334ms total)
T070C 002:828 JLINK_WriteReg(R7, 0x00000000)  returns 0x00 (0000ms, 2334ms total)
T070C 002:828 JLINK_WriteReg(R8, 0x00000000)  returns 0x00 (0000ms, 2334ms total)
T070C 002:828 JLINK_WriteReg(R9, 0x20000230)  returns 0x00 (0000ms, 2334ms total)
T070C 002:828 JLINK_WriteReg(R10, 0x00000000)  returns 0x00 (0000ms, 2334ms total)
T070C 002:828 JLINK_WriteReg(R11, 0x00000000)  returns 0x00 (0000ms, 2334ms total)
T070C 002:828 JLINK_WriteReg(R12, 0x00000000)  returns 0x00 (0000ms, 2334ms total)
T070C 002:828 JLINK_WriteReg(R13 (SP), 0x20002000)  returns 0x00 (0000ms, 2334ms total)
T070C 002:828 JLINK_WriteReg(R14, 0x20000001)  returns 0x00 (0000ms, 2334ms total)
T070C 002:828 JLINK_WriteReg(R15 (PC), 0x200001C8)  returns 0x00 (0000ms, 2334ms total)
T070C 002:828 JLINK_WriteReg(XPSR, 0x01000000)  returns 0x00 (0000ms, 2334ms total)
T070C 002:828 JLINK_WriteReg(MSP, 0x20002000)  returns 0x00 (0000ms, 2334ms total)
T070C 002:828 JLINK_WriteReg(PSP, 0x20002000)  returns 0x00 (0000ms, 2334ms total)
T070C 002:828 JLINK_WriteReg(CFBP, 0x00000000)  returns 0x00 (0000ms, 2334ms total)
T070C 002:828 JLINK_SetBPEx(Addr = 0x20000000, Type = 0xFFFFFFF2)  returns 0x0000000E (0000ms, 2334ms total)
T070C 002:828 JLINK_Go() -- CPU_ReadMem(4 bytes @ 0xE0001000) (0003ms, 2337ms total)
T070C 002:831 JLINK_IsHalted() -- CPU_ReadMem(2 bytes @ 0x20000000)  returns TRUE (0007ms, 2344ms total)
T070C 002:838 JLINK_ReadReg(R15 (PC))  returns 0x20000000 (0000ms, 2337ms total)
T070C 002:838 JLINK_ClrBPEx(BPHandle = 0x0000000E)  returns 0x00 (0000ms, 2337ms total)
T070C 002:838 JLINK_ReadReg(R0)  returns 0x00002284 (0000ms, 2337ms total)
T070C 002:839 JLINK_WriteReg(R0, 0x00000003)  returns 0x00 (0000ms, 2337ms total)
T070C 002:839 JLINK_WriteReg(R1, 0x00000284)  returns 0x00 (0000ms, 2337ms total)
T070C 002:839 JLINK_WriteReg(R2, 0x20000234)  returns 0x00 (0000ms, 2337ms total)
T070C 002:839 JLINK_WriteReg(R3, 0x00000000)  returns 0x00 (0000ms, 2337ms total)
T070C 002:839 JLINK_WriteReg(R4, 0x00000000)  returns 0x00 (0000ms, 2337ms total)
T070C 002:839 JLINK_WriteReg(R5, 0x00000000)  returns 0x00 (0000ms, 2337ms total)
T070C 002:839 JLINK_WriteReg(R6, 0x00000000)  returns 0x00 (0000ms, 2337ms total)
T070C 002:839 JLINK_WriteReg(R7, 0x00000000)  returns 0x00 (0000ms, 2337ms total)
T070C 002:839 JLINK_WriteReg(R8, 0x00000000)  returns 0x00 (0000ms, 2337ms total)
T070C 002:839 JLINK_WriteReg(R9, 0x20000230)  returns 0x00 (0000ms, 2337ms total)
T070C 002:839 JLINK_WriteReg(R10, 0x00000000)  returns 0x00 (0000ms, 2337ms total)
T070C 002:839 JLINK_WriteReg(R11, 0x00000000)  returns 0x00 (0000ms, 2337ms total)
T070C 002:839 JLINK_WriteReg(R12, 0x00000000)  returns 0x00 (0000ms, 2337ms total)
T070C 002:839 JLINK_WriteReg(R13 (SP), 0x20002000)  returns 0x00 (0000ms, 2337ms total)
T070C 002:839 JLINK_WriteReg(R14, 0x20000001)  returns 0x00 (0000ms, 2337ms total)
T070C 002:839 JLINK_WriteReg(R15 (PC), 0x2000008E)  returns 0x00 (0000ms, 2337ms total)
T070C 002:839 JLINK_WriteReg(XPSR, 0x01000000)  returns 0x00 (0000ms, 2337ms total)
T070C 002:839 JLINK_WriteReg(MSP, 0x20002000)  returns 0x00 (0000ms, 2337ms total)
T070C 002:839 JLINK_WriteReg(PSP, 0x20002000)  returns 0x00 (0000ms, 2337ms total)
T070C 002:839 JLINK_WriteReg(CFBP, 0x00000000)  returns 0x00 (0000ms, 2337ms total)
T070C 002:839 JLINK_SetBPEx(Addr = 0x20000000, Type = 0xFFFFFFF2)  returns 0x0000000F (0000ms, 2337ms total)
T070C 002:839 JLINK_Go() -- CPU_ReadMem(4 bytes @ 0xE0001000) (0055ms, 2392ms total)
T070C 002:894 JLINK_IsHalted() -- CPU_ReadMem(2 bytes @ 0x20000000)  returns TRUE (0007ms, 2399ms total)
T070C 002:901 JLINK_ReadReg(R15 (PC))  returns 0x20000000 (0000ms, 2392ms total)
T070C 002:901 JLINK_ClrBPEx(BPHandle = 0x0000000F)  returns 0x00 (0000ms, 2392ms total)
T070C 002:901 JLINK_ReadReg(R0)  returns 0x00000000 (0000ms, 2392ms total)
T070C 002:955 JLINK_WriteMemEx(0x20000000, 0x0002 Bytes, ..., Flags = 0x02000000) - Data: FE E7 -- CPU_WriteMem(2 bytes @ 0x20000000)  returns 0x02 (0001ms, 2393ms total)
T070C 002:956 JLINK_SetResetType(JLINKARM_CM3_RESET_TYPE_NORMAL)  returns JLINKARM_CM3_RESET_TYPE_NORMAL (0000ms, 2393ms total)
T070C 002:956 JLINK_Reset() -- CPU_WriteMem(4 bytes @ 0xE000EDF0) -- CPU_WriteMem(4 bytes @ 0xE000EDFC)Reset: Halt core after reset via DEMCR.VC_CORERESET. >0x35 TIF>Reset: Reset device via AIRCR.SYSRESETREQ. -- CPU_WriteMem(4 bytes @ 0xE000ED0C) >0x0D TIF> >0x28 TIF> -- CPU_ReadMem(4 bytes @ 0xE000EDF0) -- CPU_ReadMem(4 bytes @ 0xE000EDF0) -- CPU_WriteMem(4 bytes @ 0xE000EDF0) -- CPU_WriteMem(4 bytes @ 0xE000EDFC) -- CPU_ReadMem(4 bytes @ 0xE000EDF0) -- CPU_WriteMem(4 bytes @ 0xE0002000)
 -- CPU_ReadMem(4 bytes @ 0xE000EDFC) -- CPU_ReadMem(4 bytes @ 0xE0001000) (0075ms, 2468ms total)
T070C 003:031 JLINK_Go() -- CPU_ReadMem(4 bytes @ 0xE0001000) -- CPU_WriteMem(4 bytes @ 0xE0002008) -- CPU_WriteMem(4 bytes @ 0xE000200C) -- CPU_WriteMem(4 bytes @ 0xE0002010) -- CPU_WriteMem(4 bytes @ 0xE0002014) -- CPU_WriteMem(4 bytes @ 0xE0002018) -- CPU_WriteMem(4 bytes @ 0xE000201C) -- CPU_WriteMem(4 bytes @ 0xE0001004) (0057ms, 2525ms total)
T070C 003:095 JLINK_Close() -- CPU is running -- CPU_WriteMem(4 bytes @ 0xE0002008) -- CPU is running -- CPU_WriteMem(4 bytes @ 0xE000200C) -- CPU is running -- CPU_WriteMem(4 bytes @ 0xE0002010) -- CPU is running -- CPU_WriteMem(4 bytes @ 0xE0002014) -- CPU is running -- CPU_WriteMem(4 bytes @ 0xE0002018) -- CPU is running -- CPU_WriteMem(4 bytes @ 0xE000201C) (0057ms, 2582ms total)
T070C 003:095  (0057ms, 2582ms total)
T070C 003:095 Closed (0057ms, 2582ms total)
