
T4BE0 000:198 SEGGER J-Link V6.20b Log File (0001ms, 0006ms total)
T4BE0 000:198 DLL Compiled: Sep 22 2017 17:57:26 (0001ms, 0006ms total)
T4BE0 000:198 Logging started @ 2018-04-24 10:09 (0001ms, 0006ms total)
T4BE0 000:199 JLINK_SetWarnOutHandler(...) (0000ms, 0006ms total)
T4BE0 000:199 JLINK_OpenEx(...)
Firmware: J-Link OB-SAM3U128-V2-NordicSemi compiled Jul 24 2017 17:30:12
Hardware: V1.00
S/N: 683796563
TELNET listener socket opened on port 19021WEBSRV 
Webserver running on local port 19080  returns O.K. (0022ms, 0028ms total)
T4BE0 000:221 JLINK_GetEmuCaps()  returns 0xB8EA5A33 (0000ms, 0028ms total)
T4BE0 000:221 JLINK_TIF_GetAvailable(...) (0000ms, 0028ms total)
T4BE0 000:221 JLINK_SetErrorOutHandler(...) (0000ms, 0028ms total)
T4BE0 000:221 JLINK_ExecCommand("ProjectFile = "C:\Users\marcus\Documents\coded-production\nRF5_SDK_14.2.0_17b948a\nRF5_SDK_14.2.0_17b948a-MOD1\examples\peripheral\saadc\pca10056\blank\arm5_no_packs\JLinkSettings.ini"", ...). C:\Program Files (x86)\SEGGER\JLink_V620b\JLinkDevices.xml evaluated successfully.  returns 0x00 (0150ms, 0178ms total)
T4BE0 000:371 JLINK_ExecCommand("Device = nRF52840_xxAA", ...). Device "NRF52840_XXAA" selected.  returns 0x00 (0002ms, 0180ms total)
T4BE0 000:373 JLINK_ExecCommand("DisableConnectionTimeout", ...).   returns 0x01 (0000ms, 0180ms total)
T4BE0 000:373 JLINK_GetHardwareVersion()  returns 0x2710 (0000ms, 0180ms total)
T4BE0 000:373 JLINK_GetDLLVersion()  returns 62002 (0000ms, 0180ms total)
T4BE0 000:373 JLINK_GetFirmwareString(...) (0000ms, 0180ms total)
T4BE0 000:373 JLINK_GetDLLVersion()  returns 62002 (0000ms, 0180ms total)
T4BE0 000:373 JLINK_GetCompileDateTime() (0000ms, 0180ms total)
T4BE0 000:373 JLINK_GetFirmwareString(...) (0000ms, 0180ms total)
T4BE0 000:373 JLINK_GetHardwareVersion()  returns 0x2710 (0000ms, 0180ms total)
T4BE0 000:373 JLINK_TIF_Select(JLINKARM_TIF_SWD)  returns 0x00 (0002ms, 0182ms total)
T4BE0 000:375 JLINK_SetSpeed(5000) (0000ms, 0182ms total)
T4BE0 000:376 JLINK_SetResetType(JLINKARM_RESET_TYPE_NORMAL)  returns JLINKARM_RESET_TYPE_NORMAL (0000ms, 0182ms total)
T4BE0 000:376 JLINK_Reset() >0x10B TIF>Found SW-DP with ID 0x2BA01477 >0x0D TIF> >0x28 TIF> >0x0D TIF> >0x28 TIF> >0x10B TIF>Found SW-DP with ID 0x2BA01477 >0x0D TIF> >0x28 TIF> >0x0D TIF> >0x28 TIF> >0x0D TIF> >0x28 TIF> >0x0D TIF> >0x28 TIF> >0x35 TIF> >0x0D TIF> >0x28 TIF>Scanning AP map to find all available APs >0x0D TIF> >0x28 TIF> >0x35 TIF> >0x35 TIF> >0x0D TIF> >0x28 TIF> >0x35 TIF> >0x35 TIF> >0x0D TIF> >0x28 TIF> >0x35 TIF> >0x35 TIF>AP[2]: Stopped AP scan as end of AP map has been reached
AP[0]: AHB-AP (IDR: 0x24770011)AP[1]: JTAG-AP (IDR: 0x02880000)Iterating through AP map to find AHB-AP to use >0x42 TIF> >0x28 TIF> >0x35 TIF> >0x35 TIF> >0x42 TIF> >0x28 TIF> >0x0D TIF> >0x28 TIF> >0x0D TIF> >0x28 TIF> >0x35 TIF> >0x35 TIF>AP[0]: Core foundAP[0]: AHB-AP ROM base: 0xE00FF000 >0x0D TIF> >0x28 TIF> >0x0D TIF> >0x28 TIF> >0x0D TIF> >0x28 TIF> >0x35 TIF> >0x35 TIF>CPUID register: 0x410FC241. Implementer code: 0x41 (ARM)Found Cortex-M4 r0p1, Little endian. -- CPU_ReadMem(4 bytes @ 0xE000EDF0)
 -- CPU_ReadMem(4 bytes @ 0xE0002000)FPUnit: 6 code (BP) slots and 2 literal slots -- CPU_ReadMem(4 bytes @ 0xE000EDFC) -- CPU_ReadMem(4 bytes @ 0xE0001000) -- CPU_WriteMem(4 bytes @ 0xE0001000) -- CPU_ReadMem(4 bytes @ 0xE000ED88) -- CPU_WriteMem(4 bytes @ 0xE000ED88) -- CPU_ReadMem(4 bytes @ 0xE000ED88) -- CPU_WriteMem(4 bytes @ 0xE000ED88)CoreSight components:ROMTbl[0] @ E00FF000 -- CPU_ReadMem(16 bytes @ 0xE00FF000) -- CPU_ReadMem(16 bytes @ 0xE000EFF0) -- CPU_ReadMem(16 bytes @ 0xE000EFE0)
ROMTbl[0][0]: E000E000, CID: B105E00D, PID: 000BB00C SCS -- CPU_ReadMem(16 bytes @ 0xE0001FF0) -- CPU_ReadMem(16 bytes @ 0xE0001FE0)ROMTbl[0][1]: E0001000, CID: B105E00D, PID: 003BB002 DWT -- CPU_ReadMem(16 bytes @ 0xE0002FF0) -- CPU_ReadMem(16 bytes @ 0xE0002FE0)ROMTbl[0][2]: E0002000, CID: B105E00D, PID: 002BB003 FPB -- CPU_ReadMem(16 bytes @ 0xE0000FF0) -- CPU_ReadMem(16 bytes @ 0xE0000FE0)ROMTbl[0][3]: E0000000, CID: B105E00D, PID: 003BB001 ITM -- CPU_ReadMem(16 bytes @ 0xE00FF010)
 -- CPU_ReadMem(16 bytes @ 0xE0040FF0) -- CPU_ReadMem(16 bytes @ 0xE0040FE0)ROMTbl[0][4]: E0040000, CID: B105900D, PID: 000BB9A1 TPIU -- CPU_ReadMem(16 bytes @ 0xE0041FF0) -- CPU_ReadMem(16 bytes @ 0xE0041FE0)ROMTbl[0][5]: E0041000, CID: B105900D, PID: 000BB925 ETM -- CPU is running -- CPU_WriteMem(4 bytes @ 0xE000EDF0) -- CPU is running -- CPU_WriteMem(4 bytes @ 0xE000EDFC)Reset: Halt core after reset via DEMCR.VC_CORERESET. >0x35 TIF>Reset: Reset device via AIRCR.SYSRESETREQ. -- CPU is running
 -- CPU_WriteMem(4 bytes @ 0xE000ED0C) >0x0D TIF> >0x28 TIF> -- CPU_ReadMem(4 bytes @ 0xE000EDF0) -- CPU_ReadMem(4 bytes @ 0xE000EDF0) -- CPU is running -- CPU_WriteMem(4 bytes @ 0xE000EDF0) -- CPU is running -- CPU_WriteMem(4 bytes @ 0xE000EDFC) -- CPU_ReadMem(4 bytes @ 0xE000EDF0) -- CPU_WriteMem(4 bytes @ 0xE0002000) -- CPU_ReadMem(4 bytes @ 0xE000EDFC) -- CPU_ReadMem(4 bytes @ 0xE0001000) (0208ms, 0390ms total)
T4BE0 000:584 JLINK_GetId() >0x35 TIF>  returns 0x2BA01477 (0001ms, 0391ms total)
T4BE0 000:589 JLINK_GetFirmwareString(...) (0000ms, 0391ms total)
T4BE0 002:181 JLINK_Close() -- CPU_ReadMem(4 bytes @ 0xE0001000) -- CPU_WriteMem(4 bytes @ 0xE0001004) (0031ms, 0422ms total)
T4BE0 002:181  (0031ms, 0422ms total)
T4BE0 002:181 Closed (0031ms, 0422ms total)
